<?xml version="1.0" encoding="utf-8"?>
<!-- Generator: Adobe Illustrator 23.1.0, SVG Export Plug-In . SVG Version: 6.00 Build 0)  -->
<svg version="1.1" xmlns="http://www.w3.org/2000/svg" xmlns:xlink="http://www.w3.org/1999/xlink" x="0px" y="0px"
	 viewBox="0 0 203 199" style="enable-background:new 0 0 203 199;" xml:space="preserve">
<style type="text/css">
	.st0{display:none;}
	.st1{display:inline;fill:#FFBA76;}
	.st2{display:inline;fill:#7A2638;}
	.st3{display:inline;fill:#FFD3CA;}
	.st4{display:inline;}
	.st5{fill:#A52A21;}
	.st6{display:inline;fill:#A52A21;}
	.st7{display:inline;fill:url(#SVGID_1_);}
	.st8{display:inline;fill:#4F2828;}
	.st9{display:inline;fill:#BC6058;}
	.st10{display:inline;fill:#FFE2D9;}
	.st11{display:inline;fill:#E28383;}
	.st12{display:inline;fill:#351E0F;}
	.st13{display:inline;fill:#B24B12;}
	.st14{display:inline;fill:#B53618;}
	.st15{display:inline;fill:#681F33;}
	.st16{fill:#681F33;}
	.st17{display:inline;fill:#FFFFFF;}
	.st18{fill:#4C1B19;}
	.st19{fill:#FFBA76;}
	.st20{clip-path:url(#SVGID_3_);}
	.st21{display:none;fill:#A52A21;}
	.st22{display:none;fill:#681F33;}
	.st23{fill:#FFD3CA;}
	.st24{display:inline;fill:url(#SVGID_4_);}
	.st25{clip-path:url(#SVGID_6_);}
</style>
<g id="rat" class="st0">
	<path class="st1" d="M123.6,763.1c0,0-7.8,13.9-31.2,11.3c-26-2.9-40.8-37.3-11.3-102.4c47.8-105.5-26-89.4-26-89.4
		s71.2-11.2,17.4,98.1C57.2,711.4,50.7,763.1,81,777c26.8,12.3,43.1-5,43.1-5L123.6,763.1z"/>
	<circle class="st2" cx="168.3" cy="584.7" r="44.7"/>
	<path class="st2" d="M248.3,678.3c0,0,37.5,11.4,45.9-25.6l3,3.6l2.6-4.3l3.5,3.5l2.6-4.3c0,0,13,52.9-33.1,71.1
		C229.4,739.3,248.3,678.3,248.3,678.3z"/>
	<path class="st3" d="M293.6,684.8c0,0-8.3-7.2-18.6-9.3c-10.3-2.1-20-3.6-20-3.6l10-49.7c0,0,10.5,0,20.3,2
		c9.8,2,18.3,10.8,18.3,10.8L293.6,684.8z"/>
	<path class="st3" d="M334.1,687.9c0,0-9.5-2.4-19.8-4.5s-20.7,1.4-20.7,1.4l10-49.7c0,0,11.2-4.9,21-2.9c9.8,2,19.5,6,19.5,6
		L334.1,687.9z"/>
	<g class="st4">
		<path class="st5" d="M190.7,575.9c-31.3,12.1-52.4,41.4-34.2,128.1l112.8-93.4C236.4,584.3,222,563.8,190.7,575.9z"/>
	</g>
	<path class="st6" d="M239.9,623.4l35.6,96.3L127,702c0,0,10.5-15.3,17.4-37.9c8.9-29,4.3-46,4.3-46L239.9,623.4z"/>
	<g class="st4">
		<path class="st5" d="M219.1,799.4l-32.8,3.2c-35.2,3.4-66.7-22.6-70.1-57.7l0,0c-3.4-35.2,22.6-66.7,57.7-70.1l32.8-3.2
			c35.2-3.4,66.7,22.6,70.1,57.7v0C280.2,764.4,254.2,796,219.1,799.4z"/>
	</g>
	<circle class="st1" cx="149.2" cy="589.9" r="44.7"/>
	<path class="st1" d="M175.3,803.1l75,0c0,0,1.7-6.9-15.6-12.2S175.3,803.1,175.3,803.1z"/>
	<linearGradient id="SVGID_1_" gradientUnits="userSpaceOnUse" x1="187.1498" y1="712.4537" x2="267.939" y2="655.8845">
		<stop  offset="0.3493" style="stop-color:#A52A21"/>
		<stop  offset="0.7654" style="stop-color:#FF8878"/>
	</linearGradient>
	<path class="st7" d="M216.4,671.1c0,0,5.2-32.1,33.8-32.1l-1.7,3.5h5.2l-1.7,4.3l4.3,0.9c0,0-13.9,7.5-8.7,30.4
		c5.3,23.3-8.5,40-26,42.5c-11.1,1.6-34.1,8.2-40.8-12.2C167.8,668.5,216.4,671.1,216.4,671.1z"/>
	<circle class="st8" cx="268.5" cy="610.3" r="3.5"/>
	<path class="st6" d="M158.7,594c-1.5-4.8-4-8-7.5-9.5c-5.9-2.7-12.6,0.3-12.6,0.3l-0.4-0.9c0.3-0.1,7.2-3.1,13.5-0.3
		c3.8,1.7,6.5,5.1,8.1,10.1L158.7,594z"/>
	<rect x="270.6" y="598.2" transform="matrix(0.8352 -0.55 0.55 0.8352 -281.7154 257.3423)" class="st9" width="35.8" height="1"/>
	
		<rect x="290.3" y="592.4" transform="matrix(6.578270e-02 -0.9978 0.9978 6.578270e-02 -337.2456 860.3522)" class="st9" width="1" height="35.8"/>
	<circle class="st10" cx="230.8" cy="602.1" r="3"/>
</g>
<g id="monkey" class="st0">
	<path class="st2" d="M542.5,756h-10c-53.1,0-96.5-43.4-96.5-96.5v-62c0-53.1,43.4-96.5,96.5-96.5h10c53.1,0,96.5,43.4,96.5,96.5v62
		C639,712.6,595.6,756,542.5,756z"/>
	<path class="st11" d="M537.6,759L537.6,759c-30.5,0-55.4-24.9-55.4-55.4v-94.7c0-30.5,24.9-55.4,55.4-55.4h0
		c30.5,0,55.4,24.9,55.4,55.4v94.7C593,734.1,568.1,759,537.6,759z"/>
	<path class="st6" d="M610.4,764H467.6c-40,0-72.6-29.9-72.6-66.5v0c0-22.7,20.3-41.4,45.2-41.4L536,713l101.8-56.8
		c24.9,0,45.2,18.6,45.2,41.4v0C683,734.1,650.3,764,610.4,764z"/>
	<circle class="st1" cx="463.5" cy="489.5" r="32.5"/>
	<circle class="st1" cx="610.5" cy="489.5" r="32.5"/>
	<path class="st6" d="M599.4,495.2l-0.9-0.4c6.1-12.1,23.3-12.3,23.4-12.3v1C621.8,483.5,605.2,483.6,599.4,495.2z"/>
	<path class="st6" d="M475.6,495.2c-5.8-11.6-22.4-11.7-22.6-11.7v-1c0.2,0,17.4,0.1,23.4,12.3L475.6,495.2z"/>
	<path class="st6" d="M537.8,561L537.8,561c-36.5,0-66.3-29.8-66.3-66.3v-16.4c0-36.5,29.8-66.3,66.3-66.3h0
		c36.5,0,66.3,29.8,66.3,66.3v16.4C604.1,531.2,574.2,561,537.8,561z"/>
	<path class="st1" d="M565.5,561h-56c-18.4,0-33.5-15.1-33.5-33.5v0c0-10.2,8.3-18.5,18.5-18.5h86c10.2,0,18.5,8.3,18.5,18.5v0
		C599,545.9,583.9,561,565.5,561z"/>
	<ellipse class="st1" cx="514.5" cy="483.5" rx="26.5" ry="36.5"/>
	<ellipse class="st1" cx="562.5" cy="483.5" rx="26.5" ry="36.5"/>
	<circle class="st12" cx="521" cy="498" r="3"/>
	<circle class="st12" cx="556" cy="498" r="3"/>
	<polygon class="st13" points="538,519.6 529.8,515.5 530.2,514.6 538,518.4 546.8,514.6 547.2,515.6 	"/>
	<rect x="537.5" y="519" class="st13" width="1" height="9"/>
	<path class="st1" d="M576.3,763h-19.5c-14.7,0-26.7-12-26.7-26.7v-1c0-14.7,11.1-15.6,26-19.3l32.6-7.4c8,0,14.5,6.5,14.5,14.5
		v13.2C603,751,591,763,576.3,763z"/>
	<rect x="588" y="751.5" class="st14" width="16" height="1"/>
	<rect x="588" y="722.5" class="st14" width="16" height="1"/>
	<rect x="588" y="732.5" class="st14" width="16" height="1"/>
	<rect x="588" y="741.5" class="st14" width="16" height="1"/>
	<path class="st3" d="M538,683.5c0,0-17.3-9.8-36.3-9.8c-19,0-36.7,0.8-36.7,0.8v-91.8c0,0,18.6-3.7,36.7-3.7s36.3,12.7,36.3,12.7
		V683.5z"/>
	<path class="st3" d="M611,674.5c0,0-17.8-0.8-36.7-0.8c-19,0-36.3,9.8-36.3,9.8v-91.8c0,0,18.1-12.7,36.3-12.7
		c18.2,0,36.7,3.7,36.7,3.7V674.5z"/>
	<path class="st1" d="M468.5,659h-1c-10.7,0-19.5-8.8-19.5-19.5v-11c0-10.7,8.8-19.5,19.5-19.5h1c10.7,0,19.5,8.8,19.5,19.5v11
		C488,650.2,479.2,659,468.5,659z"/>
	<path class="st1" d="M607.5,659h-1c-10.7,0-19.5-8.8-19.5-19.5v-11c0-10.7,8.8-19.5,19.5-19.5h1c10.7,0,19.5,8.8,19.5,19.5v11
		C627,650.2,618.2,659,607.5,659z"/>
	<rect x="587" y="645.5" class="st14" width="23" height="1"/>
	<rect x="587" y="633.5" class="st14" width="23" height="1"/>
	<rect x="587" y="621.5" class="st14" width="23" height="1"/>
	<rect x="465" y="645.5" class="st14" width="23" height="1"/>
	<rect x="465" y="633.5" class="st14" width="23" height="1"/>
	<rect x="465" y="621.5" class="st14" width="23" height="1"/>
</g>
<g id="dog" class="st0">
	<path class="st15" d="M378.3,833.2c0,0,2.1,60.5,2.1,68.7S362.9,926,356.8,930c-9,6,25.1,23.1,25.6,57.4h30.8c0,0,0-12.3-7.2-13.3
		c-4.1-0.6-4.4-0.2-6.1-2c-6.9-7.6-13.3-27.1-10.3-33.3c10.3-21,35.9-13.8,53.3-56.9S378.3,833.2,378.3,833.2z"/>
	<path class="st15" d="M513.6,910.6c0,0-4.1,5.1-10.2,12.3s-19.5,8.2-19.5,8.2s1.9,1.8,4.1,4.1c2.2,2.3,5.1,3.1,5.1,3.1l-6.1,2
		c0,0,10.3,5.1,22.5,14.4c12.3,9.2,33.8,32.8,33.8,32.8H572c0,0,0-13.3-7.2-14.4c-7.2-1-21.2-1.9-31.8-44.1
		C525.9,900.3,513.6,910.6,513.6,910.6z"/>
	<path class="st6" d="M488,848.6c0,46.7-38.4,55.9-85.1,55.9s-84-9.2-84-55.9s37.9-84.6,84.6-84.6S488,801.9,488,848.6z"/>
	<path class="st6" d="M434.7,770.2c0,0,16.9,1.6,64.6,47.1c23.6,22.5,53.3,35.9,53.3,35.9s13.7,66.9-21.7,80.6
		c-94.1,36.3-116.6-30.3-158.7-25.2C314.6,915.5,434.7,770.2,434.7,770.2z"/>
	<path class="st15" d="M582.7,866.8c0,0,17.8-3.7,28.7-4.8c16.4-1.6,9.6,20.8,23.2,27.2c13.7,6.4-17.8,11.2-26,0
		c-8.2-11.2-8.2-12.8-24.6-14.4C567.6,873.2,582.7,866.8,582.7,866.8z"/>
	<path class="st6" d="M600.8,886.4l-0.5,32.2c0,0,5.1,4.9,13.3,14.6c6.2,7.3,13.8,12.8,13.8,16.1c0,4.1-3.6,19.3-31.9,23.2
		c-22.1,3.1-57.9-12.6-63.8-13.8c-19.5-3.9-31.9-19.1-45.6-52.2c-13-31.3,22.6-60.4,56.5-60.4S598.9,865.9,600.8,886.4z"/>
	<path class="st6" d="M319.9,839.8c0,0,2,60.5,2,68.7c0,8.2-10.3,21.5-16.4,25.6c-9,6,2.6,25.6,3.1,60l32.8-0.5c0,0,0.3-6.4-2-10.3
		c-1.5-2.5-6.4-2.3-9.2-3.1c-7.2-2.1-7.2-32.8-1-39c6.1-6.2,44.9-2.9,59.4-41C405,857.3,319.9,839.8,319.9,839.8z"/>
	<path class="st6" d="M456.2,916.7c0,0-4.1,5.1-10.3,12.3c-6.2,7.2-19.5,8.2-19.5,8.2s1.9,1.8,4.1,4.1c2.2,2.3,5.1,3.1,5.1,3.1
		l-6.2,2c0,0,10.3,5.1,22.6,14.3c12.3,9.2,33.8,32.8,33.8,32.8h28.7c0,0,0-13.3-7.2-14.3c-7.2-1-21.2-1.9-31.8-44.1
		C468.5,906.5,456.2,916.7,456.2,916.7z"/>
	<path class="st1" d="M500.4,887.3c0,0-8.5-0.8-10.7,22.3c-1.9,19.7,1.5,14.9,14.4,33.3c13.1,18.7,19.4-4.3,19-15.4
		c-0.4-11.1,8.5-28.7,18.4-24.1C551.3,908.1,521.3,883.2,500.4,887.3z"/>
	<path class="st15" d="M514.3,950.4C514.2,950.4,514.2,950.4,514.3,950.4c-3.1-0.1-7-4.1-12.7-10.2c-1-1.1-2.1-2.1-3.1-3
		c-6.2-5.9-12.1-11.5-8.6-32.6c3.4-20.8,15.3-21.4,15.8-21.4l0,1c-0.1,0-11.6,0.7-14.9,20.6c-3.4,20.6,2.3,26,8.3,31.7
		c1,1,2.1,2,3.1,3c5.4,5.8,9.3,9.9,12,9.9c0.7,0,1.2-0.2,1.8-0.8c5.4-5.3,5.6-10.5,5.8-16.4c0.1-3.4,0.3-7,1.4-11
		c2.9-10.2,6.9-16.2,12-18c4.6-1.6,8.3,1,8.5,1.2l-0.6,0.8c0,0-3.5-2.4-7.6-1c-4.7,1.6-8.6,7.6-11.3,17.3c-1.1,3.9-1.2,7.4-1.4,10.8
		c-0.2,5.9-0.5,11.4-6.1,17.1C516,950.1,515.2,950.4,514.3,950.4z"/>
	
		<ellipse transform="matrix(0.4462 -0.8949 0.8949 0.4462 -519.8577 1025.1531)" class="st15" cx="568.4" cy="932.6" rx="3.7" ry="2.7"/>
	<path class="st15" d="M627.4,949.1c0,0-19.1,3.2-20.2,5.3c-1.1,2.1,9.2,11.6,13.5,7.9C628.4,955.5,627.4,949.1,627.4,949.1z"/>
	<path class="st6" d="M371.8,770.2c0,0-40.2,18.4-73.3,29S243,809.8,243,809.8s9.5,18.5,37.8,14.5c0,0-12.2,5.1-11.8,5.3
		c27.2,11.9,65.3-0.7,102.8-52.8C377.6,768.7,371.8,770.2,371.8,770.2z"/>
	<path class="st15" d="M386.3,908.8l-0.8-0.7l0.4,0.3l-0.4-0.3c0,0,4.2-5.3,5-28.2l1,0C390.8,903.4,386.5,908.6,386.3,908.8z"/>
	<path class="st15" d="M640,992l-31.7,0.5L619,987h16C635,987,639,988,640,992z"/>
	<path class="st3" d="M620.4,992.5c0,0,0.6,0.5,5.6-2.5c5.3-3.2,9-3,9-3h-93l-10.9,5.5H620.4z"/>
	<path class="st15" d="M608.7,979.2c0,0,2.9-1.1,8,7.7c1.8,3.1,2.2,6.7,2.2,6.7h-78.6c0,0-0.4-2.6-2.2-6.7c-3.6-8.2-5.4-7.7-5.4-7.7
		H608.7z"/>
	<path class="st3" d="M532.4,978.7c0,0-2.9-1.1-8,7.7c-1.8,3.1-2.2,6.7-2.2,6.7h78.6c0,0,0.4-2.6,2.2-6.7c3.6-8.2,5.4-7.7,5.4-7.7
		H532.4z"/>
</g>
<g id="rooster" class="st0">
	<path class="st15" d="M924,732c0,0-25,12-35,22c-6,6-11,6-11,6s10,37,13,41c1.7,2.3,11.2,2.5,16,4c3.5,1.1,3,4,3,4h-33c0,0-1-3,3-4
		c5.2-1.3,4-4,4-4s-12-35-14-45s-12-26-12-24S924,732,924,732z"/>
	<path class="st1" d="M897,732c0,0-25,12-35,22c-6,6-11,6-11,6s3,41,6,45c1.7,2.3,11.2,2.5,16,4c3.5,1.1,3,4,3,4h-33c0,0-1-3,3-4
		c5.2-1.3,4-4,4-4s-5-39-7-49s-12-26-12-24S897,732,897,732z"/>
	<path class="st15" d="M897,732c0,0-25,12-35,22c-6,6-11,6-11,6s-7,1-8-4c-2-10-12-26-12-24S897,732,897,732z"/>
	<path class="st6" d="M966,601c0,0,55-44,62-43s8.6,85.2-67,128C908,716,966,601,966,601z"/>
	<path class="st15" d="M927,494c0,0-28.4,5.7-57,45s-27,84-27,84s-37,10-40-51c-3.1-62.1-114-71-136,28c-8.1,36.4,2.8,17.2,24-4
		c24-24,34-23,34-23s-22,10-32,40c-4,12,28-1,28-1s-6,6-8,16c-2.4,11.8,15,5,15,5s3,107.4,127,111c102,3,134-62,134-99
		c0-22-19-61-33-125C950.3,493.9,955,485,927,494z"/>
	<path class="st1" d="M946,497c0,0,3-4,11-5s13,5,13,5s-4-1-8,2s-4,6-4,6s1.6,0.2,5,1c4,1,6,2,6,2s-5.1,1.7-9,3c-6,2-10,4-10,4
		L946,497z"/>
	<path class="st6" d="M953,493c0,0,8.6-6.1-1.7-13.8c-9.2-6.8-9.7-13-12.1-11.1c-1.7,1.3,0.7,7.2-4.2,8.2
		c-3.4,0.7-13.5-18.8-17.1-16c-2.4,1.9,3.3,14.6,0.1,19.5c-2.7,4-16.3-13.7-19.8-11.9c-3.2,1.6,6.1,14.8,3.6,17.7
		c-2.5,3-16-6.1-18.4-4.2c-2.4,1.9,15.2,13.6-0.3,13c-2.3-0.1,1.1,10.5,10.9,11.5c5.4,0.6,5-1,14-4S953,493,953,493z"/>
	<path class="st1" d="M927,494c0,0-28.4,5.7-57,45s-27,84-27,84s17.7,25.1,49,18c22-5,21.6-21.5,40-36c19-15,27.7-15.2,30-19
		c3-5,9-9-6-66C949.2,494.2,955,485,927,494z"/>
	<path class="st6" d="M953,493c-5,8-7,22-3,21s5.8-1.2,6-1c2.3,2.5,8.7,9.4,12,11c10.8,5.4,4,20.2-8,18c-6.7-1.3-9-8-10-18
		c-0.5-5.2-36,0-20-24c4.5-6.7,11.2-5.9,17-7C949.4,492.6,953,493,953,493z"/>
	<circle class="st12" cx="937" cy="500" r="3"/>
	<path class="st1" d="M853,620c0,0-57-3.5-83,10c-25,13-38,37.2-26,59c13.2,24,52,31,62,5C829.6,632.6,853,620,853,620z"/>
	<path class="st6" d="M840.2,643.2c0,0,5.3,14.5,21.6,21.6c10.2,4.5,26.3,2,26.3,2s-2,5.8,9.4,6.3c13.7,0.6,24.6-8.1,24.6-8.1
		s-43.6,78.5-111.8,58.2C797.2,719.3,829.1,648.3,840.2,643.2z"/>
	<path class="st1" d="M849,785h-14c0,0,9,4.9,14,5S849,785,849,785z"/>
	<ellipse transform="matrix(0.9727 -0.2323 0.2323 0.9727 -93.2297 230.2235)" class="st1" cx="931" cy="511" rx="4" ry="3"/>
	<path class="st3" d="M1017.6,587.8c0,0-8.3-7.2-18.6-9.3c-10.3-2.1-20-3.6-20-3.6l10-49.7c0,0,10.5,0,20.3,2
		c9.8,2,18.3,10.8,18.3,10.8L1017.6,587.8z"/>
	<path class="st3" d="M1058.1,590.9c0,0-9.5-2.4-19.8-4.5s-20.7,1.4-20.7,1.4l10-49.7c0,0,11.2-4.9,21-2.9c9.8,2,19.5,6,19.5,6
		L1058.1,590.9z"/>
</g>
<g id="pig" class="st0">
	<polygon class="st15" points="797.9,1018.3 774.2,1018.3 766.4,985.8 797.4,985.8 	"/>
	<polygon class="st15" points="907.2,1018.3 883.5,1018.3 875.8,985.8 906.7,985.8 	"/>
	<polygon class="st6" points="763.8,1021.4 740.1,1021.4 736.5,988.9 767.5,988.9 	"/>
	<polygon class="st6" points="873.2,1021.4 849.5,1021.4 845.9,988.9 876.8,988.9 	"/>
	<path class="st15" d="M965.7,872.6c0,0,18.5,3,29.4,6c16.4,4.6,3.9,20.2,7,35.5c2,9.9-16.5,0-19.8-10.3c-4.3-13.7-3.1-15.4-18.3-23
		S965.7,872.6,965.7,872.6z"/>
	<path class="st6" d="M889.2,993.6H761.3c-49.6,0-90.3-40.6-90.3-90.3v0c0-49.6,19.1-82,72.2-92.3c53.1-10.3,76.5,7.4,135.1,20.6
		c41.3,9.3,101.1,22.7,101.1,78.4C979.4,960.1,960.9,993.6,889.2,993.6z"/>
	<ellipse class="st1" cx="952.6" cy="940.5" rx="28.9" ry="20.1"/>
	<circle class="st15" cx="941.8" cy="940.5" r="2.6"/>
	<circle class="st15" cx="963.5" cy="940.5" r="2.6"/>
	<circle class="st15" cx="930.4" cy="907.4" r="2.6"/>
	<circle class="st15" cx="964.5" cy="907.4" r="2.6"/>
	<path class="st6" d="M689.3,821.3c-7.2,0-13.1-5.9-13.1-13.1c0-7.2,5.9-13.1,13.1-13.1s13.1,5.9,13.1,13.1
		C702.4,815.4,696.5,821.3,689.3,821.3z M689.3,798c-5.6,0-10.1,4.5-10.1,10.1c0,5.6,4.5,10.1,10.1,10.1s10.1-4.5,10.1-10.1
		C699.4,802.6,694.9,798,689.3,798z"/>
	<path class="st6" d="M692.4,838.6c-0.1-0.1-8.3-13.5-14.5-23.7c-6.4-10.6-3.4-32.1-3.3-33l3,0.4c0,0.2-2.9,21.3,2.9,31
		c6.1,10.2,14.4,23.6,14.4,23.7L692.4,838.6z"/>
	<path class="st6" d="M855.1,872.6c0,0-7.3-0.7-9.1,19c-1.6,16.8,1.3,12.7,12.3,28.4c11.2,15.9,16.6-3.7,16.2-13.1
		c-0.4-9.5,7.3-24.4,15.6-20.5C898.5,890.3,872.9,869,855.1,872.6z"/>
	<path class="st15" d="M866.9,926.4C866.9,926.4,866.9,926.4,866.9,926.4c-2.7,0-6-3.5-10.9-8.7c-0.9-0.9-1.7-1.8-2.6-2.6
		c-5.3-5-10.3-9.8-7.4-27.8c2.9-17.8,33.7-13.6,35-13.4l-0.1,1c-0.3,0-31.1-4.3-33.8,12.5c-2.9,17.5,2,22.1,7.1,26.9
		c0.9,0.8,1.8,1.7,2.6,2.6c4.6,4.9,7.9,8.4,10.2,8.4c0.5,0,1-0.2,1.4-0.6c4.6-4.5,4.8-8.9,5-13.9c0.1-2.9,0.2-6,1.2-9.4
		c2.5-8.7,5.9-13.8,10.3-15.4c4-1.4,7.2,0.9,7.3,1l-0.6,0.8c0,0-2.9-2.1-6.4-0.9c-4,1.4-7.3,6.5-9.6,14.7c-0.9,3.3-1.1,6.3-1.2,9.2
		c-0.2,5-0.4,9.8-5.3,14.6C868.4,926.1,867.7,926.4,866.9,926.4z"/>
	<path class="st15" d="M1018,1016.3l-32.7,0.5l11.1-5.7h16.5C1012.8,1011.1,1017,1012.1,1018,1016.3z"/>
	<path class="st3" d="M997.8,1016.8c0,0,0.6,0.5,5.8-2.6c5.4-3.3,9.3-3.1,9.3-3.1h-95.9l-11.2,5.7H997.8z"/>
	<path class="st15" d="M985.7,1003.1c0,0,3-1.1,8.3,7.9c1.8,3.2,2.3,6.9,2.3,6.9h-81c0,0-0.5-2.6-2.3-6.9c-3.7-8.4-5.5-7.9-5.5-7.9
		H985.7z"/>
	<path class="st3" d="M907,1002.6c0,0-3-1.1-8.3,7.9c-1.8,3.2-2.3,6.9-2.3,6.9h81c0,0,0.5-2.6,2.3-6.9c3.7-8.4,5.5-7.9,5.5-7.9H907z
		"/>
</g>
<g id="snake" class="st0">
	<ellipse class="st6" cx="1244" cy="591.5" rx="132" ry="92.5"/>
	<g class="st4">
		<ellipse class="st5" cx="1244" cy="566.1" rx="112" ry="78.5"/>
		<path class="st16" d="M1244,645.1c-62,0-112.5-35.4-112.5-79s50.5-79,112.5-79s112.5,35.4,112.5,79S1306,645.1,1244,645.1z
			 M1244,488.1c-61.5,0-111.5,35-111.5,78s50,78,111.5,78s111.5-35,111.5-78S1305.5,488.1,1244,488.1z"/>
	</g>
	<g class="st4">
		<path class="st5" d="M1157.4,529c-1.5,4.6-2.4,6.9-2.4,11.8c0,34.3,39.7,62.2,88.7,62.2s88.7-27.8,88.7-62.2
			c0-4.9-0.8-7.2-2.4-11.8H1157.4z"/>
		<path class="st16" d="M1330.1,529c1.5,4.6,2.4,6.9,2.4,11.8c0,34.3-39.7,62.2-88.7,62.2s-88.7-27.8-88.7-62.2
			c0-4.9,0.8-7.2,2.4-11.8H1330.1 M1330.8,528h-0.7h-172.7h-0.7l-0.2,0.7l-0.1,0.4c-1.5,4.4-2.3,6.8-2.3,11.7
			c0,34.8,40.3,63.2,89.7,63.2s89.7-28.3,89.7-63.2c0-4.9-0.8-7.4-2.3-11.7l-0.1-0.4L1330.8,528L1330.8,528z"/>
	</g>
	<ellipse class="st6" cx="1243.7" cy="540.8" rx="88.7" ry="62.2"/>
	<path class="st6" d="M1288,638c0,0-95,31.5-41,76c11.6,9.6-9-9,9.7-26.4c11.3-10.6,17.3-3.6,39.1-11"/>
	<path class="st15" d="M1231,683.6l-1-0.2c0.1-0.3,8.1-33.3,57.9-45.6l0.2,1C1239,650.9,1231.1,683.3,1231,683.6z"/>
	<polygon class="st15" points="1222.1,445.8 1199,445.8 1204.5,450.1 1199,454.4 1222.1,454.4 	"/>
	<g>
		<path class="st17" d="M1255,441.5L1255,441.5c27.2,0,49.5,22.3,49.5,49.5v21.5"/>
		<path class="st6" d="M1304.5,540c-15.2,0-27.5-12.3-27.5-27.5V491c0-12.1-9.9-22-22-22c-15.2,0-27.5-12.3-27.5-27.5
			s12.3-27.5,27.5-27.5c42.5,0,77,34.5,77,77v21.5C1332,527.7,1319.7,540,1304.5,540z"/>
	</g>
	<path class="st15" d="M1233.5,563h18.9c14,0,25.5-11.5,25.5-25.5v-13c0-6.9-5.6-12.5-12.5-12.5h-32c-14,0-25.5,11.5-25.5,25.5l0,0
		C1208,551.5,1219.5,563,1233.5,563z"/>
	<g class="st4">
		<path class="st5" d="M1305.6,547c-16.7,0-26.4-13.5-26.4-30.2v-23.7c0-13.3-7.7-28.5-28.6-28.5c-16.7,0-33-0.9-33-17.6
			c0-16.7,20.1-24.3,36.3-28.6c37.4-9.9,78,28,78,74.7v23.7C1332,533.5,1322.3,547,1305.6,547z"/>
	</g>
	<rect x="1325.3" y="425.5" class="st18" width="79.7" height="78"/>
	<path class="st3" d="M1233.8,515.4c0,0-10.7,10-14.3,21.2c-3.6,11.1-6.2,21.6-6.2,21.6l-70.1-0.8c0,0,0.7-10.9,4.1-21.6
		c3.4-10.7,16.4-21.2,16.4-21.2L1233.8,515.4z"/>
	<path class="st3" d="M1240.6,472.6c0,0-4,10.4-7.5,21.5c-3.6,11.1,0.7,21.3,0.7,21.3l-70.1-0.8c0,0-6.3-10.7-2.9-21.4
		c3.4-10.7,9.7-21.5,9.7-21.5L1240.6,472.6z"/>
	<circle class="st15" cx="1247.5" cy="434.5" r="3.5"/>
	<path class="st1" d="M1254.8,464.8c0,0-5.8-7.8,10.2-6.8c13.6,0.8,23,6,23,53c0,35.1-10,52-31,52c0,0,22,0,22-53
		c0-10.9,0.4-21.9-1.9-28C1271,465,1254.8,464.8,1254.8,464.8z"/>
</g>
<g id="goat" class="st0">
	<g class="st4">
		<path class="st16" d="M1603.3,737.6c1.5,19.1-0.9,26.3-3.4,28.9c-1.9,2-2.5,5-1.7,7.6c2.7,8.9,7.2,28.1,8.8,66.7
			c0.2,3.8,4.7,2.8,5.6,12.2h28.2c-2.8-15-10.3-12.2-15-22.5c-2.2-4.8-6.6-54.4,20.6-92.9C1669.3,705.3,1600.5,702.9,1603.3,737.6z"
			/>
		<path class="st16" d="M1782.5,737.6c1.5,19.1-0.9,26.3-3.4,28.9c-1.9,2-2.5,5-1.7,7.6c2.7,8.9,7.2,28.1,8.8,66.7
			c0.2,3.8,4.7,2.8,5.6,12.2h28.2c-2.8-15-10.3-12.2-15-22.5c-2.2-4.8-7.5-61,19.7-99.5C1847.6,698.7,1779.7,702.9,1782.5,737.6z"/>
		<path class="st5" d="M1731.8,743.2c1.5,19.1-0.9,26.3-3.4,28.9c-1.9,2-2.5,5-1.7,7.6c2.7,8.9,7.2,28.1,8.8,66.7
			c0.2,3.8,4.7,2.8,5.6,12.2h28.2c-2.8-15-10.3-12.2-15-22.5c-2.2-4.8-6.6-54.4,20.6-92.9C1797.8,710.9,1729,708.5,1731.8,743.2z"/>
		<path class="st5" d="M1750.6,568.7c-39.4,4.7-58.2,31.9-92,26.3c-66.8-11.1-94.8-18.8-119.2,14.1c-37.6,50.7,9.4,99.5,12.2,134.2
			c1.5,19.1-0.9,26.3-3.4,28.9c-1.9,2-2.5,5-1.7,7.6c2.7,8.9,7.2,28.1,8.8,66.7c0.2,3.8,4.7,2.8,5.6,12.2h28.2
			c-2.8-15-10.3-12.2-15-22.5c-2.2-4.8-6.6-54.4,20.6-92.9c22.8-32.3,48.8,28.2,155.8,5.6c0,0,21.6,1.9,53.5-5.6
			c0,0,44.1-19.7,44.1-70.4c0-23.5-7.2-20.5-14.1-64.7C1815.3,488,1774.1,565.9,1750.6,568.7z"/>
	</g>
	<path class="st15" d="M1798.5,625c26.3,0,34.8-22,34.8-22s-3.4-21.2-9.2-37.2c-5.9-15.9-70.6-2.8-73.4,2.8
		C1752.5,586.5,1770.3,625,1798.5,625z"/>
	<path class="st1" d="M1696.2,509.6c-15-13.1-21.9-34.5-16-50.7c6.8-18.8,26.5-31.9,47.9-31.9c31,0,56.3,25.3,56.3,56.3
		c0,6.2-5,11.3-11.3,11.3c-6.2,0-11.3-5-11.3-11.3c0-18.6-15.2-33.8-33.8-33.8c-11.7,0-22.8,7.5-26.8,17
		c-6.1,14.9-2.3,28.9-1.4,40.2C1700.5,513,1698.1,511.5,1696.2,509.6z"/>
	<path class="st1" d="M1889.2,509.6c15-13.1,21.9-34.5,16-50.7c-6.8-18.8-26.5-31.9-47.9-31.9c-31,0-56.3,25.3-56.3,56.3
		c0,6.2,5,11.3,11.3,11.3c6.2,0,11.3-5,11.3-11.3c0-18.6,15.2-33.8,33.8-33.8c11.7,0,22.8,7.5,26.8,17c6.1,14.9,2.3,28.9,1.4,40.2
		C1884.9,513,1887.3,511.5,1889.2,509.6z"/>
	<g class="st4">
		<path class="st5" d="M1792.8,480.5c0,0-21.7-19.8-46.9,5.4c-28,28-8.4,39-2.8,53.4c4,10.3,9.6,52.3,24.4,62.2
			c5.6,3.8,6.6,14.2,25.3,14.2V480.5z"/>
		<path class="st5" d="M1792.8,480.5c0,0,21.7-19.8,46.9,5.4c28,28,8.4,39,2.8,53.4c-4,10.3-9.6,52.3-24.4,62.2
			c-5.6,3.8-6.6,14.2-25.3,14.2V480.5z"/>
	</g>
	<path class="st6" d="M1745,496.4c0,0-2.6-3.8-16,6.6c-25.3,19.7-46,21.6-52.5,25.3c-5,2.8,31,33.8,54.4,8.4
		C1769,495.6,1745,496.4,1745,496.4z"/>
	<path class="st6" d="M1843,496.4c0,0,2.6-3.8,16,6.6c25.3,19.7,46,21.6,52.5,25.3c5,2.8-31,33.8-54.4,8.4
		C1819,495.6,1843,496.4,1843,496.4z"/>
	<circle class="st1" cx="1756.9" cy="523.4" r="6.3"/>
	<circle class="st1" cx="1829.7" cy="523.4" r="6.3"/>
	<path class="st15" d="M1761.1,524.4h-8.4c-0.6,0-1-0.4-1-1s0.4-1,1-1h8.4c0.6,0,1,0.4,1,1S1761.7,524.4,1761.1,524.4z"/>
	<path class="st15" d="M1833.9,524.4h-8.4c-0.6,0-1-0.4-1-1s0.4-1,1-1h8.4c0.6,0,1,0.4,1,1S1834.4,524.4,1833.9,524.4z"/>
	<path class="st3" d="M1755.6,652c0,0,5.3-13.3,3.5-26.9c-1.9-13.6-4.2-26.2-4.2-26.2l65.8-9.1c0,0,4.4,12.9,6.2,25.9
		c1.8,13-5.5,27.2-5.5,27.2L1755.6,652z"/>
	<path class="st3" d="M1769.3,703.3c0,0-1.2-12.8-3-26.4c-1.9-13.6-10.6-25-10.6-25l65.8-9.1c0,0,10.8,11.7,12.6,24.7s1,26.7,1,26.7
		L1769.3,703.3z"/>
	<path class="st6" d="M1772.2,589.3c0,0,11.3,10.3,20.6,10.3c9.4,0,19.7-10.3,19.7-10.3"/>
	<path class="st15" d="M1804.1,571.3c0,4.7-4.9,10.6-10.9,10.6s-10.9-5.9-10.9-10.6s4.9-6.3,10.9-6.3S1804.1,566.6,1804.1,571.3z"/>
	
		<rect x="1784.4" y="588.4" transform="matrix(3.906220e-03 -1 1 3.906220e-03 1197.4022 2379.8147)" class="st15" width="17.8" height="1"/>
	<path class="st6" d="M1549.8,599.7c0,0-49.7,47.9-82.6,35.7c-27.3-10.1,2.8,35.7,37.5,17.8c4.6-2.3-15.7,27.5,16.9,1.9
		C1552.6,630.6,1549.8,599.7,1549.8,599.7z"/>
</g>
<g id="ox" class="st0">
	<g class="st4">
		<path class="st16" d="M1162.7,956.3c2,24.4-1.1,33.6-4.3,36.9c-2.5,2.6-3.2,6.4-2.2,9.8c3.4,11.3,9.2,35.9,11.3,85.3
			c0.2,4.9,6,3.6,7.2,15.6h36c-3.6-19.2-13.2-15.6-19.2-28.8c-2.8-6.2-8.4-69.5,26.4-118.7C1247,915.1,1159.1,912,1162.7,956.3z"/>
		<path class="st16" d="M1391.7,956.3c2,24.4-1.1,33.6-4.3,36.9c-2.5,2.6-3.2,6.4-2.2,9.8c3.4,11.3,9.2,35.9,11.3,85.3
			c0.2,4.9,6,3.6,7.2,15.6h36c-3.6-19.2-13.2-15.6-19.2-28.8c-2.8-6.2-9.6-77.9,25.2-127.1C1474.8,906.7,1388.1,912,1391.7,956.3z"
			/>
		<path class="st5" d="M1326.9,963.5c2,24.4-1.1,33.6-4.3,36.9c-2.5,2.6-3.2,6.4-2.2,9.8c3.4,11.3,9.2,35.9,11.3,85.3
			c0.2,4.9,6,3.6,7.2,15.6h36c-3.6-19.2-13.2-15.6-19.2-28.8c-2.8-6.2-8.4-69.5,26.4-118.7C1411.3,922.2,1323.3,919.1,1326.9,963.5z
			"/>
		<path class="st5" d="M1350.9,740.5c-50.4,6-74.3,40.8-117.5,33.6c-85.4-14.2-121.1-24-152.3,18c-48.1,64.8,12,127.1,15.6,171.5
			c2,24.4-1.1,33.6-4.3,36.9c-2.5,2.6-3.2,6.4-2.2,9.8c3.4,11.3,9.2,35.9,11.3,85.3c0.2,4.9,6,3.6,7.2,15.6h36
			c-3.6-19.2-13.2-15.6-19.2-28.8c-2.8-6.2-8.4-69.5,26.4-118.7c29.2-41.3,62.4,36,199.1,7.2c0,0,27.6,2.4,68.4-7.2
			c0,0,56.4-25.2,56.4-89.9c0-30-5.9-26.9-18-82.7C1443.2,723.6,1380.9,736.9,1350.9,740.5z"/>
	</g>
	<path class="st15" d="M1358.6,901.8c0,0,0.3,94.6,11,83c21.5-23.3,76.1-36.9,76.1-36.9L1358.6,901.8z"/>
	<g class="st4">
		<path class="st19" d="M1413.7,856.5c0,0-18-15.8-52.7,2.3c-16,8.3-2.3,37,0,71.7c0.6,9.1,7.2,34.3,15,46.1
			c7.8,11.8,5.8,31,37.8,30.2V856.5z"/>
		<path class="st19" d="M1413.7,856.5c0,0,18-15.8,52.7,2.3c16,8.3,2.3,37,0,71.7c-0.6,9.1-7.2,34.3-15,46.1
			c-7.8,11.8-5.8,31-37.8,30.2V856.5z"/>
	</g>
	<g class="st4">
		<g>
			<path class="st5" d="M1359.4,896c-12.6-2.2-30.1-19.3-53.2,2.2c-2.1,2,4.1,3.6,9.8,9.7c9.8,10.6,29.3,15.3,47.1-0.9
				C1385.5,886.6,1372,898.2,1359.4,896z"/>
			<path class="st16" d="M1338.1,918c-8.9,0-17-3.8-22.6-9.8c-2.5-2.7-5.1-4.5-7-5.8c-2-1.4-3.3-2.3-3.3-3.3c0-0.5,0.2-0.9,0.6-1.3
				c17.9-16.6,32.3-10.5,43.9-5.7c3.5,1.5,6.8,2.8,9.8,3.4l0,0c4.4,0.8,9-0.2,12-0.8c2.5-0.5,3.6-0.8,4,0c0.5,1-0.8,2.5-12.1,12.7
				C1355.1,914.9,1346.2,918,1338.1,918z M1330,888c-7.1,0-14.9,2.6-23.5,10.6c-0.3,0.3-0.3,0.4-0.3,0.5c0,0.6,1.4,1.5,2.9,2.6
				c1.9,1.4,4.6,3.2,7.1,5.9c10.3,11.1,29.5,14.4,46.4-0.9c5.8-5.2,11.2-10.2,11.8-11.4c-0.5,0-1.7,0.2-2.8,0.5
				c-3.1,0.7-7.8,1.7-12.4,0.9c-3.1-0.5-6.4-1.9-10-3.4C1343.6,890.7,1337.2,888,1330,888z"/>
		</g>
		<path class="st5" d="M1413.7,857.3c0,0-18-15.8-52.7,2.3c-16,8.3-2.3,37,0,71.7c0.6,9.1,7.2,34.3,15,46.1
			c7.8,11.8,5.8,31,37.8,30.2V857.3z"/>
		<path class="st19" d="M1357.8,861.8l-3,27.9c0,0-58-9.9-65.1-10.8c-7.2-0.9-18.3-11.2-7.2-22.4c5.4-5.4,32.2-13.4,42.9-27.7
			c6.6-8.7,7.2,14.3-17,29.5L1357.8,861.8z"/>
		<path class="st5" d="M1413.7,857.3c0,0,18-15.8,52.7,2.3c16,8.3,2.3,37,0,71.7c-0.6,9.1-7.2,34.3-15,46.1
			c-7.8,11.8-5.8,31-37.8,30.2V857.3z"/>
		<path class="st19" d="M1469.6,861.8l3,27.9c0,0,58-9.9,65.1-10.8s18.3-11.2,7.2-22.4c-5.4-5.4-32.2-13.4-42.9-27.7
			c-6.6-8.7-7.2,14.3,17,29.5L1469.6,861.8z"/>
		<path class="st5" d="M1467.2,896c12.6-2.2,30.1-19.3,53.2,2.2c2.1,2-4.1,3.6-9.8,9.7c-9.8,10.6-29.3,15.3-47.1-0.9
			C1441.1,886.6,1454.6,898.2,1467.2,896z"/>
		<path class="st19" d="M1425.4,1008.1h-19.7c-11.8,0-21.5-9.7-21.5-21.5v0c0-13.9,11.3-25.2,25.2-25.2h8.5
			c13.9,0,25.2,11.3,25.2,25.2v3.7C1443.2,1000.1,1435.2,1008.1,1425.4,1008.1z"/>
		<path class="st16" d="M1417.7,991.7h-8.6c-9.9,0-18-8.1-18-18v-0.3c0-3.8,3.1-7,7-7c0,0,6.3,1.1,15.7,1.1c8.3,0,13.6-0.8,14.7-1
			c0.2,0,0.3,0,0.5,0c3.7,0.1,6.7,3.2,6.7,7v0.3C1435.6,983.6,1427.5,991.7,1417.7,991.7z"/>
		<path class="st19" d="M1402.7,985.3l-0.7-0.8c1.1-1,1.6-2,1.4-3.1c-0.5-4-8-8.1-8.1-8.1l0.5-0.9c0.3,0.2,8.1,4.3,8.7,8.9
			C1404.6,982.7,1404,984.1,1402.7,985.3z"/>
		<path class="st19" d="M1424.1,985.3c-1.3-1.2-1.9-2.5-1.8-4c0.5-4.6,8.3-8.7,8.7-8.9l0.5,0.9c-0.1,0-7.7,4.1-8.1,8.1
			c-0.1,1.1,0.3,2.2,1.4,3.1L1424.1,985.3z"/>
		<circle class="st16" cx="1375.4" cy="913.7" r="5.9"/>
		<circle class="st16" cx="1452.4" cy="913.7" r="5.9"/>
	</g>
	<polygon class="st15" points="1335.2,1117.8 1492.3,1117.8 1413.7,1105.5 	"/>
	<path class="st3" d="M1413.7,1118.2c0,0-13-5.7-27.4-5.7c-14.3,0-51.2,5.3-51.2,5.3l23.4-18.1c0,0,14-6.8,27.7-6.8
		c22.9,0,27.4,8.3,27.4,8.3V1118.2z"/>
	<path class="st3" d="M1413.7,1118.2c0,0,13-5.7,27.4-5.7s51.2,5.3,51.2,5.3l-23.4-18.1c0,0-14-6.8-27.7-6.8
		c-22.9,0-27.4,8.3-27.4,8.3V1118.2z"/>
	<path class="st15" d="M1354.2,850.2l-1-0.2c0.1-0.6,10.7-58.4,20.8-76.8l0.9,0.5C1364.8,791.9,1354.3,849.6,1354.2,850.2z"/>
	<path class="st6" d="M1084.9,787.3c0,0-44.6,19.7-39.3,80.9s-3.8,74-3.8,74s-22.7,1.5-22.7,31c0,0,29.5-3.8,28.6-25.3
		c21.3-44.2-24.8-120.5,37.1-149.9C1125.1,778.8,1084.9,787.3,1084.9,787.3z"/>
</g>
<g id="rabbit" class="st0">
	<path class="st15" d="M1573.5,1082.3c0,0-23.8-13-33.1,7.2c-6.1,13.1-5.8,18.7,3.6,24.5c5.6,3.4,20.9-9.4,54.7-11.5
		C1628.8,1100.5,1573.5,1082.3,1573.5,1082.3z"/>
	<circle class="st15" cx="1549.4" cy="1047.4" r="23.4"/>
	<path class="st6" d="M1796.8,1052.4c0,47.3-53.5,61.6-119.4,61.6S1558,1097,1558,1049.7c0-47.3,53.5-107.1,119.4-107.1
		S1796.8,1005,1796.8,1052.4z"/>
	<path class="st6" d="M1673.6,1119.7c0,0,83.2-21.2,104.4,0c14.4,14.4,18.7-13,18.7-13s-15.1-41.8-7.2-51.1
		S1673.6,1119.7,1673.6,1119.7z"/>
	<path class="st15" d="M1676.5,1073.6c-2.9,7.2,37.9,36.7,68.7,36.7c25.7,0,51.6,11.5,51.6,11.5v-21.6c0,0-6.5-6.8-7.2-22.1
		C1788.9,1062.8,1679.4,1066.4,1676.5,1073.6z"/>
	<path class="st6" d="M1799,1051.3c0,31-29.2,46.8-64.8,46.8c-35.6,0-64.1-17.3-64.1-46.8c0-33.8,28.9-69.1,64.5-69.1
		C1770.1,982.2,1799,1017.5,1799,1051.3z"/>
	<path class="st15" d="M1755.8,1105.3c2.2,9.4,17.3,14.4,21.6,28.1c1.8,5.7,9.6,10.1,14.4,10.1c24.7,0,31-2.6,31-7.2
		c0-31.7-23.8-25.9-29.5-41.8c-1.8-4.8-4.5-6.6-9.7-5.3l-3.6,0.9C1775.5,1091.2,1754.7,1100.9,1755.8,1105.3z"/>
	<path class="st6" d="M1750.9,991.9c0,0,5.4-6.5,6.4-18.1c2.3-28.5,7.6-32,16.8-45.9c13.1-19.9,28.9-33.4,36.8-29.6
		c8.2,3.9,6.6,17.4,1.3,35.7c-5.4,18.4,0.3,27.9-21.5,53.3c-11.3,13.2-17,17.3-17,17.3L1750.9,991.9z"/>
	<path class="st1" d="M1809.8,911.6c0,0-17.3,15.1-25.9,34.6c-8.6,19.4-14.4,48.3-14.4,48.3s17.8-1.2,30.4-27.8
		C1805.9,953.8,1806.2,933.9,1809.8,911.6z"/>
	<path class="st6" d="M1717.9,991.9c0,0-5.4-6.5-6.4-18.1c-2.3-28.5-7.6-32-16.8-45.9c-13.1-19.9-28.9-33.4-36.8-29.6
		c-8.2,3.9-6.6,17.4-1.3,35.7c5.4,18.4-0.3,27.9,21.5,53.3c11.3,13.2,17,17.3,17,17.3L1717.9,991.9z"/>
	<path class="st1" d="M1659.2,911.6c0,0,17.3,15.1,25.9,34.6s14.4,48.3,14.4,48.3s-17.8-1.2-30.4-27.8
		C1663.1,953.8,1662.8,933.9,1659.2,911.6z"/>
	<circle class="st15" cx="1700.7" cy="1031.5" r="5.4"/>
	<circle class="st15" cx="1767.6" cy="1031.5" r="5.4"/>
	<polygon class="st15" points="1734.1,1062.7 1719.5,1056.1 1719.9,1055.2 1734.2,1061.6 1748,1055.5 1748.4,1056.5 	"/>
	<rect x="1734" y="1061.8" class="st15" width="1" height="15.1"/>
	<path class="st6" d="M1698.1,1104.6c-7.2,18.4-5.8,19.4-5.8,31.7c0,4.2-7.2,10.8-23.5,10.8c-14.7,0-21.9-2.2-24-11.5
		c-3.9-16.9-0.3-9.2,3.6-35.3c0.8-5.3,18.1-8.8,23.3-7.5l3.6,0.9C1679.8,1094.8,1699.8,1100.4,1698.1,1104.6z"/>
	<rect x="1658" y="1130.5" class="st15" width="1" height="15.7"/>
	<rect x="1675.3" y="1130.5" class="st15" width="1" height="15.7"/>
	<polygon class="st15" points="1659.4,1147.6 1821.3,1147.6 1740.3,1135 	"/>
	<path class="st3" d="M1740.3,1148c0,0-13.4-7-28.2-7s-52.7,6.5-52.7,6.5l24.1-22.3c0,0,14.5-8.4,28.6-8.4
		c23.6,0,28.2,10.2,28.2,10.2V1148z"/>
	<path class="st3" d="M1740.3,1148c0,0,13.4-7,28.2-7s52.7,6.5,52.7,6.5l-24.1-22.3c0,0-14.5-8.4-28.6-8.4
		c-23.6,0-28.2,10.2-28.2,10.2V1148z"/>
	<path class="st1" d="M1756.1,987.2l-0.7-0.3c-20-10.2-40.1-0.8-40.3-0.7l-0.4-0.9c0.2-0.1,20.2-9.5,40.5,0.4l1-11.1l1,0.1
		L1756.1,987.2z"/>
</g>
<g id="tiger" class="st0">
	<path class="st15" d="M1045.7,1196.5c0,0,9.7,41.6,26.1,44.5c16.4,2.9,35.3,32,27.3,58.6c-8,26.6-93.1,17.9-95,13
		s-3.9-83.2-3.9-83.2L1045.7,1196.5z"/>
	<path class="st6" d="M971.2,1100.8c0,0-52.2,72.6-139.3,66.7c-87.1-5.8-205.2-5.7-174.1,100.6c18.4,62.9,38.7,57.1,47.4,57.1
		c8.7,0,458.5,1,458.5,1s18.6-9,5.8-21.3c-23.2-22.2-14.7-21.6-101.6-13.5c-16.6,1.5-31.2,4.6-38.4-1.8
		c-20.7-18.5-15.8-23.4-15.8-23.4s24.2-15.5,36.8-53.2C1063.4,1174.4,1054.4,1076.6,971.2,1100.8z"/>
	<g class="st4">
		<defs>
			<path id="SVGID_2_" d="M971.2,1100.8c0,0-52.2,72.6-139.3,66.7c-87.1-5.8-205.2-5.7-174.1,100.6c18.4,62.9,38.7,57.1,47.4,57.1
				c8.7,0,458.5,1,458.5,1s18.6-9,5.8-21.3c-23.2-22.2-14.7-21.6-101.6-13.5c-16.6,1.5-31.2,4.6-38.4-1.8
				c-20.7-18.5-15.8-23.4-15.8-23.4s24.2-15.5,36.8-53.2C1063.4,1174.4,1054.4,1076.6,971.2,1100.8z"/>
		</defs>
		<clipPath id="SVGID_3_">
			<use xlink:href="#SVGID_2_"  style="overflow:visible;"/>
		</clipPath>
		<g class="st20">
			<path class="st16" d="M881.9,1279.6c0,0-36.9-36.8-53.6-71.1c-10.8-22.2-31.4-45.1,1.6-70.7c33-25.6-21.7-7.5-21.7-7.5
				s-33.4,17.8-15.5,49.2C810.6,1211,843.4,1263.1,881.9,1279.6z"/>
			<path class="st16" d="M894,1235.4c-13-20.9-35.9-41.7-5.7-70.5c30.2-28.8-22.4-5.2-22.4-5.2s-31.4,21.1-10.3,50.6
				c21.1,29.5,59.1,77.8,99.1,90.4C954.7,1300.6,914.2,1267.8,894,1235.4z"/>
			<path class="st16" d="M758.2,1239.9c-8.1-25.2-25.9-52.2,10.1-76.9s-20.7-10.3-20.7-10.3s-35.4,16.2-21.3,52.2
				c10.3,26.3,36.8,93.1,59.3,120.7c8.3,10.2,25,11.2,37.8,2.5C823.3,1328.2,780,1307.8,758.2,1239.9z"/>
			<path class="st16" d="M800.9,1251.7c2.9,27.1,55.1,80.3,55.1,80.3h34.8C800,1272,798,1224.6,800.9,1251.7z"/>
			<path class="st16" d="M930.6,1258.4c52.2,32.9,86.1,73.5,86.1,73.5h20.3C966.2,1270,906.1,1243,930.6,1258.4z"/>
			<path class="st16" d="M702.9,1229.9c-6.6,26.4,24.3,94.3,24.3,94.3l32.7,11.9C695,1248.6,709.4,1203.4,702.9,1229.9z"/>
			<path class="st16" d="M914.1,1144.3c0,0-23.2,34.8,3.9,67.7c27.1,32.9,49.5,21.1,100.2,67.6c50.7,46.5-32.5-36.6-74.1-57
				c-53.2-26.1-33-74.5-21.8-78.4C933.5,1140.4,914.1,1144.3,914.1,1144.3z"/>
		</g>
	</g>
	<g class="st4">
		<path class="st21" d="M933.2,1075.9c0,0-20.2,17.7-13.3,58.5c4.3-6.4,9.7-8.1,9.7-8.1s-11.2,11.9,5.5,39.3
			c4.9,0.1,17.9-19.3,42.3,17c7.8,11.6,26.7,12,26.7,12l-1.2-165.3c0,0-21.9-10.7-47,10.6c-8.1,6.9-30.5-10.8-33.1-9.8
			C920,1031,916.9,1061.1,933.2,1075.9z"/>
		<path class="st21" d="M1072.2,1075.9c0,0,20.2,17.7,13.3,58.5c-4.3-6.4-9.7-8.1-9.7-8.1s11.2,11.9-5.5,39.3
			c-4.9,0.1-17.9-19.3-42.3,17c-7.8,11.6-25.2,12-25.2,12l-0.3-165.3c0,0,21.9-10.7,47,10.6c8.1,6.9,30.5-10.8,33.1-9.8
			S1088.5,1061.1,1072.2,1075.9z"/>
		<path class="st5" d="M1072.2,1075.9c16.3-14.8,13.1-44.9,10.5-45.9s-25,16.7-33.1,9.8c-23.9-20.3-44.8-11.6-46.9-10.7
			c-2.1-0.9-23-9.5-46.9,10.7c-8.1,6.9-30.5-10.8-33.1-9.8c-2.7,1-5.8,31,10.5,45.9c0,0-20.2,17.7-13.3,58.5
			c4.3-6.4,9.7-8.1,9.7-8.1s-11.2,11.9,5.5,39.3c4.9,0.1,22.2-12.1,42.3,17c6.7,9.7,21,9.5,25.4,9.8l1.3,0
			c4.2-0.3,17.2-0.2,23.9-9.8c20.9-29.9,37.4-16.9,42.3-17c16.7-27.3,5.5-39.3,5.5-39.3s5.4,1.8,9.7,8.1
			C1092.4,1093.6,1072.2,1075.9,1072.2,1075.9z"/>
		<path class="st19" d="M1003.1,1129.6c-37.6,14.1-24.2-9.4-48-9.4c-13.2,0-11.3-34.8-5.6-34.8c0,0-40.5-12.2-29.5,49
			c4.3-6.4,9.7-8.1,9.7-8.1s-11.2,11.9,5.5,39.3c4.9,0.1,22.2-12.1,42.3,17c6.7,9.7,21,9.5,25.4,9.8L1003.1,1129.6z"/>
		<path class="st19" d="M1002.8,1129.6c7.9,3,13.5,4.3,17.8,4.5c15.9,0.8,11.4-13.9,30.2-13.9c13.2,0,11.3-34.8,5.6-34.8
			c0,0,40.5-12.2,29.5,49c-4.3-6.4-9.7-8.1-9.7-8.1s11.2,11.9-5.5,39.3c-4.9,0.1-22.2-12.1-42.3,17c-6.7,9.7-21,9.5-25.4,9.8
			L1002.8,1129.6z"/>
		<g>
			<path class="st22" d="M985.3,1090.5c0,0-4.6-5.1-11.1-6.8c-9.1-2.3-12.2,1.3-12.2,1.3s1.8,19.3,21.3,10.8
				c4.9-2.1,5.8,0.5,5.8,0.5S987.4,1093.1,985.3,1090.5z"/>
			<path class="st16" d="M985.5,1156.1c-0.3,0-0.7,0-1-0.1c-8.6-0.9-17.8-7.4-17.3-15.3l1,0.1c-0.5,7.4,8.3,13.4,16.4,14.3
				c7.2,0.7,16.2-7.8,17.4-9v-15.8c-2.7-0.6-17.7-4.3-17.9-11.2c-0.2-4.2,1.3-7.8,2.6-11.3c1-2.6,2-5.1,2.3-7.7
				c0.6-5.8-6-10.4-6.1-10.4l0.6-0.8c0.3,0.2,7.2,5,6.5,11.4c-0.3,2.7-1.3,5.2-2.4,7.9c-1.3,3.4-2.7,6.9-2.6,10.8
				c0.3,6.7,17.4,10.3,17.5,10.3l0.4,0.1v17l-0.1,0.1C1002.5,1147,993.5,1156.1,985.5,1156.1z"/>
			<path class="st16" d="M986,1120.2c0,0,1.2-3.6,7.5-0.4c6.1,3.1,9,2.9,9,2.9v7.2C1002.5,1129.9,984.7,1126,986,1120.2z"/>
			<path class="st19" d="M947.7,1053.9c0,0-13.5-3.2-23.8-19c-2.8-4.3-2.2,31.7,11.8,38.2c8.6,4-0.9-12,1.5-18.9
				C937.5,1053.2,941.9,1060.2,947.7,1053.9z"/>
			<path class="st22" d="M993.1,1153.3c0,0,1.7,2.9,4.1,5c2.4,2.1,5.7,2.8,5.7,2.3c0-1-0.3-14.3-0.3-14.3L993.1,1153.3z"/>
			<path class="st5" d="M960.7,1154.4c0,0-24.5-16.7-29-48c-2-13.8,11.2-23.4,11.2-23.4S924.9,1109.4,960.7,1154.4z"/>
			<path class="st19" d="M951.4,1096.1c0,0-3.8,6.8-1.2,13.2c4.2,10.6,17.5,9.4,17.5,9.4S952.1,1110.4,951.4,1096.1z"/>
			<path class="st19" d="M1002.5,1042.3c0,0-27-12.6-45.3,14.7c0,0,26.4-20.7,45.4-7.7L1002.5,1042.3z"/>
			<path class="st19" d="M1002.5,1057.9c0,0-21.9-12.6-36.8,14.7c0,0,21.4-20.7,36.8-7.7L1002.5,1057.9z"/>
			<path class="st19" d="M1002.6,1064.9"/>
		</g>
		<g>
			<path class="st22" d="M1019.4,1090.5c0,0,4.6-5.1,11.1-6.8c9.1-2.3,12.2,1.3,12.2,1.3s-1.8,19.3-21.3,10.8
				c-4.9-2.1-5.8,0.5-5.8,0.5S1017.3,1093.1,1019.4,1090.5z"/>
			<path class="st16" d="M1019.2,1156.1c-7.9,0-17-9.1-17.4-9.5l-0.1-0.1v-17l0.4-0.1c0.2,0,17.3-3.7,17.5-10.3
				c0.2-4-1.2-7.5-2.6-10.8c-1.1-2.7-2.1-5.2-2.4-7.9c-0.7-6.4,6.2-11.2,6.5-11.4l0.6,0.8c-0.1,0-6.7,4.6-6.1,10.4
				c0.3,2.6,1.3,5.1,2.3,7.7c1.4,3.5,2.8,7.1,2.6,11.3c-0.3,6.9-15.2,10.6-17.9,11.2v15.8c1.2,1.2,10.2,9.7,17.4,9
				c8.1-0.8,16.9-6.9,16.4-14.3l1-0.1c0.5,7.9-8.7,14.4-17.3,15.3C1019.9,1156.1,1019.5,1156.1,1019.2,1156.1z"/>
			<path class="st16" d="M1018.7,1120.2c0,0-1.2-3.6-7.5-0.4c-6.1,3.1-9,2.9-9,2.9v7.2C1002.2,1129.9,1020,1126,1018.7,1120.2z"/>
			<path class="st19" d="M1057,1053.9c0,0,13.5-3.2,23.8-19c2.8-4.3,2.2,31.7-11.8,38.2c-8.6,4,0.9-12-1.5-18.9
				C1067.2,1053.2,1062.9,1060.2,1057,1053.9z"/>
			<path class="st22" d="M1011.6,1153.3c0,0-1.7,2.9-4.1,5c-2.4,2.1-5.7,2.8-5.7,2.3c0-1,0.3-14.3,0.3-14.3L1011.6,1153.3z"/>
			<path class="st5" d="M1044.1,1154.4c0,0,24.5-16.7,29-48c2-13.8-11.2-23.4-11.2-23.4S1079.9,1109.4,1044.1,1154.4z"/>
			<path class="st19" d="M1053.4,1096.1c0,0,3.8,6.8,1.2,13.2c-4.2,10.6-17.5,9.4-17.5,9.4S1052.6,1110.4,1053.4,1096.1z"/>
			<path class="st19" d="M1002.2,1042.3c0,0,27-12.6,45.3,14.7c0,0-26.4-20.7-45.4-7.7L1002.2,1042.3z"/>
			<path class="st19" d="M1002.2,1057.9c0,0,21.9-12.6,36.8,14.7c0,0-21.4-20.7-36.8-7.7L1002.2,1057.9z"/>
			<line class="st19" x1="1002.2" y1="1029.4" x2="1002.2" y2="1064.9"/>
		</g>
	</g>
	<g class="st4">
		<circle class="st19" cx="1030.7" cy="1091.4" r="6.1"/>
		<path class="st16" d="M1030.7,1098.5c-3.9,0-7.1-3.2-7.1-7.1s3.2-7.1,7.1-7.1s7.1,3.2,7.1,7.1S1034.6,1098.5,1030.7,1098.5z
			 M1030.7,1086.3c-2.8,0-5.1,2.3-5.1,5.1s2.3,5.1,5.1,5.1s5.1-2.3,5.1-5.1S1033.5,1086.3,1030.7,1086.3z"/>
	</g>
	<g class="st4">
		<circle class="st19" cx="973.9" cy="1091.4" r="6.1"/>
		<path class="st16" d="M973.9,1098.5c-3.9,0-7.1-3.2-7.1-7.1s3.2-7.1,7.1-7.1s7.1,3.2,7.1,7.1S977.8,1098.5,973.9,1098.5z
			 M973.9,1086.3c-2.8,0-5.1,2.3-5.1,5.1s2.3,5.1,5.1,5.1s5.1-2.3,5.1-5.1S976.7,1086.3,973.9,1086.3z"/>
	</g>
	<path class="st3" d="M1040.2,1277.3c0,0-16.2-9.3-34.1-9.3s-34.6,0.8-34.6,0.8v-86.4c0,0,17.5-3.4,34.6-3.4
		c17.1,0,34.1,11.9,34.1,11.9V1277.3z"/>
	<path class="st3" d="M1108.9,1268.9c0,0-16.7-0.8-34.6-0.8c-17.9,0-34.1,9.3-34.1,9.3v-86.4c0,0,17-11.9,34.1-11.9
		c17.1,0,34.6,3.4,34.6,3.4V1268.9z"/>
	<path class="st6" d="M1082.4,1260.4c-11.2-9.8-14.5-20.3-35.8-27.1c-25.1-8-32.9,17.6-29,30c2.8,9.1,23.4,9.1,29,22.2
		c12.6,29.3,50.7,29.3,53.2,12.1C1104.7,1264.2,1090.2,1267.1,1082.4,1260.4z"/>
	
		<rect x="1025.5" y="1240.3" transform="matrix(0.349 -0.9371 0.9371 0.349 -501.1742 1773.5687)" class="st15" width="1" height="14.4"/>
	
		<rect x="1033" y="1230.9" transform="matrix(0.349 -0.9371 0.9371 0.349 -487.4548 1774.4977)" class="st15" width="1" height="14.4"/>
	
		<rect x="1023.3" y="1251.8" transform="matrix(0.341 -0.9401 0.9401 0.341 -509.0419 1792.2241)" class="st15" width="1" height="14.7"/>
	<path class="st6" d="M780.7,1331C780.7,1331,780.7,1331,780.7,1331l-127.3,0c-12.3,0-24-8.2-29.8-20.8c-7.1-15.6-4-33.5,8.4-47.9
		c21-24.4,27.4-53.2,27.5-53.5c1.6-7.3,8.8-11.9,16-10.3c7.3,1.6,11.9,8.7,10.4,16c-0.3,1.4-7.8,35.6-33.4,65.5
		c-7.7,9-5.6,16.3-4.4,19.1c1.5,3.3,4,5,5.3,5l127.3,0c7.5,0,13.5,6,13.5,13.5S788.2,1331,780.7,1331z"/>
	<rect x="655.3" y="1304.9" class="st15" width="14.5" height="25.6"/>
	<rect x="686.3" y="1304.9" class="st15" width="14.5" height="25.6"/>
	<rect x="717.3" y="1304.9" class="st15" width="14.5" height="25.6"/>
	<rect x="747.2" y="1304.9" class="st15" width="14.5" height="25.6"/>
	<path class="st15" d="M647.1,1298.1c0,0-4.9,3.9-7.7,10.6c-2.8,6.8-3.9,15.5-3.9,15.5s-3.6-3.6-6.8-6.8c-3.2-3.2-5.8-9.7-5.8-9.7
		s3.7-6.8,8.7-10.6c5.1-3.9,14.5-3.9,14.5-3.9L647.1,1298.1z"/>
	<path class="st15" d="M649.1,1283.6c0,0-6.3-2.9-13.5-1.9c-7.3,1-14.5,5.8-14.5,5.8s0.5-4.8,1.9-8.7c1.5-3.9,2.9-6.8,2.9-6.8
		s6-1.9,13.5,0c7.5,1.9,12.6,7.7,12.6,7.7L649.1,1283.6z"/>
</g>
<g id="dragon" class="st0">
	<path class="st1" d="M346.4,1075.5c0,0,26.6-11.5,52.6,7.5c3.3,2.4-13-6-13,5c0,14.1,37,10,33,58c-0.9,11-5-19-15-16
		c-19.4,5.8,30.7,26.8,9,92c-2,6,3-31-13-21c-11,6.9,10,52-14,86c-1.8,2.6,5-36-13-23C342.5,1286,434.8,1154,346.4,1075.5z"/>
	<path class="st1" d="M434.1,1088.9c0,0-5-28.6,19.5-49.4c3.1-2.7-8.9,11.3,1.8,13.8c13.8,3.3,18.3-33.7,64.1-18.6
		c10.5,3.4-19.6,0.5-19,10.9c1.2,20.2,34.5-20.5,67.5,33.5c3.3,5.4-24-11-14.3,15.9C558,1107.1,531,1021.1,434.1,1088.9z"/>
	<path class="st6" d="M146.2,1252.4c-4.6,0-10.2-6.4-9.7-7.1c0.3-0.5,5.5,5.7,11.8,0.5c1.8-1.5,7.1-8.9-4.2-47.9
		c-7.2-24.8-6-40.2,2.9-47.8c11.4-9.8,28,3,31,6c2.2,2.2,1.7,2.5,1,4c-0.7,1.5-4.3,2.5-5,1c-2-4-16.6-12.5-24-6
		c-6.8,6-6.5,19.2-0.1,41.2c9,31.1,9.7,48.9,2,54.5C150.1,1251.9,148.1,1252.4,146.2,1252.4z"/>
	<path class="st6" d="M283,1069c0,0,170-33,110,148c-25.5,76.9-27,104,7,104c31.3,0,26-61,26-109c0-75.1-24-159.6,72-162
		c120-3,23,221,19,221s30-165-14-165c-31,0-16.2,67.7-15,129c1,51,5.2,120.8-40,144c-35,18-119,14-139-19c-58.1-95.9,108-211-39-212
		C196.6,1147.5,283,1069,283,1069z"/>
	<path class="st15" d="M215,1094.3c0,0,16-23.7,31.9-28.5c10.2-3,25.4-13.9,29.5-21.4c9.8-17.8,19.7-11.9,8.6,2.4
		c0,0,22.1-8.3,33.2-36.8c11.1-28.5,44.8,16.3-51.6,58.2c-24.6,10.7-38.1,30.9-38.1,30.9l2.5-10.7
		C231,1088.3,222.4,1089.5,215,1094.3z"/>
	<path class="st15" d="M292,1166c26.9,2.2,57-3,65-30c0,0-14,13-20,9c22-7,5-23,22-37c-14-4-19,4-19,4c0-19,25-22,25-22
		c-9-16-47-29-57-22C308,1068,280,1165,292,1166z"/>
	<path class="st6" d="M264.5,1061.5c-15.5,6.5-17-9-17-9c-6.5,4.5-7,15-7,15c-3.4-1.5-4-8-4-8c-17.5,12.5-9,26-9,26
		c-15.5,6.5-16-10-16-10c-9.5,7.5-5,18-5,18c-5.5-0.9-3-10-3-10c-10,7-3,20-3,20c-6,20,22.8,11.7,1,35c-29,31-49.7,23.9-42,44
		c5,13,21.5,13.5,32.5,12.5s24-29,36-17c6.3,6.3-43,17.6-43,36c0,10,27.2,10.3,30,0c3-11,39.5-35.5,66.5-36.5S345,1162,353,1135
		c0,0-14,13-20,9c22-7,5-23,22-37c-14-4-19,4-19,4c0-19,25-22,25-22c-9-16-47-29-57-22c0,0,12.5-2.5,12-20
		C290,1071,287,1036,264.5,1061.5z"/>
	<path class="st1" d="M274,1219c-16.9,0-19.7-12.5-23.4-28.4c-1.6-7.2-3.5-15.4-6.9-24c-2.8-7.1-6.7-11.2-11.6-12.2
		c-9.8-2-22.4,8.1-26.5,12.2c-1.2,1.2-3.1,1.2-4.2,0c-1.2-1.2-1.2-3.1,0-4.2c0.7-0.7,17-17,31.9-13.9c7,1.5,12.4,6.8,16,15.9
		s5.5,17.5,7.2,24.9c3.8,16.4,5.9,23.7,17.5,23.7c8.6,0,14.2-5.3,18-12.9c15-30.1,36-12.1,35.9-11.3c-0.1,0.9-19.9-13.8-31.1,14.8
		C293.6,1211.9,285.7,1219,274,1219z"/>
	<circle class="st1" cx="248" cy="1130" r="4"/>
	<path class="st15" d="M188.7,1205.3c0,0,4.5,11.1,21.3,2.7c8-4,1.2-12.5,27-24c9-4-0.9-25.2-13-15c-13,11-15,4-19.8,17.9
		c-0.1,0.2,12.8-15.9,21.8-10.9C237,1184,207,1187,188.7,1205.3z"/>
	<path class="st1" d="M263,1100.3c0,0,16-23.7,31.9-28.5c10.2-3,25.4-13.9,29.5-21.4c9.8-17.8,19.7-11.9,8.6,2.4
		c0,0,22.1-8.3,33.2-36.8c11.1-28.5,44.8,16.3-51.6,58.2c-24.6,10.7-38.1,30.9-38.1,30.9l1.5-11C278,1094,270.4,1095.5,263,1100.3z"
		/>
	<path class="st15" d="M305.9,1166.9l-0.7-0.7c6.6-6.6,6.6-13.7,6.6-19.5c0-1.9,0-3.7,0.3-5.3c1.4-8.5,7.8-11.1,10.3-11.9
		c-10.5-5.3-16.3-1.7-18.5,0.2c-0.3,0.4-0.7,0.8-1,1.1l-0.8-0.6c0,0,0.3-0.5,1-1.1c12.6-14.5,6.8-30.3,5.3-33.7
		c-12.1,13.4-31.8,9.6-32,9.6l0.2-1c0.2,0,19.9,3.8,31.5-9.8l0.5-0.6l0.3,0.7c0.1,0.2,8.6,16.8-3,32.8c3.4-1.7,9.2-2.6,17.8,2
		l0.3,0.2l0,0.4c0,0.4-0.3,0.5-1,0.7c-2.1,0.7-8.6,3-10,11.3c-0.2,1.5-0.2,3.2-0.2,5.1C312.8,1152.6,312.8,1160,305.9,1166.9z"/>
	<path class="st1" d="M236.2,1090.9l-1-0.2c0-0.2,4.1-15.6,21.3-15.6h1.6l-1.3,0.9c-0.1,0-5.8,4.2-6.7,9.3
		c3.1-2.7,13.7-10.1,29.6-4.2l-0.3,0.9c-18.5-6.8-29.4,4.8-29.5,4.9l-0.9,0.9v-1.3c0-4.7,4-8.7,6-10.5
		C239.9,1076.9,236.3,1090.3,236.2,1090.9z"/>
	<path class="st15" d="M169,1182c0,0-9.9-0.6-6.5-8.5C164,1170,171,1175,169,1182z"/>
	<path class="st15" d="M184.6,1183.4c0,0,9.4,3,9.1-5.6C193.7,1174.1,185.3,1176.2,184.6,1183.4z"/>
	<path class="st15" d="M177.1,1186c-0.7,0-1.4-0.1-2.1-0.2c-4.9-1.1-7.3-5.4-7.4-5.6l0.9-0.5c0,0,2.3,4.1,6.7,5.1
		c3.2,0.7,6.8-0.4,10.5-3.2l0.6,0.8C183.1,1184.8,180,1186,177.1,1186z"/>
	<path class="st1" d="M204,1173.7c-0.8-2.4-2.2-4.1-4.1-5c-3.5-1.7-7.7-0.2-7.8-0.2l-0.3,0.1l-0.2-0.3c-0.4-0.4-8.8-10.5-19.8-2.4
		l-0.6-0.8c10.7-7.9,19.4,0.7,21,2.3c1.1-0.3,4.9-1.3,8.2,0.3c2.2,1,3.7,2.9,4.6,5.6L204,1173.7z"/>
	<polygon class="st15" points="188.5,1205.5 189.5,1197.5 193.5,1207.5 	"/>
	<polygon class="st6" points="163.6,1188.7 168,1198 169.4,1192.6 	"/>
	<polygon class="st6" points="185,1194 185,1202 192,1193 	"/>
	<path class="st3" d="M240,1332.5c0,0-17.3-9.8-36.3-9.8s-36.7,0.8-36.7,0.8v-91.8c0,0,18.6-3.7,36.7-3.7s36.3,12.7,36.3,12.7
		V1332.5z"/>
	<path class="st3" d="M313,1323.5c0,0-17.8-0.8-36.7-0.8c-19,0-36.3,9.8-36.3,9.8v-91.8c0,0,18.1-12.7,36.3-12.7
		c18.2,0,36.7,3.7,36.7,3.7V1323.5z"/>
	<path class="st15" d="M519.8,1241.2c0,0-21.9,145.8,17.2,145.8c39,0,0,8,0-44c0,0,3,16,19,16c0,0-16-8-13.4-37c0.1-1,3.4,4,7.4,0
		c0,0-7.5-5.3-8-30C541.3,1253,519.8,1241.2,519.8,1241.2z"/>
	<g class="st4">
		<path class="st16" d="M405.1,1386.5c0,0-6.4,0.4-6,6.8c0,0,1.6-4.2,8.7-3.8C409.2,1389.5,405.1,1386.5,405.1,1386.5z"/>
		<path class="st16" d="M397.3,1368.3c0,0-7.2-1.5-8.7,5.8c0,0,3-4.1,10.8-1.7C400.9,1372.9,397.3,1368.3,397.3,1368.3z"/>
		<path class="st16" d="M399.6,1351.3c0,0-5.9-4.3-10.2,1.6c0,0,4.4-2.5,10.4,2.9C401,1356.9,399.6,1351.3,399.6,1351.3z"/>
		<path class="st16" d="M437.2,1390.2c0,0-2.9,5.8-8.6,2.8c0,0,4.5,0.2,6.9-6.5C436,1385.1,437.2,1390.2,437.2,1390.2z"/>
		<path class="st16" d="M446.2,1358.1c-3.4-4.7-6.9-3.8-19.7-1.4c-12.8,2.3-21.8-6.1-25.2-7.5c-3.3-1.4-6.9,4-4,8.6
			c3.3,5,13.5,7.9,21.5,7.5c0,0-10.7,6.8-20,2.3c-5.2-2.6-5.3,6.5-0.4,8.6c3.3,1.4,12.5,2.6,21.4-2c8.9-4.6-8.2,11.3-13.2,10.9
			c-4.5-0.3-1.6,7.9,5.2,6.2c6.1-1.6,12-5.4,21.8-17.8c2.6-3.2,5.8,3.4-0.4,12.2c-3.4,4.8,2.9,8.4,5.5,4.8
			c2.6-3.7,10.6-11.7,7.7-23.9C446,1364.1,449.1,1361.5,446.2,1358.1z"/>
	</g>
	<path class="st15" d="M478,1361.5c-4.4-8.1-14.4-17.9-34.7-31.8s5.8-46.3,38.2-17.3c20,17.9,12.9,29.4,23.9,51.6
		C508.7,1370.7,492,1387.4,478,1361.5z"/>
	<path class="st15" d="M446,1366.9c13,11,68.3,27.2,61.2,3.6c-5.3-17.8-20.2,1.9-45.6-9.3C433.5,1348.6,442.2,1363.6,446,1366.9z"/>
	<g class="st4">
		<path class="st16" d="M289.7,1268.3c0,0-2.9-5.7-8.6-2.8c0,0,4.5-0.1,6.9,6.5C288.5,1273.2,289.7,1268.3,289.7,1268.3z"/>
		<path class="st16" d="M303.4,1254c0,0-1.5-7.2-8.7-5.7c0,0,5,1.2,5.8,9.3C300.6,1259.1,303.4,1254,303.4,1254z"/>
		<path class="st16" d="M320,1249.4c0,0,1.6-7.1-5.5-8.7c0,0,4,3.1,1.4,10.7C315.3,1252.9,320,1249.4,320,1249.4z"/>
		<path class="st16" d="M332,1295c3-5,0.8-7.8-6.4-18.7c-7.2-10.8-3-22.5-3-26.1c0-3.6-6.4-4.8-9.4-0.3c-3.3,5-2,15.5,1.6,22.7
			c0,0-10.4-7.2-9.9-17.5c0.3-5.8-8-2.4-8.1,3c0,3.6,2.4,12.5,10.2,18.9c7.7,6.4-13.6-3.1-15.2-7.8c-1.5-4.2-8,1.6-3.6,7.2
			c3.9,5,9.7,8.9,24.9,13.1c4,1.1,1.9,4.4-0.1,4.4v9c4.4,0.9,7-1,11.4-4.4C326.4,1297.1,330,1299,332,1295z"/>
	</g>
	<g class="st4">
		<path class="st16" d="M190.3,1268.3c0,0,2.9-5.7,8.6-2.8c0,0-4.5-0.1-6.9,6.5C191.5,1273.2,190.3,1268.3,190.3,1268.3z"/>
		<path class="st16" d="M176.6,1254c0,0,1.5-7.2,8.7-5.7c0,0-5,1.2-5.8,9.3C179.4,1259.1,176.6,1254,176.6,1254z"/>
		<path class="st16" d="M160,1249.4c0,0-1.6-7.1,5.5-8.7c0,0-4,3.1-1.4,10.7C164.7,1252.9,160,1249.4,160,1249.4z"/>
		<path class="st16" d="M148,1295c-3-5-0.8-7.8,6.4-18.7c7.2-10.8,3-22.5,3-26.1c0-3.6,6.4-4.8,9.4-0.3c3.3,5,2,15.5-1.6,22.7
			c0,0,10.4-7.2,9.9-17.5c-0.3-5.8,8-2.4,8.1,3c0,3.6-2.4,12.5-10.2,18.9c-7.7,6.4,13.6-3.1,15.2-7.8c1.5-4.2,8,1.6,3.6,7.2
			c-3.9,5-9.7,8.9-24.9,13.1c-4,1.1-1.9,4.4,0.1,4.4v9c-4.4,0.9-7-1-11.4-4.4C153.6,1297.1,150,1299,148,1295z"/>
	</g>
	<path class="st15" d="M347.5,1316.3c3.8-8.4,5.6-22.3,4.5-46.8c-1.1-24.5,40.4-23.3,36.8,20.1c-2.2,26.8-15.7,28-26.8,50.2
		C358.7,1346.4,335.3,1343,347.5,1316.3z"/>
	<path class="st15" d="M324,1294c-1,17,19.4,70.9,34,51c11-15-13.7-14.9-20-42C331,1273,324.3,1289,324,1294z"/>
</g>
<g id="horse" class="st0">
	<path class="st1" d="M1241.9,1231.8c0,0-49.7,4-37.9,207.2c3,52-14,73-14,73s52-4.9,52-225C1242,1232,1241.9,1231.8,1241.9,1231.8z
		"/>
	<path class="st15" d="M1753,1387c0,0,19-15,31-15c8,0-10.1,21.4-14.6,40.2C1765,1431,1753,1387,1753,1387z"/>
	<g class="st4">
		<polygon class="st16" points="1811,1563.1 1723,1562.6 1675.1,1548 1763.1,1548.4 		"/>
		<path class="st23" d="M1807,1563.1l-81.5,0.3c0,0-10.3-4.6-22.6-17.4s-19-27.1-19-27.1l81.5-0.3c0,0,5.9,11.4,15.6,22.4
			S1807,1563.1,1807,1563.1z"/>
		<path class="st16" d="M1728.5,1537.2c-3-9.1-0.1-13.3,0.1-13.5l0.8,0.6l-0.4-0.3l0.4,0.3c0,0-2.8,3.9,0.1,12.5L1728.5,1537.2z"/>
		<path class="st16" d="M1737,1548.6c0,0-3-1.1-8.3,7.9c-1.8,3.2-2.3,6.9-2.3,6.9h81c0,0,0.5-2.6,2.3-6.9c3.7-8.4,5.5-7.9,5.5-7.9
			H1737z"/>
		<path class="st23" d="M1815.7,1549.1c0,0,3-1.1,8.3,7.9c1.8,3.2,2.3,6.9,2.3,6.9h-81c0,0-0.5-2.6-2.3-6.9
			c-3.7-8.4-5.5-7.9-5.5-7.9H1815.7z"/>
	</g>
	<g class="st4">
		<path class="st16" d="M1318,1393c2,24.4-2.5,44.9-5.6,48.2c-2.5,2.6-3.2,6.4-2.2,9.8c3.4,11.3,9.2,35.9,11.3,85.3
			c0.2,4.9,6,3.6,7.2,15.6h36c-3.6-19.2-13.2-15.6-19.2-28.8c-2.8-6.2-8.4-69.5,26.4-118.7C1401,1363.1,1314.4,1348.6,1318,1393z"/>
		<path class="st16" d="M1545.7,1404.3c2,24.4-1.1,33.6-4.3,36.9c-2.5,2.6-3.2,6.4-2.2,9.8c3.4,11.3,9.2,35.9,11.3,85.3
			c0.2,4.9,6,3.6,7.2,15.6h36c-3.6-19.2-13.2-15.6-19.2-28.8c-2.8-6.2-9.6-77.9,25.2-127.1C1628.8,1354.7,1542.1,1360,1545.7,1404.3
			z"/>
		<path class="st5" d="M1480.9,1411.5c2,24.4-1.1,33.6-4.3,36.9c-2.5,2.6-3.2,6.4-2.2,9.8c3.4,11.3,9.2,35.9,11.3,85.3
			c0.2,4.9,6,3.6,7.2,15.6h36c-3.6-19.2-13.2-15.6-19.2-28.8c-2.8-6.2-8.4-69.5,26.4-118.7
			C1565.3,1370.2,1477.3,1367.1,1480.9,1411.5z"/>
		<path class="st5" d="M1510,1179c-52,25-79.4,50.2-122.6,43.1c-85.4-14.2-121.1-24-152.3,18c-48.1,64.8,12,127.1,15.6,171.5
			c2,24.4-1.1,33.6-4.3,36.9c-2.5,2.6-3.2,6.4-2.2,9.8c3.4,11.3,9.2,35.9,11.3,85.3c0.2,4.9,6,3.6,7.2,15.6h36
			c-3.6-19.2-13.2-15.6-19.2-28.8c-2.8-6.2-8.3-88.1,26.5-137.2c29.2-41.3,67.3,34.8,204,6c0,0,29.2,4.6,70-5
			c0,0,49.6-7.7,49.6-72.4c0-30-2.6-20-10.6-76.6C1605,1146,1535.9,1166.6,1510,1179z"/>
	</g>
	<path class="st6" d="M1573.8,1161.1c0,0,54.2-12.1,171.5,222.3c0,0,40.1,78.2,32.7,140.8c-2.1,17.9-52.3,25-48.7-5.7l-45-45.6
		c0,0-58.1-10.9-31.3-67.1l-100.9-117.6L1573.8,1161.1z"/>
	<path class="st6" d="M1706.3,1398.5c0,0,28.8-21.8,41-23.8c12.2-2-19.6,44.6-17.3,52.8C1732.4,1435.7,1706.3,1398.5,1706.3,1398.5z
		"/>
	<path class="st1" d="M1567.4,1159.9c0,0-33.7,27.1-11.2,84.1c0,0,9.7-21.3,22.9,14.9c13.1,36.2,17.4,33.5,17.4,33.5
		s-2.1-74.4,33.9-72.5c0,0-28,11.8-21.3,90.6c0,0,6.3-65.7,25.7-70.2c0,0-23.8,34.2-11.6,94.4c0,0,0-25.1,8-37.5
		c0,0-7.6,44.1,21.8,66c15.1,11.2,14.3,22.2,14.3,22.2s-6.4-57.7,16-74c0,0-22.3,38,7.8,89.9c7.9,13.7,12.6,30.1,12.6,30.1l9.7-33.3
		l4.4,45.5c0,0-1.1-59.5,24.1-67.1C1742.2,1376.3,1636.3,1156.8,1567.4,1159.9z"/>
	<path class="st1" d="M1747.1,1387.1c0,0-11.7,47.9,9.8,67.7l1.4-16.9l16.3,31.2C1774.6,1469,1770.3,1433.4,1747.1,1387.1z"/>
	<circle class="st15" cx="1742.5" cy="1456.5" r="5.5"/>
	<path class="st15" d="M1769.5,1517.2c-2.2-4.8-4.9-7.7-8-8.8c-3-1-5.3,0.1-5.3,0.1l-0.4-0.9c0.1-0.1,2.7-1.3,6.1-0.1
		s6.3,4.3,8.6,9.4L1769.5,1517.2z"/>
</g>
<g id="rat_copy" class="st0">
	<path class="st1" d="M66.6,162.7c0,0-3.6,6.4-14.4,5.2c-12-1.3-18.8-17.2-5.2-47.1c22-48.6-12-41.1-12-41.1s32.8-5.2,8,45.1
		c-7,14.2-10,37.9,4,44.3c12.4,5.6,19.9-2.3,19.9-2.3L66.6,162.7z"/>
	<circle class="st2" cx="87.2" cy="80.6" r="20.6"/>
	<path class="st2" d="M124,123.7c0,0,17.3,5.3,21.1-11.8l1.4,1.7l1.2-2l1.6,1.6l1.2-2c0,0,6,24.4-15.2,32.7
		C115.3,151.7,124,123.7,124,123.7z"/>
	<path class="st3" d="M144.8,126.6c0,0-3.8-3.3-8.5-4.3c-4.7-1-9.2-1.6-9.2-1.6l4.6-22.9c0,0,4.8,0,9.3,0.9c4.5,0.9,8.4,5,8.4,5
		L144.8,126.6z"/>
	<path class="st3" d="M163.5,128.1c0,0-4.4-1.1-9.1-2.1c-4.7-1-9.5,0.6-9.5,0.6l4.6-22.9c0,0,5.1-2.2,9.7-1.3s9,2.8,9,2.8
		L163.5,128.1z"/>
	<g class="st4">
		<path class="st5" d="M97.5,76.5c-14.4,5.6-24.1,19-15.7,59l51.9-43C118.5,80.4,111.9,71,97.5,76.5z"/>
	</g>
	<path class="st6" d="M120.1,98.3l16.4,44.3l-68.3-8.1c0,0,4.8-7,8-17.4c4.1-13.3,2-21.2,2-21.2L120.1,98.3z"/>
	<g class="st4">
		<path class="st5" d="M110.6,179.4l-15.1,1.5c-16.2,1.6-30.7-10.4-32.3-26.6l0,0c-1.6-16.2,10.4-30.7,26.6-32.3l15.1-1.5
			c16.2-1.6,30.7,10.4,32.3,26.6v0C138.7,163.3,126.7,177.8,110.6,179.4z"/>
	</g>
	<circle class="st1" cx="78.4" cy="83" r="20.6"/>
	<path class="st1" d="M90.4,181.1l34.5,0c0,0,0.8-3.2-7.2-5.6S90.4,181.1,90.4,181.1z"/>
	<linearGradient id="SVGID_4_" gradientUnits="userSpaceOnUse" x1="95.8641" y1="139.3547" x2="133.047" y2="113.319">
		<stop  offset="0.3493" style="stop-color:#A52A21"/>
		<stop  offset="0.7654" style="stop-color:#FF8878"/>
	</linearGradient>
	<path class="st24" d="M109.3,120.3c0,0,2.4-14.8,15.6-14.8l-0.8,1.6h2.4l-0.8,2l2,0.4c0,0-6.4,3.5-4,14c2.4,10.7-3.9,18.4-12,19.6
		c-5.1,0.7-15.7,3.8-18.8-5.6C87,119.1,109.3,120.3,109.3,120.3z"/>
	<circle class="st8" cx="133.3" cy="92.4" r="1.6"/>
	<path class="st6" d="M82.8,84.8c-0.7-2.2-1.9-3.7-3.5-4.4c-2.7-1.2-5.8,0.1-5.8,0.1l-0.2-0.4c0.1-0.1,3.3-1.4,6.2-0.1
		c1.7,0.8,3,2.3,3.7,4.7L82.8,84.8z"/>
	<rect x="134.3" y="86.8" transform="matrix(0.8352 -0.55 0.55 0.8352 -24.3609 92.7171)" class="st9" width="16.5" height="0.5"/>
	
		<rect x="143.4" y="84.1" transform="matrix(6.578270e-02 -0.9978 0.9978 6.578270e-02 42.014 229.5358)" class="st9" width="0.5" height="16.5"/>
	<circle class="st10" cx="115.9" cy="88.6" r="1.4"/>
</g>
<g id="monkey_copy" class="st0">
	<path class="st2" d="M105.7,175H98c-19,0-34.5-15.5-34.5-34.5v-27.3c0-19,15.5-34.5,34.5-34.5h7.6c19,0,34.5,15.5,34.5,34.5v27.3
		C140.2,159.4,124.7,175,105.7,175z"/>
	<path class="st11" d="M104,176.1h-4.2c-10.4,0-18.9-8.5-18.9-18.9v-40c0-10.4,8.5-18.9,18.9-18.9h4.2c10.4,0,18.9,8.5,18.9,18.9v40
		C122.8,167.6,114.3,176.1,104,176.1z"/>
	<path class="st6" d="M129.4,178H75.4C60.4,178,48,166.7,48,152.9v0c0-8.6,7.7-15.6,17.1-15.6l36.2,21.5l38.5-21.5
		c9.4,0,17.1,7,17.1,15.6v0C156.8,166.7,144.5,178,129.4,178z"/>
	<circle class="st1" cx="73.9" cy="74.3" r="12.3"/>
	<circle class="st1" cx="129.4" cy="74.3" r="12.3"/>
	<path class="st6" d="M125.2,76.4l-0.3-0.2c2.3-4.6,8.8-4.6,8.9-4.6V72C133.7,72,127.4,72.1,125.2,76.4z"/>
	<path class="st6" d="M78.4,76.4C76.2,72.1,70,72,69.9,72v-0.4c0.1,0,6.6,0.1,8.9,4.6L78.4,76.4z"/>
	<path class="st6" d="M104.4,101.3h-5c-12.4,0-22.6-10.2-22.6-22.6V67.6C76.9,55.2,87,45,99.5,45h5c12.4,0,22.6,10.2,22.6,22.6v11.2
		C127,91.1,116.8,101.3,104.4,101.3z"/>
	<path class="st1" d="M113.7,101.3H90c-6.3,0-11.4-5.1-11.4-11.4v-2c0-3.5,2.8-6.3,6.3-6.3h33.9c3.5,0,6.3,2.8,6.3,6.3v2
		C125.1,96.2,119.9,101.3,113.7,101.3z"/>
	<ellipse class="st1" cx="93.2" cy="72" rx="10" ry="13.8"/>
	<ellipse class="st1" cx="111.3" cy="72" rx="10" ry="13.8"/>
	<circle class="st12" cx="95.6" cy="77.5" r="1.1"/>
	<circle class="st12" cx="108.8" cy="77.5" r="1.1"/>
	<polygon class="st13" points="102,85.6 98.9,84.1 99.1,83.8 102,85.2 105.4,83.8 105.5,84.1 	"/>
	<rect x="101.8" y="85.4" class="st13" width="0.4" height="3.4"/>
	<path class="st1" d="M116.5,177.6h-7.4c-5.6,0-10.1-4.5-10.1-10.1v-0.4c0-5.6,4.2-5.9,9.8-7.3l12.3-2.8c3,0,5.5,2.5,5.5,5.5v5
		C126.6,173.1,122.1,177.6,116.5,177.6z"/>
	<rect x="120.9" y="173.3" class="st14" width="6" height="0.4"/>
	<rect x="120.9" y="162.3" class="st14" width="6" height="0.4"/>
	<rect x="120.9" y="166.1" class="st14" width="6" height="0.4"/>
	<rect x="120.9" y="169.5" class="st14" width="6" height="0.4"/>
	<path class="st3" d="M102,147.6c0,0-6.5-3.7-13.7-3.7s-13.9,0.3-13.9,0.3v-34.7c0,0,7-1.4,13.9-1.4s13.7,4.8,13.7,4.8V147.6z"/>
	<path class="st3" d="M129.6,144.2c0,0-6.7-0.3-13.9-0.3s-13.7,3.7-13.7,3.7v-34.7c0,0,6.8-4.8,13.7-4.8s13.9,1.4,13.9,1.4V144.2z"
		/>
	<path class="st1" d="M76.3,138.3h-1.5c-3.7,0-6.8-3.1-6.8-6.8v-5.3c0-3.7,3.1-6.8,6.8-6.8h1.5c3.7,0,6.8,3.1,6.8,6.8v5.3
		C83.1,135.3,80.1,138.3,76.3,138.3z"/>
	<path class="st1" d="M128.9,138.3h-1.5c-3.7,0-6.8-3.1-6.8-6.8v-5.3c0-3.7,3.1-6.8,6.8-6.8h1.5c3.7,0,6.8,3.1,6.8,6.8v5.3
		C135.7,135.3,132.6,138.3,128.9,138.3z"/>
	<rect x="120.5" y="133.2" class="st14" width="8.7" height="0.4"/>
	<rect x="120.5" y="128.7" class="st14" width="8.7" height="0.4"/>
	<rect x="120.5" y="124.2" class="st14" width="8.7" height="0.4"/>
	<rect x="74.4" y="133.2" class="st14" width="8.7" height="0.4"/>
	<rect x="74.4" y="128.7" class="st14" width="8.7" height="0.4"/>
	<rect x="74.4" y="124.2" class="st14" width="8.7" height="0.4"/>
</g>
<g id="dog_copy" class="st0">
	<path class="st15" d="M68.5,98.1c0,0,1,28.9,1,32.9c0,3.9-8.3,11.5-11.3,13.5c-4.3,2.9,12,11,12.3,27.5h14.7c0,0,0-5.9-3.4-6.4
		c-1.9-0.3-2.1-0.1-2.9-1c-3.3-3.6-6.4-12.9-4.9-15.9c4.9-10.1,17.2-6.6,25.5-27.2S68.5,98.1,68.5,98.1z"/>
	<path class="st15" d="M133.3,135.1c0,0-2,2.5-4.9,5.9c-2.9,3.4-9.3,3.9-9.3,3.9s0.9,0.9,2,2s2.5,1.5,2.5,1.5l-2.9,1
		c0,0,4.9,2.5,10.8,6.9c5.9,4.4,16.2,15.7,16.2,15.7h13.7c0,0,0-6.4-3.4-6.9s-10.2-0.9-15.2-21.1
		C139.1,130.2,133.3,135.1,133.3,135.1z"/>
	<path class="st6" d="M121,105.5c0,22.3-18.4,26.7-40.7,26.7s-40.2-4.4-40.2-26.7S58.2,65,80.5,65S121,83.1,121,105.5z"/>
	<path class="st6" d="M95.5,67.9c0,0,8.1,0.7,30.9,22.6c11.3,10.8,25.5,17.2,25.5,17.2s6.6,32-10.4,38.5
		c-45,17.4-55.8-14.5-75.9-12.1C38.1,137.5,95.5,67.9,95.5,67.9z"/>
	<path class="st15" d="M166.3,114.2c0,0,8.5-1.8,13.7-2.3c7.8-0.8,4.6,10,11.1,13c6.5,3.1-8.5,5.4-12.4,0s-3.9-6.1-11.8-6.9
		C159.1,117.2,166.3,114.2,166.3,114.2z"/>
	<path class="st6" d="M175,123.6l-0.3,15.4c0,0,2.4,2.3,6.4,7c2.9,3.5,6.6,6.1,6.6,7.7c0,1.9-1.7,9.2-15.3,11.1
		c-10.6,1.5-27.7-6-30.5-6.6c-9.3-1.9-15.3-9.2-21.8-25c-6.2-15,10.8-28.9,27-28.9S174.1,113.8,175,123.6z"/>
	<path class="st6" d="M40.6,101.3c0,0,1,28.9,1,32.9s-4.9,10.3-7.8,12.3c-4.3,2.9,1.2,12.3,1.5,28.7l15.7-0.2c0,0,0.1-3.1-1-4.9
		c-0.7-1.2-3.1-1.1-4.4-1.5c-3.4-1-3.4-15.7-0.5-18.6c2.9-2.9,21.5-1.4,28.4-19.6C81.3,109.6,40.6,101.3,40.6,101.3z"/>
	<path class="st6" d="M105.8,138.1c0,0-2,2.5-4.9,5.9c-2.9,3.4-9.3,3.9-9.3,3.9s0.9,0.9,2,2s2.5,1.5,2.5,1.5l-2.9,1
		c0,0,4.9,2.5,10.8,6.9c5.9,4.4,16.2,15.7,16.2,15.7h13.7c0,0,0-6.4-3.4-6.9c-3.4-0.5-10.2-0.9-15.2-21.1
		C111.7,133.2,105.8,138.1,105.8,138.1z"/>
	<path class="st1" d="M127,124c0,0-4.1-0.4-5.1,10.7c-0.9,9.4,0.7,7.1,6.9,15.9c6.3,8.9,9.3-2.1,9.1-7.4c-0.2-5.3,4.1-13.7,8.8-11.5
		C151.3,134,136.9,122,127,124z"/>
	<path class="st15" d="M133.6,154.2C133.6,154.2,133.6,154.2,133.6,154.2c-1.5,0-3.3-2-6.1-4.9c-0.5-0.5-1-1-1.5-1.4
		c-3-2.8-5.8-5.5-4.1-15.6c1.6-9.9,7.3-10.2,7.6-10.2l0,0.5c-0.1,0-5.6,0.3-7.1,9.8c-1.6,9.8,1.1,12.4,4,15.2c0.5,0.5,1,0.9,1.5,1.5
		c2.6,2.8,4.5,4.7,5.7,4.8c0.3,0,0.6-0.1,0.8-0.4c2.6-2.6,2.7-5,2.8-7.8c0.1-1.6,0.1-3.3,0.7-5.3c1.4-4.9,3.3-7.8,5.7-8.6
		c2.2-0.8,4,0.5,4.1,0.6l-0.3,0.4c0,0-1.7-1.2-3.6-0.5c-2.2,0.8-4.1,3.6-5.4,8.3c-0.5,1.9-0.6,3.5-0.7,5.2c-0.1,2.8-0.2,5.5-2.9,8.2
		C134.4,154,134,154.2,133.6,154.2z"/>
	
		<ellipse transform="matrix(0.4462 -0.8949 0.8949 0.4462 -42.0596 223.4048)" class="st15" cx="159.5" cy="145.7" rx="1.8" ry="1.3"/>
	<path class="st15" d="M187.7,153.6c0,0-9.2,1.5-9.7,2.5c-0.5,1,4.4,5.6,6.5,3.8C188.2,156.6,187.7,153.6,187.7,153.6z"/>
	<path class="st6" d="M65.4,68c0,0-19.2,8.8-35.1,13.9S3.8,86.9,3.8,86.9s4.5,8.8,18.1,6.9c0,0-5.8,2.4-5.7,2.5
		c13,5.7,31.2-0.4,49.2-25.3C68.2,67.3,65.4,68,65.4,68z"/>
	<path class="st15" d="M72.4,134.3L72,134l0.2,0.2L72,134c0,0,2-2.5,2.4-13.5l0.5,0C74.5,131.7,72.5,134.2,72.4,134.3z"/>
	<path class="st15" d="M193.7,174.1l-15.2,0.2l5.1-2.6h7.7C191.4,171.7,193.3,172.2,193.7,174.1z"/>
	<path class="st3" d="M184.4,174.3c0,0,0.3,0.2,2.7-1.2c2.5-1.5,4.3-1.4,4.3-1.4h-44.5l-5.2,2.6H184.4z"/>
	<path class="st15" d="M178.8,168c0,0,1.4-0.5,3.8,3.7c0.9,1.5,1.1,3.2,1.1,3.2h-37.6c0,0-0.2-1.2-1.1-3.2c-1.7-3.9-2.6-3.7-2.6-3.7
		H178.8z"/>
	<path class="st3" d="M142.3,167.8c0,0-1.4-0.5-3.8,3.7c-0.9,1.5-1.1,3.2-1.1,3.2h37.6c0,0,0.2-1.2,1.1-3.2c1.7-3.9,2.6-3.7,2.6-3.7
		H142.3z"/>
</g>
<g id="rooster_copy" class="st0">
	<path class="st15" d="M125.8,146.5c0,0-10.3,4.9-14.5,9.1c-2.5,2.5-4.6,2.5-4.6,2.5s4.1,15.3,5.4,17c0.7,1,4.6,1,6.6,1.7
		c1.4,0.5,1.2,1.7,1.2,1.7h-13.7c0,0-0.4-1.2,1.2-1.7c2.2-0.5,1.7-1.7,1.7-1.7s-5-14.5-5.8-18.6c-0.8-4.1-5-10.8-5-9.9
		C98.5,147.3,125.8,146.5,125.8,146.5z"/>
	<path class="st1" d="M114.6,146.5c0,0-10.3,4.9-14.5,9.1c-2.5,2.5-4.6,2.5-4.6,2.5s1.2,17,2.5,18.6c0.7,1,4.6,1,6.6,1.7
		c1.4,0.5,1.2,1.7,1.2,1.7H92.2c0,0-0.4-1.2,1.2-1.7c2.2-0.5,1.7-1.7,1.7-1.7s-2.1-16.1-2.9-20.3c-0.8-4.1-5-10.8-5-9.9
		C87.3,147.3,114.6,146.5,114.6,146.5z"/>
	<path class="st15" d="M114.6,146.5c0,0-10.3,4.9-14.5,9.1c-2.5,2.5-4.6,2.5-4.6,2.5s-2.9,0.4-3.3-1.7c-0.8-4.1-5-10.8-5-9.9
		C87.3,147.3,114.6,146.5,114.6,146.5z"/>
	<path class="st6" d="M143.1,92.3c0,0,22.8-18.2,25.7-17.8c2.9,0.4,3.5,35.3-27.7,53C119.1,139.9,143.1,92.3,143.1,92.3z"/>
	<path class="st15" d="M127,48c0,0-11.8,2.4-23.6,18.6s-11.2,34.8-11.2,34.8s-15.3,4.1-16.5-21.1c-1.3-25.7-47.2-29.4-56.3,11.6
		c-3.3,15,1.2,7.1,9.9-1.7c9.9-9.9,14.1-9.5,14.1-9.5s-9.1,4.1-13.2,16.5c-1.7,5,11.6-0.4,11.6-0.4s-2.5,2.5-3.3,6.6
		c-1,4.9,6.2,2.1,6.2,2.1s1.2,44.4,52.5,45.9c42.2,1.2,55.4-25.7,55.4-41c0-9.1-7.9-25.2-13.7-51.7C136.6,48,138.6,44.3,127,48z"/>
	<path class="st1" d="M134.9,49.3c0,0,1.2-1.7,4.6-2.1c3.3-0.4,5.4,2.1,5.4,2.1s-1.7-0.4-3.3,0.8c-1.7,1.2-1.7,2.5-1.7,2.5
		s0.7,0.1,2.1,0.4c1.7,0.4,2.5,0.8,2.5,0.8s-2.1,0.7-3.7,1.2c-2.5,0.8-4.1,1.7-4.1,1.7L134.9,49.3z"/>
	<path class="st6" d="M137.8,47.6c0,0,3.6-2.5-0.7-5.7c-3.8-2.8-4-5.4-5-4.6c-0.7,0.5,0.3,3-1.8,3.4c-1.4,0.3-5.6-7.8-7.1-6.6
		c-1,0.8,1.4,6.1,0,8.1c-1.1,1.7-6.7-5.7-8.2-4.9c-1.3,0.7,2.5,6.1,1.5,7.3c-1.1,1.2-6.6-2.5-7.6-1.7c-1,0.8,6.3,5.6-0.1,5.4
		c-1,0,0.4,4.3,4.5,4.8c2.2,0.2,2.1-0.4,5.8-1.7C122.9,50.1,137.8,47.6,137.8,47.6z"/>
	<path class="st1" d="M127,48c0,0-11.8,2.4-23.6,18.6s-11.2,34.8-11.2,34.8s7.3,10.4,20.3,7.4c9.1-2.1,8.9-8.9,16.5-14.9
		c7.9-6.2,11.5-6.3,12.4-7.9c1.2-2.1,3.7-3.7-2.5-27.3C136.2,48.1,138.6,44.3,127,48z"/>
	<path class="st6" d="M137.8,47.6c-2.1,3.3-2.9,9.1-1.2,8.7c1.7-0.4,2.4-0.5,2.5-0.4c1,1,3.6,3.9,5,4.6c4.5,2.2,1.6,8.4-3.3,7.4
		c-2.8-0.5-3.7-3.3-4.1-7.4c-0.2-2.2-14.9,0-8.3-9.9c1.9-2.8,4.6-2.5,7-2.9C136.2,47.4,137.8,47.6,137.8,47.6z"/>
	<circle class="st12" cx="131.1" cy="50.5" r="1.2"/>
	<path class="st1" d="M96.4,100.2c0,0-23.6-1.5-34.3,4.1c-10.3,5.4-15.7,15.4-10.8,24.4c5.5,9.9,21.5,12.8,25.7,2.1
		C86.7,105.4,96.4,100.2,96.4,100.2z"/>
	<path class="st6" d="M91.1,109.8c0,0,2.2,6,8.9,8.9c4.2,1.8,10.9,0.8,10.9,0.8s-0.8,2.4,3.9,2.6c5.6,0.3,10.2-3.4,10.2-3.4
		s-18.1,32.5-46.2,24.1C73.3,141.2,86.5,111.9,91.1,109.8z"/>
	<path class="st1" d="M94.7,168.4h-5.8c0,0,3.7,2,5.8,2.1S94.7,168.4,94.7,168.4z"/>
	<ellipse transform="matrix(0.9727 -0.2323 0.2323 0.9727 -9.27 31.3886)" class="st1" cx="128.7" cy="55.1" rx="1.7" ry="1.2"/>
	<path class="st3" d="M164.5,86.8c0,0-3.4-3-7.7-3.8c-4.3-0.9-8.3-1.5-8.3-1.5l4.1-20.6c0,0,4.3,0,8.4,0.8s7.6,4.5,7.6,4.5
		L164.5,86.8z"/>
	<path class="st3" d="M181.2,88.1c0,0-3.9-1-8.2-1.8c-4.3-0.9-8.6,0.6-8.6,0.6l4.1-20.6c0,0,4.6-2,8.7-1.2s8.1,2.5,8.1,2.5
		L181.2,88.1z"/>
</g>
<g id="pig_copy" class="st0">
	<polygon class="st15" points="82.6,174.9 70.8,174.9 67,158.7 82.4,158.7 	"/>
	<polygon class="st15" points="137,174.9 125.2,174.9 121.3,158.7 136.7,158.7 	"/>
	<polygon class="st6" points="65.7,176.4 53.9,176.4 52.1,160.3 67.5,160.3 	"/>
	<polygon class="st6" points="120,176.4 108.3,176.4 106.5,160.3 121.8,160.3 	"/>
	<path class="st15" d="M166,102.5c0,0,9.2,1.5,14.6,3c8.1,2.3,2,10,3.5,17.6c1,4.9-8.2,0-9.8-5.1c-2.2-6.8-1.6-7.6-9.1-11.4
		C157.6,102.8,166,102.5,166,102.5z"/>
	<path class="st6" d="M128,162.6H64.4c-24.7,0-44.9-20.2-44.9-44.9v0c0-24.7,9.5-40.8,35.9-45.9c26.4-5.1,38,3.7,67.1,10.3
		c20.5,4.6,50.2,11.3,50.2,39C172.8,145.9,163.6,162.6,128,162.6z"/>
	<ellipse class="st1" cx="159.5" cy="136.2" rx="14.4" ry="10"/>
	<circle class="st15" cx="154.1" cy="136.2" r="1.3"/>
	<circle class="st15" cx="164.9" cy="136.2" r="1.3"/>
	<circle class="st15" cx="148.5" cy="119.8" r="1.3"/>
	<circle class="st15" cx="165.4" cy="119.8" r="1.3"/>
	<path class="st6" d="M28.7,77c-3.6,0-6.5-2.9-6.5-6.5c0-3.6,2.9-6.5,6.5-6.5s6.5,2.9,6.5,6.5C35.2,74,32.3,77,28.7,77z M28.7,65.4
		c-2.8,0-5,2.3-5,5c0,2.8,2.3,5,5,5s5-2.3,5-5C33.7,67.7,31.4,65.4,28.7,65.4z"/>
	<path class="st6" d="M30.2,85.6c0-0.1-4.1-6.7-7.2-11.8c-3.2-5.3-1.7-15.9-1.6-16.4l1.5,0.2c0,0.1-1.5,10.6,1.4,15.4
		c3,5.1,7.1,11.7,7.2,11.8L30.2,85.6z"/>
	<path class="st6" d="M111.1,102.5c0,0-3.6-0.3-4.5,9.5c-0.8,8.3,0.6,6.3,6.1,14.1c5.5,7.9,8.2-1.8,8-6.5
		c-0.2-4.7,3.6-12.1,7.8-10.2C132.6,111.3,119.9,100.7,111.1,102.5z"/>
	<path class="st15" d="M116.9,129.2C116.9,129.2,116.9,129.2,116.9,129.2c-1.3,0-3-1.7-5.4-4.3c-0.4-0.5-0.9-0.9-1.3-1.3
		c-2.6-2.5-5.1-4.9-3.7-13.8c1.4-8.9,16.7-6.7,17.4-6.6l-0.1,0.5c-0.2,0-15.4-2.1-16.8,6.2c-1.4,8.7,1,11,3.5,13.4
		c0.4,0.4,0.9,0.8,1.3,1.3c2.3,2.4,3.9,4.2,5.1,4.2c0.3,0,0.5-0.1,0.7-0.3c2.3-2.3,2.4-4.4,2.5-6.9c0.1-1.5,0.1-3,0.6-4.7
		c1.2-4.3,2.9-6.9,5.1-7.6c2-0.7,3.6,0.4,3.6,0.5l-0.3,0.4c0,0-1.4-1-3.2-0.4c-2,0.7-3.6,3.2-4.8,7.3c-0.5,1.6-0.5,3.1-0.6,4.6
		c-0.1,2.5-0.2,4.9-2.6,7.2C117.7,129.1,117.3,129.2,116.9,129.2z"/>
	<path class="st15" d="M192,173.9l-16.3,0.3l5.5-2.8h8.2C189.4,171.3,191.5,171.8,192,173.9z"/>
	<path class="st3" d="M182,174.1c0,0,0.3,0.3,2.9-1.3c2.7-1.6,4.6-1.5,4.6-1.5h-47.7l-5.6,2.8H182z"/>
	<path class="st15" d="M176,167.3c0,0,1.5-0.6,4.1,3.9c0.9,1.6,1.1,3.4,1.1,3.4H141c0,0-0.2-1.3-1.1-3.4c-1.8-4.2-2.7-3.9-2.7-3.9
		H176z"/>
	<path class="st3" d="M136.8,167.1c0,0-1.5-0.6-4.1,3.9c-0.9,1.6-1.1,3.4-1.1,3.4h40.3c0,0,0.2-1.3,1.1-3.4c1.8-4.2,2.7-3.9,2.7-3.9
		H136.8z"/>
</g>
<g id="snake_copy" class="st0">
	<ellipse class="st6" cx="101" cy="125.7" rx="59" ry="41.4"/>
	<g class="st4">
		<ellipse class="st5" cx="101" cy="114.3" rx="50.1" ry="35.1"/>
		<path class="st16" d="M101,149.6c-27.7,0-50.3-15.8-50.3-35.3S73.3,79,101,79s50.3,15.8,50.3,35.3S128.8,149.6,101,149.6z
			 M101,79.5c-27.5,0-49.9,15.6-49.9,34.9s22.4,34.9,49.9,34.9s49.9-15.6,49.9-34.9S128.5,79.5,101,79.5z"/>
	</g>
	<g class="st4">
		<path class="st5" d="M62.3,97.7c-0.7,2.1-1.1,3.1-1.1,5.3c0,15.4,17.8,27.8,39.7,27.8s39.7-12.4,39.7-27.8c0-2.2-0.4-3.2-1.1-5.3
			H62.3z"/>
		<path class="st16" d="M139.5,97.7c0.7,2.1,1.1,3.1,1.1,5.3c0,15.4-17.8,27.8-39.7,27.8S61.2,118.4,61.2,103c0-2.2,0.4-3.2,1.1-5.3
			H139.5 M139.8,97.3h-0.3H62.3H62l-0.1,0.3l-0.1,0.2c-0.7,2-1,3-1,5.2c0,15.6,18,28.2,40.1,28.2S141,118.6,141,103
			c0-2.2-0.4-3.3-1-5.2l-0.1-0.2L139.8,97.3L139.8,97.3z"/>
	</g>
	<ellipse class="st6" cx="100.9" cy="103" rx="39.7" ry="27.8"/>
	<path class="st6" d="M120.7,146.5c0,0-42.5,14.1-18.3,34c5.2,4.3-4-4,4.3-11.8c5.1-4.7,7.7-1.6,17.5-4.9"/>
	<path class="st15" d="M95.2,166.9l-0.4-0.1c0-0.1,3.6-14.9,25.9-20.4l0.1,0.4C98.8,152.2,95.2,166.7,95.2,166.9z"/>
	<polygon class="st15" points="91.2,60.5 80.9,60.5 83.4,62.4 80.9,64.4 91.2,64.4 	"/>
	<g>
		<path class="st17" d="M105.9,58.6L105.9,58.6c12.2,0,22.1,10,22.1,22.1v9.6"/>
		<path class="st6" d="M128.1,102.6c-6.8,0-12.3-5.5-12.3-12.3v-9.6c0-5.4-4.4-9.8-9.8-9.8c-6.8,0-12.3-5.5-12.3-12.3
			s5.5-12.3,12.3-12.3c19,0,34.4,15.4,34.4,34.4v9.6C140.4,97.1,134.9,102.6,128.1,102.6z"/>
	</g>
	<path class="st15" d="M96.1,112.9h9c6.1,0,11.1-5,11.1-11.1v-6.2c0-3-2.4-5.4-5.4-5.4H96.1c-6.1,0-11.1,5-11.1,11.1v0.5
		C84.9,107.9,89.9,112.9,96.1,112.9z"/>
	<g class="st4">
		<path class="st5" d="M128.6,105.8c-7.5,0-11.8-6.1-11.8-13.5V81.7c0-6-3.4-12.8-12.8-12.8c-7.5,0-14.7-0.4-14.7-7.9
			s9-10.9,16.2-12.8c16.7-4.4,34.9,12.5,34.9,33.4v10.6C140.4,99.7,136,105.8,128.6,105.8z"/>
	</g>
	<rect x="137.4" y="51.5" class="st18" width="35.6" height="34.9"/>
	<path class="st3" d="M96.4,91.7c0,0-4.8,4.5-6.4,9.5c-1.6,5-2.8,9.6-2.8,9.6l-31.3-0.3c0,0,0.3-4.9,1.8-9.6
		c1.5-4.8,7.4-9.5,7.4-9.5L96.4,91.7z"/>
	<path class="st3" d="M99.5,72.5c0,0-1.8,4.7-3.4,9.6c-1.6,5,0.3,9.5,0.3,9.5l-31.3-0.3c0,0-2.8-4.8-1.3-9.6
		c1.5-4.8,4.3-9.6,4.3-9.6L99.5,72.5z"/>
	<circle class="st15" cx="102.6" cy="55.5" r="1.6"/>
	<path class="st1" d="M105.8,69c0,0-2.6-3.5,4.6-3c6.1,0.4,10.3,2.7,10.3,23.7c0,15.7-4.5,23.2-13.9,23.2c0,0,9.8,0,9.8-23.7
		c0-4.9,0.2-9.8-0.8-12.5C113.1,69.1,105.8,69,105.8,69z"/>
</g>
<g id="goat_copy" class="st0">
	<g class="st4">
		<path class="st16" d="M73.3,141.8c0.5,6.4-0.3,8.9-1.1,9.7c-0.7,0.7-0.8,1.7-0.6,2.6c0.9,3,2.4,9.5,3,22.5
			c0.1,1.3,1.6,0.9,1.9,4.1H86c-0.9-5.1-3.5-4.1-5.1-7.6c-0.7-1.6-2.2-18.4,7-31.3C95.6,130.9,72.4,130.1,73.3,141.8z"/>
		<path class="st16" d="M133.8,141.8c0.5,6.4-0.3,8.9-1.1,9.7c-0.7,0.7-0.8,1.7-0.6,2.6c0.9,3,2.4,9.5,3,22.5
			c0.1,1.3,1.6,0.9,1.9,4.1h9.5c-0.9-5.1-3.5-4.1-5.1-7.6c-0.7-1.6-2.5-20.6,6.6-33.6C155.7,128.7,132.8,130.1,133.8,141.8z"/>
		<path class="st5" d="M116.7,143.7c0.5,6.4-0.3,8.9-1.1,9.7c-0.7,0.7-0.8,1.7-0.6,2.6c0.9,3,2.4,9.5,3,22.5
			c0.1,1.3,1.6,0.9,1.9,4.1h9.5c-0.9-5.1-3.5-4.1-5.1-7.6c-0.7-1.6-2.2-18.4,7-31.3C139,132.8,115.7,132,116.7,143.7z"/>
		<path class="st5" d="M123,84.8c-13.3,1.6-19.6,10.8-31,8.9c-22.5-3.8-32-6.3-40.2,4.7c-12.7,17.1,3.2,33.6,4.1,45.3
			c0.5,6.4-0.3,8.9-1.1,9.7c-0.7,0.7-0.8,1.7-0.6,2.6c0.9,3,2.4,9.5,3,22.5c0.1,1.3,1.6,0.9,1.9,4.1h9.5c-0.9-5.1-3.5-4.1-5.1-7.6
			c-0.7-1.6-2.2-18.4,7-31.3c7.7-10.9,16.5,9.5,52.6,1.9c0,0,7.3,0.6,18-1.9c0,0,14.9-6.6,14.9-23.7c0-7.9-2.4-6.9-4.7-21.8
			C144.9,57.6,130.9,83.9,123,84.8z"/>
	</g>
	<path class="st15" d="M139.2,103.8c8.9,0,11.8-7.4,11.8-7.4s-1.1-7.2-3.1-12.5c-2-5.4-23.8-0.9-24.8,1
		C123.7,90.8,129.7,103.8,139.2,103.8z"/>
	<g class="st4">
		<path class="st19" d="M104,64.6c-5.2-4.6-7.6-12.1-5.6-17.7c2.4-6.6,9.3-11.2,16.8-11.2c10.9,0,19.7,8.8,19.7,19.7
			c0,2.2-1.8,3.9-3.9,3.9c-2.2,0-3.9-1.8-3.9-3.9c0-6.5-5.3-11.8-11.8-11.8c-4.1,0-8,2.6-9.4,6c-2.1,5.2-0.8,10.1-0.5,14.1
			C105.5,65.8,104.7,65.2,104,64.6z"/>
		<path class="st19" d="M171.5,64.6c5.2-4.6,7.6-12.1,5.6-17.7c-2.4-6.6-9.3-11.2-16.8-11.2c-10.9,0-19.7,8.8-19.7,19.7
			c0,2.2,1.8,3.9,3.9,3.9c2.2,0,3.9-1.8,3.9-3.9c0-6.5,5.3-11.8,11.8-11.8c4.1,0,8,2.6,9.4,6c2.1,5.2,0.8,10.1,0.5,14.1
			C170,65.8,170.9,65.2,171.5,64.6z"/>
		<g>
			<path class="st5" d="M137.8,54.4c0,0-7.6-6.9-16.4,1.9c-9.8,9.8-3,13.6-1,18.7c1.4,3.6,3.3,18.3,8.5,21.7c2,1.3,2.3,4.9,8.9,4.9
				V54.4z"/>
			<path class="st5" d="M137.8,54.4c0,0,7.6-6.9,16.4,1.9c9.8,9.8,3,13.6,1,18.7c-1.4,3.6-3.3,18.3-8.5,21.7c-2,1.3-2.3,4.9-8.9,4.9
				V54.4z"/>
		</g>
		<path class="st5" d="M121.1,60c0,0-0.9-1.3-5.6,2.3c-8.9,6.9-16.1,7.5-18.4,8.9c-1.7,1,10.8,11.8,19,3
			C129.5,59.7,121.1,60,121.1,60z"/>
		<path class="st5" d="M155.4,60c0,0,0.9-1.3,5.6,2.3c8.9,6.9,16.1,7.5,18.4,8.9c1.7,1-10.8,11.8-19,3C147,59.7,155.4,60,155.4,60z"
			/>
		<circle class="st19" cx="125.3" cy="69.4" r="2.2"/>
		<circle class="st19" cx="150.7" cy="69.4" r="2.2"/>
		<path class="st16" d="M126.7,69.8h-2.9c-0.2,0-0.3-0.2-0.3-0.3c0-0.2,0.2-0.3,0.3-0.3h2.9c0.2,0,0.3,0.2,0.3,0.3
			C127.1,69.6,126.9,69.8,126.7,69.8z"/>
		<path class="st16" d="M152.2,69.8h-2.9c-0.2,0-0.3-0.2-0.3-0.3c0-0.2,0.2-0.3,0.3-0.3h2.9c0.2,0,0.3,0.2,0.3,0.3
			C152.5,69.6,152.4,69.8,152.2,69.8z"/>
		<path class="st16" d="M141.8,86.1c0,1.6-1.7,3.7-3.8,3.7c-2.1,0-3.8-2.1-3.8-3.7c0-1.6,1.7-2.2,3.8-2.2
			C140.1,83.9,141.8,84.5,141.8,86.1z"/>
		
			<rect x="134.9" y="92.1" transform="matrix(3.906220e-03 -1 1 3.906220e-03 45.1553 229.9086)" class="st16" width="6.2" height="0.3"/>
	</g>
	<path class="st3" d="M124.7,112.9c0,0,1.8-4.5,1.2-9.1s-1.4-8.8-1.4-8.8l22.2-3.1c0,0,1.5,4.4,2.1,8.8c0.6,4.4-1.9,9.2-1.9,9.2
		L124.7,112.9z"/>
	<path class="st3" d="M129.3,130.2c0,0-0.4-4.3-1-8.9c-0.6-4.6-3.6-8.4-3.6-8.4l22.2-3.1c0,0,3.7,4,4.3,8.3c0.6,4.4,0.3,9,0.3,9
		L129.3,130.2z"/>
	<path class="st6" d="M130.3,91.8c0,0,3.8,3.5,7,3.5c3.2,0,6.6-3.5,6.6-3.5"/>
	<path class="st6" d="M55.3,95.3c0,0-16.8,16.1-27.9,12c-9.2-3.4,0.9,12,12.7,6c1.5-0.8-5.3,9.3,5.7,0.6
		C56.2,105.7,55.3,95.3,55.3,95.3z"/>
</g>
<g id="ox_copy" class="st0">
	<g class="st4">
		<path class="st16" d="M56.1,124.5c0.7,8.8-0.4,12.2-1.6,13.4c-0.9,0.9-1.2,2.3-0.8,3.5c1.2,4.1,3.3,13,4.1,30.9
			c0.1,1.8,2.2,1.3,2.6,5.7h13c-1.3-7-4.8-5.7-7-10.4c-1-2.2-3-25.2,9.6-43C86.7,109.5,54.8,108.4,56.1,124.5z"/>
		<path class="st16" d="M139.2,124.5c0.7,8.8-0.4,12.2-1.6,13.4c-0.9,0.9-1.2,2.3-0.8,3.5c1.2,4.1,3.3,13,4.1,30.9
			c0.1,1.8,2.2,1.3,2.6,5.7h13c-1.3-7-4.8-5.7-7-10.4c-1-2.2-3.5-28.3,9.1-46.1C169.3,106.5,137.9,108.4,139.2,124.5z"/>
		<path class="st5" d="M115.7,127.1c0.7,8.8-0.4,12.2-1.6,13.4c-0.9,0.9-1.2,2.3-0.8,3.5c1.2,4.1,3.3,13,4.1,30.9
			c0.1,1.8,2.2,1.3,2.6,5.7h13c-1.3-7-4.8-5.7-7-10.4c-1-2.2-3-25.2,9.6-43C146.3,112.2,114.4,111,115.7,127.1z"/>
		<path class="st5" d="M124.4,46.3c-18.3,2.2-27,14.8-42.6,12.2c-31-5.2-43.9-8.7-55.2,6.5c-17.4,23.5,4.3,46.1,5.7,62.2
			c0.7,8.8-0.4,12.2-1.6,13.4c-0.9,0.9-1.2,2.3-0.8,3.5c1.2,4.1,3.3,13,4.1,30.9c0.1,1.8,2.2,1.3,2.6,5.7h13c-1.3-7-4.8-5.7-7-10.4
			c-1-2.2-3-25.2,9.6-43c10.6-15,22.6,13,72.2,2.6c0,0,10,0.9,24.8-2.6c0,0,20.4-9.1,20.4-32.6c0-10.9-2.2-9.7-6.5-30
			C157.8,40.1,135.3,45,124.4,46.3z"/>
	</g>
	<path class="st15" d="M127.2,104.7c0,0,0.1,34.3,4,30.1c7.8-8.5,27.6-13.4,27.6-13.4L127.2,104.7z"/>
	<g class="st4">
		<path class="st19" d="M147.2,85c0,0-6.9-6.1-20.2,0.9c-6.1,3.2-0.9,14.2,0,27.6c0.2,3.5,2.7,13.2,5.7,17.7
			c3,4.5,2.2,11.9,14.5,11.6V85z"/>
		<path class="st19" d="M147.2,85c0,0,6.9-6.1,20.2,0.9c6.1,3.2,0.9,14.2,0,27.6c-0.2,3.5-2.7,13.2-5.7,17.7
			c-3,4.5-2.2,11.9-14.5,11.6V85z"/>
	</g>
	<g class="st4">
		<g>
			<path class="st5" d="M126.3,100.2c-4.8-0.8-11.5-7.4-20.4,0.8c-0.8,0.8,1.6,1.4,3.7,3.7c3.7,4.1,11.2,5.9,18.1-0.3
				C136.4,96.6,131.2,101.1,126.3,100.2z"/>
			<path class="st16" d="M118.2,108.7c-3.4,0-6.5-1.5-8.7-3.8c-0.9-1-1.9-1.7-2.7-2.2c-0.8-0.5-1.3-0.9-1.3-1.3
				c0-0.2,0.1-0.3,0.2-0.5c6.9-6.4,12.4-4,16.9-2.2c1.3,0.6,2.6,1.1,3.7,1.3l0,0c1.7,0.3,3.5-0.1,4.6-0.3c1-0.2,1.4-0.3,1.5,0
				c0.2,0.4-0.3,0.9-4.7,4.9C124.7,107.5,121.3,108.7,118.2,108.7z M115,97.1c-2.7,0-5.7,1-9,4.1c-0.1,0.1-0.1,0.2-0.1,0.2
				c0,0.2,0.5,0.6,1.1,1c0.7,0.5,1.8,1.2,2.7,2.3c4,4.3,11.3,5.5,17.8-0.4c2.2-2,4.3-3.9,4.5-4.4c-0.2,0-0.7,0.1-1.1,0.2
				c-1.2,0.3-3,0.6-4.8,0.3c-1.2-0.2-2.5-0.7-3.8-1.3C120.3,98.2,117.8,97.1,115,97.1z"/>
		</g>
		<path class="st5" d="M147.2,85.3c0,0-6.9-6.1-20.2,0.9c-6.1,3.2-0.9,14.2,0,27.6c0.2,3.5,2.7,13.2,5.7,17.7
			c3,4.5,2.2,11.9,14.5,11.6V85.3z"/>
		<path class="st19" d="M125.7,87.1l-1.2,10.7c0,0-22.3-3.8-25-4.1c-2.7-0.3-7-4.3-2.7-8.6c2.1-2.1,12.4-5.2,16.5-10.7
			c2.5-3.4,2.7,5.5-6.5,11.3L125.7,87.1z"/>
		<path class="st5" d="M147.2,85.3c0,0,6.9-6.1,20.2,0.9c6.1,3.2,0.9,14.2,0,27.6c-0.2,3.5-2.7,13.2-5.7,17.7
			c-3,4.5-2.2,11.9-14.5,11.6V85.3z"/>
		<path class="st19" d="M168.7,87.1l1.2,10.7c0,0,22.3-3.8,25-4.1c2.7-0.3,7-4.3,2.7-8.6c-2.1-2.1-12.4-5.2-16.5-10.7
			c-2.5-3.4-2.7,5.5,6.5,11.3L168.7,87.1z"/>
		<path class="st5" d="M167.7,100.2c4.8-0.8,11.5-7.4,20.4,0.8c0.8,0.8-1.6,1.4-3.7,3.7c-3.7,4.1-11.2,5.9-18.1-0.3
			C157.7,96.6,162.9,101.1,167.7,100.2z"/>
		<path class="st19" d="M152.8,143.3h-9.9c-3.8,0-7-3.1-7-7v-2.7c0-4.5,3.7-8.2,8.2-8.2h6.2c4.5,0,8.2,3.7,8.2,8.2v3.9
			C158.5,140.7,155.9,143.3,152.8,143.3z"/>
		<path class="st16" d="M148.7,137h-3.3c-3.8,0-6.9-3.1-6.9-6.9V130c0-1.5,1.2-2.7,2.7-2.7c0,0,2.4,0.4,6,0.4c3.2,0,5.2-0.3,5.6-0.4
			c0.1,0,0.1,0,0.2,0c1.4,0.1,2.6,1.2,2.6,2.7v0.1C155.6,133.9,152.5,137,148.7,137z"/>
		<path class="st19" d="M143,134.5l-0.3-0.3c0.4-0.4,0.6-0.8,0.5-1.2c-0.2-1.6-3.1-3.1-3.1-3.1l0.2-0.3c0.1,0.1,3.1,1.7,3.3,3.4
			C143.7,133.5,143.5,134.1,143,134.5z"/>
		<path class="st19" d="M151.2,134.5c-0.5-0.5-0.7-1-0.7-1.5c0.2-1.8,3.2-3.4,3.3-3.4l0.2,0.3c0,0-2.9,1.6-3.1,3.1
			c-0.1,0.4,0.1,0.8,0.5,1.2L151.2,134.5z"/>
		<circle class="st16" cx="132.5" cy="107" r="2.2"/>
		<circle class="st16" cx="162.1" cy="107" r="2.2"/>
	</g>
	<polygon class="st15" points="118.7,183 175.6,183 147.2,178.6 	"/>
	<path class="st3" d="M147.2,183.2c0,0-4.7-2.1-9.9-2.1s-18.5,1.9-18.5,1.9l8.5-6.6c0,0,5.1-2.5,10.1-2.5c8.3,0,9.9,3,9.9,3V183.2z"
		/>
	<path class="st3" d="M147.2,183.2c0,0,4.7-2.1,9.9-2.1s18.5,1.9,18.5,1.9l-8.5-6.6c0,0-5.1-2.5-10.1-2.5c-8.3,0-9.9,3-9.9,3V183.2z
		"/>
	<path class="st15" d="M125.6,86l-0.4-0.1c0-0.2,3.9-21.2,7.5-27.8l0.3,0.2C129.4,64.9,125.6,85.8,125.6,86z"/>
	<path class="st6" d="M27.9,63.2c0,0-16.2,7.2-14.3,29.3s-1.4,26.8-1.4,26.8s-8.2,0.5-8.2,11.2c0,0,10.7-1.4,10.4-9.2
		c7.7-16-9-43.7,13.5-54.3C42.5,60.2,27.9,63.2,27.9,63.2z"/>
</g>
<g id="rabbit_copy">
	<path class="st16" d="M50.4,149.8c0,0-11.3-6.2-15.7,3.4c-2.9,6.2-2.7,8.9,1.7,11.6c2.6,1.6,9.9-4.5,26-5.5
		C76.6,158.4,50.4,149.8,50.4,149.8z"/>
	<circle class="st16" cx="38.9" cy="133.2" r="11.1"/>
	<path class="st5" d="M156.5,135.5c0,22.5-25.4,29.3-56.8,29.3S43,156.8,43,134.3s25.4-50.9,56.8-50.9S156.5,113,156.5,135.5z"/>
	<path class="st5" d="M97.9,167.6c0,0,39.6-10.1,49.6,0c6.8,6.8,8.9-6.2,8.9-6.2s-7.2-19.9-3.4-24.3
		C156.8,132.6,97.9,167.6,97.9,167.6z"/>
	<path class="st16" d="M99.3,145.7c-1.4,3.4,18,17.5,32.7,17.5c12.2,0,24.5,5.5,24.5,5.5v-10.3c0,0-3.1-3.2-3.4-10.5
		C152.7,140.5,100.7,142.2,99.3,145.7z"/>
	<path class="st5" d="M157.5,135c0,14.7-13.9,22.3-30.8,22.3s-30.5-8.2-30.5-22.3c0-16.1,13.7-32.9,30.6-32.9S157.5,119,157.5,135z"
		/>
	<path class="st16" d="M137,160.7c1,4.5,8.2,6.8,10.3,13.4c0.9,2.7,4.6,4.8,6.8,4.8c11.8,0,14.7-1.2,14.7-3.4
		c0-15.1-11.3-12.3-14-19.9c-0.8-2.3-2.1-3.1-4.6-2.5l-1.7,0.4C146.4,154,136.5,158.6,137,160.7z"/>
	<path class="st5" d="M134.7,106.8c0,0,2.6-3.1,3-8.6c1.1-13.5,3.6-15.2,8-21.8c6.2-9.5,13.7-15.9,17.5-14.1c3.9,1.8,3.1,8.3,0.6,17
		c-2.5,8.7,0.1,13.3-10.2,25.3c-5.4,6.3-8.1,8.2-8.1,8.2L134.7,106.8z"/>
	<path class="st19" d="M162.6,68.6c0,0-8.2,7.2-12.3,16.4c-4.1,9.2-6.8,22.9-6.8,22.9s8.5-0.6,14.4-13.2
		C160.8,88.7,160.9,79.2,162.6,68.6z"/>
	<path class="st5" d="M119,106.8c0,0-2.6-3.1-3-8.6c-1.1-13.5-3.6-15.2-8-21.8c-6.2-9.5-13.7-15.9-17.5-14.1
		c-3.9,1.8-3.1,8.3-0.6,17c2.5,8.7-0.1,13.3,10.2,25.3c5.4,6.3,8.1,8.2,8.1,8.2L119,106.8z"/>
	<path class="st19" d="M91.1,68.6c0,0,8.2,7.2,12.3,16.4c4.1,9.2,6.8,22.9,6.8,22.9s-8.5-0.6-14.4-13.2
		C92.9,88.7,92.8,79.2,91.1,68.6z"/>
	<circle class="st16" cx="110.8" cy="125.6" r="2.6"/>
	<circle class="st16" cx="142.6" cy="125.6" r="2.6"/>
	<polygon class="st16" points="126.7,140.4 119.8,137.3 119.9,136.9 126.7,139.9 133.3,137 133.5,137.5 	"/>
	<rect x="126.6" y="140" class="st16" width="0.5" height="7.2"/>
	<path class="st5" d="M109.6,160.4c-3.4,8.7-2.7,9.2-2.7,15.1c0,2-3.4,5.1-11.2,5.1c-7,0-10.4-1-11.4-5.5c-1.9-8-0.1-4.4,1.7-16.8
		c0.4-2.5,8.6-4.2,11.1-3.6l1.7,0.4C100.9,155.7,110.4,158.4,109.6,160.4z"/>
	<rect x="90.5" y="172.7" class="st16" width="0.5" height="7.5"/>
	<rect x="98.7" y="172.7" class="st16" width="0.5" height="7.5"/>
	<polygon class="st16" points="91.1,180.8 168.1,180.8 129.6,174.8 	"/>
	<path class="st23" d="M129.6,181c0,0-6.4-3.3-13.4-3.3s-25.1,3.1-25.1,3.1l11.5-10.6c0,0,6.9-4,13.6-4c11.2,0,13.4,4.9,13.4,4.9
		V181z"/>
	<path class="st23" d="M129.6,181c0,0,6.4-3.3,13.4-3.3c7,0,25.1,3.1,25.1,3.1l-11.5-10.6c0,0-6.9-4-13.6-4
		c-11.2,0-13.4,4.9-13.4,4.9V181z"/>
	<path class="st19" d="M137.2,104.6l-0.3-0.2c-9.5-4.8-19-0.4-19.1-0.3l-0.2-0.4c0.1,0,9.6-4.5,19.2,0.2l0.5-5.3l0.5,0L137.2,104.6z
		"/>
</g>
<g id="tiger_copy" class="st0">
	<path class="st15" d="M155.3,126.4c0,0,3.5,16.3,9.3,17.4s12.6,12.5,9.8,22.9c-2.8,10.4-33.3,7-34,5.1c-0.7-1.9-1.4-32.5-1.4-32.5
		L155.3,126.4z"/>
	<path class="st6" d="M128.6,89c0,0-18.7,28.4-49.8,26.1s-73.4-2.2-62.3,39.3c6.6,24.6,13.8,22.3,17,22.3s164,0.4,164,0.4
		s6.7-3.5,2.1-8.3c-8.3-8.7-5.3-8.4-36.3-5.3c-5.9,0.6-11.2,1.8-13.7-0.7c-7.4-7.3-5.7-9.1-5.7-9.1s8.6-6.1,13.1-20.8
		C161.6,117.8,158.4,79.6,128.6,89z"/>
	<g class="st4">
		<defs>
			<path id="SVGID_5_" d="M128.6,89c0,0-18.7,28.4-49.8,26.1s-73.4-2.2-62.3,39.3c6.6,24.6,13.8,22.3,17,22.3s164,0.4,164,0.4
				s6.7-3.5,2.1-8.3c-8.3-8.7-5.3-8.4-36.3-5.3c-5.9,0.6-11.2,1.8-13.7-0.7c-7.4-7.3-5.7-9.1-5.7-9.1s8.6-6.1,13.1-20.8
				C161.6,117.8,158.4,79.6,128.6,89z"/>
		</defs>
		<clipPath id="SVGID_6_">
			<use xlink:href="#SVGID_5_"  style="overflow:visible;"/>
		</clipPath>
		<g class="st25">
			<path class="st16" d="M96.7,158.9c0,0-13.2-14.4-19.2-27.8c-3.9-8.7-11.2-17.6,0.6-27.6c11.8-10-7.8-2.9-7.8-2.9
				s-11.9,6.9-5.5,19.3C71.2,132.1,83,152.5,96.7,158.9z"/>
			<path class="st16" d="M101,141.6c-4.7-8.2-12.8-16.3-2-27.6s-8-2-8-2s-11.2,8.3-3.7,19.8c7.5,11.5,21.1,30.4,35.4,35.3
				C122.7,167.1,108.3,154.3,101,141.6z"/>
			<path class="st16" d="M52.5,143.4c-2.9-9.9-9.3-20.4,3.6-30.1s-7.4-4-7.4-4S36,115.7,41,129.7c3.7,10.3,13.1,36.4,21.2,47.2
				c3,4,9,4.4,13.5,1C75.8,177.9,60.3,169.9,52.5,143.4z"/>
			<path class="st16" d="M67.8,148c1,10.6,19.7,31.4,19.7,31.4h12.5C67.4,155.9,66.7,137.4,67.8,148z"/>
			<path class="st16" d="M114.1,150.6c18.7,12.9,30.8,28.7,30.8,28.7h7.3C126.9,155.2,105.4,144.6,114.1,150.6z"/>
			<path class="st16" d="M32.7,139.5c-2.3,10.3,8.7,36.9,8.7,36.9l11.7,4.7C29.9,146.8,35,129.1,32.7,139.5z"/>
			<path class="st16" d="M108.2,106c0,0-8.3,13.6,1.4,26.5s17.7,8.3,35.8,26.4s-11.6-14.3-26.5-22.3c-19-10.2-11.8-29.1-7.8-30.6
				S108.2,106,108.2,106z"/>
		</g>
	</g>
	<path class="st6" d="M60.5,179C60.5,179,60.5,179,60.5,179L15,179c-4.4,0-8.6-3.2-10.7-8.1c-2.6-6.1-1.4-13.1,3-18.7
		c7.5-9.5,9.8-20.8,9.8-20.9c0.6-2.8,3.1-4.7,5.7-4c2.6,0.6,4.3,3.4,3.7,6.2c-0.1,0.6-2.8,13.9-12,25.6c-2.8,3.5-2,6.4-1.6,7.5
		c0.5,1.3,1.4,2,1.9,2l45.5,0c2.7,0,4.8,2.4,4.8,5.3C65.4,176.6,63.2,179,60.5,179z"/>
	<rect x="15.7" y="168.8" class="st15" width="5.2" height="10"/>
	<rect x="26.8" y="168.8" class="st15" width="5.2" height="10"/>
	<rect x="37.8" y="168.8" class="st15" width="5.2" height="10"/>
	<rect x="48.6" y="168.8" class="st15" width="5.2" height="10"/>
	<path class="st15" d="M12.8,166.2c0,0-1.8,1.5-2.8,4.2c-1,2.6-1.4,6.1-1.4,6.1s-1.3-1.4-2.4-2.6s-2.1-3.8-2.1-3.8s1.3-2.6,3.1-4.2
		c1.8-1.5,5.2-1.5,5.2-1.5L12.8,166.2z"/>
	<path class="st15" d="M13.4,160.5c0,0-2.2-1.1-4.8-0.8C6,160.1,3.4,162,3.4,162s0.2-1.9,0.7-3.4s1-2.6,1-2.6s2.2-0.7,4.8,0
		c2.7,0.7,4.5,3,4.5,3L13.4,160.5z"/>
	<g class="st4">
		<path class="st21" d="M110.4,79.7c0,0-8,7.1-5.3,23.3c1.7-2.5,3.9-3.2,3.9-3.2s-4.5,4.8,2.2,15.7c1.9,0.1,7.1-7.7,16.9,6.8
			c3.1,4.6,10.7,4.8,10.7,4.8l-0.5-65.9c0,0-8.7-4.3-18.8,4.2c-3.2,2.7-12.2-4.3-13.2-3.9C105.2,61.8,103.9,73.8,110.4,79.7z"/>
		<path class="st21" d="M165.9,79.7c0,0,8,7.1,5.3,23.3c-1.7-2.5-3.9-3.2-3.9-3.2s4.5,4.8-2.2,15.7c-1.9,0.1-7.1-7.7-16.9,6.8
			c-3.1,4.6-10.1,4.8-10.1,4.8l-0.1-65.9c0,0,8.7-4.3,18.8,4.2c3.2,2.7,12.2-4.3,13.2-3.9C171.1,61.8,172.4,73.8,165.9,79.7z"/>
		<path class="st5" d="M165.9,79.7c6.5-5.9,5.2-17.9,4.2-18.3c-1.1-0.4-10,6.7-13.2,3.9c-9.5-8.1-17.9-4.6-18.7-4.3
			c-0.8-0.4-9.2-3.8-18.7,4.3c-3.2,2.7-12.2-4.3-13.2-3.9c-1.1,0.4-2.3,12.4,4.2,18.3c0,0-8,7.1-5.3,23.3c1.7-2.5,3.9-3.2,3.9-3.2
			s-4.5,4.8,2.2,15.7c1.9,0.1,8.9-4.8,16.9,6.8c2.7,3.9,8.4,3.8,10.2,3.9l0.5,0c1.7-0.1,6.9-0.1,9.5-3.9c8.3-11.9,14.9-6.7,16.9-6.8
			c6.6-10.9,2.2-15.7,2.2-15.7s2.2,0.7,3.9,3.2C173.9,86.7,165.9,79.7,165.9,79.7z"/>
		<path class="st19" d="M138.3,101.1c-15,5.6-9.6-3.8-19.1-3.8c-5.3,0-4.5-13.9-2.3-13.9c0,0-16.1-4.9-11.8,19.5
			c1.7-2.5,3.9-3.2,3.9-3.2s-4.5,4.8,2.2,15.7c1.9,0.1,8.9-4.8,16.9,6.8c2.7,3.9,8.4,3.8,10.2,3.9L138.3,101.1z"/>
		<path class="st19" d="M138.2,101.1c3.2,1.2,5.4,1.7,7.1,1.8c6.3,0.3,4.5-5.5,12.1-5.5c5.3,0,4.5-13.9,2.3-13.9
			c0,0,16.1-4.9,11.8,19.5c-1.7-2.5-3.9-3.2-3.9-3.2s4.5,4.8-2.2,15.7c-1.9,0.1-8.9-4.8-16.9,6.8c-2.7,3.9-8.4,3.8-10.2,3.9
			L138.2,101.1z"/>
		<g>
			<path class="st22" d="M131.2,85.5c0,0-1.9-2-4.4-2.7c-3.6-0.9-4.9,0.5-4.9,0.5s0.7,7.7,8.5,4.3c1.9-0.8,2.3,0.2,2.3,0.2
				S132.1,86.5,131.2,85.5z"/>
			<path class="st16" d="M131.3,111.7c-0.1,0-0.3,0-0.4,0c-3.4-0.4-7.1-3-6.9-6.1l0.4,0c-0.2,2.9,3.3,5.4,6.5,5.7
				c2.9,0.3,6.5-3.1,6.9-3.6v-6.3c-1.1-0.2-7-1.7-7.2-4.5c-0.1-1.7,0.5-3.1,1.1-4.5c0.4-1,0.8-2,0.9-3.1c0.3-2.3-2.4-4.1-2.4-4.2
				l0.2-0.3c0.1,0.1,2.9,2,2.6,4.5c-0.1,1.1-0.5,2.1-0.9,3.2c-0.5,1.3-1.1,2.7-1,4.3c0.1,2.7,6.9,4.1,7,4.1l0.2,0v6.8l-0.1,0.1
				C138.1,108.1,134.5,111.7,131.3,111.7z"/>
			<path class="st16" d="M131.5,97.4c0,0,0.5-1.5,3-0.2c2.4,1.2,3.6,1.1,3.6,1.1v2.9C138.1,101.2,131,99.7,131.5,97.4z"/>
			<path class="st19" d="M116.2,70.9c0,0-5.4-1.3-9.5-7.6c-1.1-1.7-0.9,12.6,4.7,15.2c3.4,1.6-0.4-4.8,0.6-7.5
				C112.2,70.6,113.9,73.4,116.2,70.9z"/>
			<path class="st22" d="M134.3,110.6c0,0,0.7,1.1,1.6,2c1,0.8,2.3,1.1,2.3,0.9c0-0.4-0.1-5.7-0.1-5.7L134.3,110.6z"/>
			<path class="st5" d="M121.4,111c0,0-9.8-6.7-11.6-19.1c-0.8-5.5,4.5-9.4,4.5-9.4S107.1,93,121.4,111z"/>
			<path class="st19" d="M117.7,87.7c0,0-1.5,2.7-0.5,5.3c1.7,4.2,7,3.7,7,3.7S118,93.4,117.7,87.7z"/>
			<path class="st19" d="M138.1,66.3c0,0-10.8-5-18.1,5.9c0,0,10.5-8.3,18.1-3.1L138.1,66.3z"/>
			<path class="st19" d="M138.1,72.5c0,0-8.7-5-14.7,5.9c0,0,8.6-8.3,14.7-3.1L138.1,72.5z"/>
			<path class="st19" d="M138.1,75.3"/>
		</g>
		<g>
			<path class="st22" d="M144.8,85.5c0,0,1.9-2,4.4-2.7c3.6-0.9,4.9,0.5,4.9,0.5s-0.7,7.7-8.5,4.3c-1.9-0.8-2.3,0.2-2.3,0.2
				S144,86.5,144.8,85.5z"/>
			<path class="st16" d="M144.7,111.7c-3.2,0-6.8-3.6-6.9-3.8l-0.1-0.1V101l0.2,0c0.1,0,6.9-1.5,7-4.1c0.1-1.6-0.5-3-1-4.3
				c-0.4-1.1-0.8-2.1-0.9-3.2c-0.3-2.5,2.5-4.5,2.6-4.5l0.2,0.3c0,0-2.7,1.8-2.4,4.2c0.1,1,0.5,2,0.9,3.1c0.6,1.4,1.1,2.8,1.1,4.5
				c-0.1,2.8-6.1,4.2-7.2,4.5v6.3c0.5,0.5,4.1,3.9,6.9,3.6c3.2-0.3,6.7-2.8,6.5-5.7l0.4,0c0.2,3.2-3.5,5.8-6.9,6.1
				C145,111.7,144.9,111.7,144.7,111.7z"/>
			<path class="st16" d="M144.5,97.4c0,0-0.5-1.5-3-0.2c-2.4,1.2-3.6,1.1-3.6,1.1v2.9C138,101.2,145.1,99.7,144.5,97.4z"/>
			<path class="st19" d="M159.8,70.9c0,0,5.4-1.3,9.5-7.6c1.1-1.7,0.9,12.6-4.7,15.2c-3.4,1.6,0.4-4.8-0.6-7.5
				C163.9,70.6,162.2,73.4,159.8,70.9z"/>
			<path class="st22" d="M141.7,110.6c0,0-0.7,1.1-1.6,2c-1,0.8-2.3,1.1-2.3,0.9c0-0.4,0.1-5.7,0.1-5.7L141.7,110.6z"/>
			<path class="st5" d="M154.7,111c0,0,9.8-6.7,11.6-19.1c0.8-5.5-4.5-9.4-4.5-9.4S168.9,93,154.7,111z"/>
			<path class="st19" d="M158.4,87.7c0,0,1.5,2.7,0.5,5.3c-1.7,4.2-7,3.7-7,3.7S158.1,93.4,158.4,87.7z"/>
			<path class="st19" d="M138,66.3c0,0,10.8-5,18.1,5.9c0,0-10.5-8.3-18.1-3.1L138,66.3z"/>
			<path class="st19" d="M138,72.5c0,0,8.7-5,14.7,5.9c0,0-8.6-8.3-14.7-3.1L138,72.5z"/>
			<line class="st19" x1="138" y1="61.1" x2="137.9" y2="75.3"/>
		</g>
	</g>
	<g class="st4">
		<circle class="st19" cx="149.3" cy="85.9" r="2.4"/>
		<path class="st16" d="M149.3,88.7c-1.6,0-2.8-1.3-2.8-2.8s1.3-2.8,2.8-2.8c1.6,0,2.8,1.3,2.8,2.8S150.9,88.7,149.3,88.7z
			 M149.3,83.8c-1.1,0-2,0.9-2,2s0.9,2,2,2c1.1,0,2-0.9,2-2S150.4,83.8,149.3,83.8z"/>
	</g>
	<g class="st4">
		<circle class="st19" cx="126.7" cy="85.9" r="2.4"/>
		<path class="st16" d="M126.7,88.7c-1.6,0-2.8-1.3-2.8-2.8s1.3-2.8,2.8-2.8s2.8,1.3,2.8,2.8S128.2,88.7,126.7,88.7z M126.7,83.8
			c-1.1,0-2,0.9-2,2s0.9,2,2,2s2-0.9,2-2S127.8,83.8,126.7,83.8z"/>
	</g>
	<g class="st4">
		<path class="st23" d="M152.2,158c0,0-6.4-3.6-13.3-3.6s-13.5,0.3-13.5,0.3v-33.8c0,0,6.8-1.3,13.5-1.3s13.3,4.7,13.3,4.7V158z"/>
		<path class="st23" d="M179,154.7c0,0-6.5-0.3-13.5-0.3s-13.3,3.6-13.3,3.6v-33.8c0,0,6.7-4.7,13.3-4.7s13.5,1.3,13.5,1.3V154.7z"
			/>
	</g>
	<g class="st4">
		<path class="st5" d="M168.7,151.4c-4.4-3.8-5.7-7.9-14-10.6c-9.8-3.1-12.9,6.9-11.3,11.7c1.1,3.6,9.1,3.6,11.3,8.7
			c4.9,11.5,19.8,11.5,20.8,4.7C177.3,152.9,171.7,154.1,168.7,151.4z"/>
		
			<rect x="146.4" y="143.6" transform="matrix(0.349 -0.9371 0.9371 0.349 -41.7525 232.6507)" class="st16" width="0.4" height="5.6"/>
		
			<rect x="149.3" y="139.9" transform="matrix(0.349 -0.9371 0.9371 0.349 -36.3894 233.0138)" class="st16" width="0.4" height="5.6"/>
		
			<rect x="145.5" y="148.1" transform="matrix(0.341 -0.9401 0.9401 0.341 -45.8626 236.4577)" class="st16" width="0.4" height="5.7"/>
	</g>
</g>
<g id="horse_copy" class="st0">
	<path class="st1" d="M17.5,69.4c0,0-15.8,1.4-12,70.2c1,17.6-4.4,24.7-4.4,24.7s16.5-1.7,16.5-76.2C17.5,69.4,17.5,69.4,17.5,69.4z
		"/>
	<path class="st15" d="M177.7,124c0,0,6-5.1,9.8-5.1c2.5,0-3.2,7.2-4.6,13.6S177.7,124,177.7,124z"/>
	<g class="st4">
		<polygon class="st16" points="198.1,181.6 170.2,181.5 155,176.5 182.9,176.7 		"/>
		<path class="st23" d="M196.8,181.6l-25.9,0.1c0,0-3.3-1.6-7.2-5.9s-6-9.2-6-9.2l25.9-0.1c0,0,1.9,3.9,4.9,7.6
			C191.6,177.9,196.8,181.6,196.8,181.6z"/>
		<path class="st16" d="M171.9,172.8c-1-3.1,0-4.5,0-4.6l0.3,0.2l-0.1-0.1l0.1,0.1c0,0-0.9,1.3,0,4.3L171.9,172.8z"/>
		<path class="st16" d="M174.6,176.7c0,0-1-0.4-2.6,2.7c-0.6,1.1-0.7,2.3-0.7,2.3H197c0,0,0.1-0.9,0.7-2.3c1.2-2.9,1.8-2.7,1.8-2.7
			H174.6z"/>
		<path class="st23" d="M199.6,176.9c0,0,1-0.4,2.6,2.7c0.6,1.1,0.7,2.3,0.7,2.3h-25.7c0,0-0.1-0.9-0.7-2.3
			c-1.2-2.9-1.8-2.7-1.8-2.7H199.6z"/>
	</g>
	<g class="st4">
		<path class="st16" d="M41.6,124c0.6,8.3-0.8,15.2-1.8,16.3c-0.8,0.9-1,2.2-0.7,3.3c1.1,3.8,2.9,12.2,3.6,28.9
			c0.1,1.6,1.9,1.2,2.3,5.3h11.4c-1.1-6.5-4.2-5.3-6.1-9.8c-0.9-2.1-2.7-23.6,8.4-40.2C68,113.8,40.5,109,41.6,124z"/>
		<path class="st16" d="M113.9,127.8c0.6,8.3-0.4,11.4-1.4,12.5c-0.8,0.9-1,2.2-0.7,3.3c1.1,3.8,2.9,12.2,3.6,28.9
			c0.1,1.6,1.9,1.2,2.3,5.3h11.4c-1.1-6.5-4.2-5.3-6.1-9.8c-0.9-2.1-3-26.4,8-43.1C140.3,111,112.8,112.8,113.9,127.8z"/>
		<path class="st5" d="M93.3,130.3c0.6,8.3-0.4,11.4-1.4,12.5c-0.8,0.9-1,2.2-0.7,3.3c1.1,3.8,2.9,12.2,3.6,28.9
			c0.1,1.6,1.9,1.2,2.3,5.3h11.4c-1.1-6.5-4.2-5.3-6.1-9.8c-0.9-2.1-2.7-23.6,8.4-40.2C120.1,116.3,92.2,115.2,93.3,130.3z"/>
		<path class="st5" d="M102.6,51.5c-16.5,8.5-25.2,17-38.9,14.6c-27.1-4.8-38.4-8.1-48.3,6.1c-15.3,21.9,3.8,43.1,4.9,58.1
			c0.6,8.3-0.4,11.4-1.4,12.5c-0.8,0.9-1,2.2-0.7,3.3c1.1,3.8,2.9,12.2,3.6,28.9c0.1,1.6,1.9,1.2,2.3,5.3h11.4
			c-1.1-6.5-4.2-5.3-6.1-9.8c-0.9-2.1-2.6-29.8,8.4-46.5c9.3-14,21.4,11.8,64.7,2c0,0,9.3,1.6,22.2-1.7c0,0,15.8-2.6,15.8-24.5
			c0-10.2-0.8-6.8-3.4-26C132.7,40.3,110.8,47.3,102.6,51.5z"/>
	</g>
	<g class="st4">
		<path class="st5" d="M119.1,47.4c0,0,19.6-9.2,57.8,72.3c0,0,13.1,27.2,10.7,48.9c-0.7,6.2-17,8.7-15.8-2l-14.6-15.8
			c0,0-18.9-3.8-10.2-23.3l-34.9-35.9L119.1,47.4z"/>
		<path class="st5" d="M164.3,124.9c0,0,9.4-7.6,13.4-8.3c4-0.7-6.4,15.5-5.6,18.3C172.8,137.9,164.3,124.9,164.3,124.9z"/>
		<path class="st19" d="M116,47c0,0-9.9,9.3-1.6,28.7c0,0,2.8-7.6,7.7,4.8c4.9,12.3,6.2,11.3,6.2,11.3s-2-25.8,9.7-25.7
			c0,0-8.9,4.6-5.3,31.8c0,0,0.9-22.9,7.1-24.8c0,0-7.1,12.3-2.1,33c0,0-0.4-8.7,1.9-13.1c0,0-1.7,15.4,8.3,22.5
			c5.1,3.7,5,7.5,5,7.5s-3.1-19.9,3.9-25.9c0,0-6.6,13.6,4.1,31.1c2.8,4.6,4.6,10.2,4.6,10.2l2.6-11.7l2.2,15.7
			c0,0-2.5-22.2,5.5-25.3C176.1,117,143,41,116,47z"/>
		<path class="st19" d="M177.6,121c0,0-3.8,16.6,3.2,23.5l0.4-5.9l5.3,10.9C186.5,149.5,185.1,137.1,177.6,121z"/>
		<ellipse class="st16" cx="176.1" cy="145.1" rx="1.8" ry="1.9"/>
		<path class="st16" d="M184.9,166.2c-0.7-1.7-1.6-2.7-2.6-3.1c-1-0.4-1.7,0-1.7,0l-0.1-0.3c0,0,0.9-0.5,2,0c1.1,0.4,2,1.5,2.8,3.3
			L184.9,166.2z"/>
	</g>
</g>
<g id="dragon_copy" class="st0">
	<path class="st1" d="M93.5,57.3c0,0,10.8-4.7,21.4,3.1c1.4,1-5.3-2.4-5.3,2c0,5.8,15.1,4.1,13.4,23.6c-0.4,4.5-2-7.7-6.1-6.5
		c-7.9,2.4,12.5,10.9,3.7,37.4c-0.8,2.4,1.2-12.6-5.3-8.5c-4.5,2.8,4.1,21.2-5.7,35c-0.7,1.1,2-14.6-5.3-9.4
		C91.9,143,129.4,89.3,93.5,57.3z"/>
	<path class="st1" d="M129.2,62.8c0,0-2-11.6,7.9-20.1c1.3-1.1-3.6,4.6,0.8,5.6c5.6,1.3,7.5-13.7,26.1-7.6c4.3,1.4-8,0.2-7.7,4.4
		c0.5,8.2,14-8.3,27.5,13.6c1.3,2.2-9.8-4.5-5.8,6.5C179.6,70.2,168.6,35.2,129.2,62.8z"/>
	<path class="st6" d="M12,129.3c-1.9,0-4.2-2.6-4-2.9c0.1-0.2,2.2,2.3,4.8,0.2c0.7-0.6,2.9-3.6-1.7-19.5C8.3,97,8.7,90.7,12.4,87.6
		c4.6-4,11.4,1.2,12.6,2.4c0.9,0.9,0.7,1,0.4,1.6c-0.3,0.6-1.7,1-2,0.4c-0.8-1.6-6.8-5.1-9.8-2.4c-2.8,2.4-2.6,7.8,0,16.8
		c3.7,12.6,3.9,19.9,0.8,22.2C13.6,129.1,12.8,129.3,12,129.3z"/>
	<path class="st6" d="M67.7,54.7c0,0,69.2-13.4,44.8,60.2c-10.4,31.3-11,42.3,2.8,42.3c12.7,0,10.6-24.8,10.6-44.4
		c0-30.6-9.8-64.9,29.3-65.9c48.8-1.2,9.4,89.9,7.7,89.9c-1.6,0,12.2-67.1-5.7-67.1c-12.6,0-6.6,27.6-6.1,52.5
		c0.4,20.8,2.1,49.1-16.3,58.6c-14.2,7.3-48.4,5.7-56.6-7.7c-23.7-39,43.9-85.9-15.9-86.3C32.5,86.6,67.7,54.7,67.7,54.7z"/>
	<path class="st15" d="M40,64.9c0,0,6.5-9.7,13-11.6c4.1-1.2,10.3-5.7,12-8.7c4-7.2,8-4.8,3.5,1c0,0,9-3.4,13.5-15s18.2,6.6-21,23.7
		c-10,4.3-15.5,12.6-15.5,12.6l1-4.3C46.5,62.5,43,63,40,64.9z"/>
	<path class="st15" d="M71.4,94.1c11,0.9,23.2-1.2,26.4-12.2c0,0-5.7,5.3-8.1,3.7c9-2.8,2-9.4,9-15.1c-5.7-1.6-7.7,1.6-7.7,1.6
		c0-7.7,10.2-9,10.2-9c-3.7-6.5-19.1-11.8-23.2-9C77.9,54.3,66.5,93.7,71.4,94.1z"/>
	<path class="st6" d="M60.2,51.6c-6.3,2.6-6.9-3.7-6.9-3.7c-2.6,1.8-2.8,6.1-2.8,6.1c-1.4-0.6-1.6-3.3-1.6-3.3
		c-7.1,5.1-3.7,10.6-3.7,10.6c-6.3,2.6-6.5-4.1-6.5-4.1c-3.9,3.1-2,7.3-2,7.3c-2.2-0.4-1.2-4.1-1.2-4.1c-4.1,2.8-1.2,8.1-1.2,8.1
		c-2.4,8.1,9.3,4.8,0.4,14.2c-11.8,12.6-20.2,9.7-17.1,17.9c2,5.3,8.7,5.5,13.2,5.1c4.5-0.4,9.8-11.8,14.6-6.9
		c2.6,2.6-17.5,7.1-17.5,14.6c0,4.1,11.1,4.2,12.2,0c1.2-4.5,16.1-14.4,27.1-14.9s25.8-6.3,29.1-17.3c0,0-5.7,5.3-8.1,3.7
		c9-2.8,2-9.4,9-15.1c-5.7-1.6-7.7,1.6-7.7,1.6c0-7.7,10.2-9,10.2-9c-3.7-6.5-19.1-11.8-23.2-9c0,0,5.1-1,4.9-8.1
		C70.5,55.5,69.3,41.2,60.2,51.6z"/>
	<path class="st1" d="M64,115.7c-6.9,0-8-5.1-9.5-11.5c-0.7-2.9-1.4-6.2-2.8-9.8c-1.1-2.9-2.7-4.6-4.7-5c-4-0.8-9.1,3.3-10.8,5
		c-0.5,0.5-1.2,0.5-1.7,0c-0.5-0.5-0.5-1.2,0-1.7c0.3-0.3,6.9-6.9,13-5.6c2.9,0.6,5.1,2.8,6.5,6.5c1.5,3.7,2.2,7.1,2.9,10.1
		c1.5,6.7,2.4,9.6,7.1,9.6c3.5,0,5.8-2.1,7.3-5.3c6.1-12.2,14.7-4.9,14.6-4.6c0,0.4-8.1-5.6-12.6,6C72,112.8,68.8,115.7,64,115.7z"
		/>
	<circle class="st1" cx="53.5" cy="79.5" r="1.6"/>
	<path class="st15" d="M29.3,110.1c0,0,1.8,4.5,8.7,1.1c3.3-1.6,0.5-5.1,11-9.8c3.7-1.6-0.4-10.3-5.3-6.1c-5.3,4.5-6.1,1.6-8.1,7.3
		c0,0.1,5.2-6.5,8.9-4.4C49,101.5,36.8,102.7,29.3,110.1z"/>
	<path class="st1" d="M59.6,67.4c0,0,6.5-9.7,13-11.6c4.1-1.2,10.3-5.7,12-8.7c4-7.2,8-4.8,3.5,1c0,0,9-3.4,13.5-15
		c4.5-11.6,18.2,6.6-21,23.7c-10,4.3-15.5,12.6-15.5,12.6l0.6-4.5C65.7,64.8,62.6,65.5,59.6,67.4z"/>
	<path class="st15" d="M77,94.5l-0.3-0.3c2.7-2.7,2.7-5.6,2.7-7.9c0-0.8,0-1.5,0.1-2.1c0.6-3.5,3.2-4.5,4.2-4.9
		c-4.3-2.1-6.6-0.7-7.5,0.1c-0.1,0.2-0.3,0.3-0.4,0.5l-0.3-0.3c0,0,0.1-0.2,0.4-0.5c5.1-5.9,2.7-12.3,2.1-13.7
		c-4.9,5.4-12.9,3.9-13,3.9l0.1-0.4c0.1,0,8.1,1.5,12.8-4l0.2-0.2l0.1,0.3c0,0.1,3.5,6.8-1.2,13.4c1.4-0.7,3.7-1.1,7.2,0.8l0.1,0.1
		l0,0.1c0,0.2-0.1,0.2-0.4,0.3c-0.9,0.3-3.5,1.2-4.1,4.6c-0.1,0.6-0.1,1.3-0.1,2.1C79.8,88.7,79.8,91.7,77,94.5z"/>
	<path class="st1" d="M48.6,63.6l-0.4-0.1c0-0.1,1.7-6.4,8.7-6.4h0.6L57,57.5c0,0-2.4,1.7-2.7,3.8c1.3-1.1,5.6-4.1,12-1.7l-0.1,0.4
		c-7.5-2.8-11.9,1.9-12,2l-0.4,0.4v-0.5c0-1.9,1.6-3.5,2.5-4.3C50.1,57.9,48.7,63.3,48.6,63.6z"/>
	<path class="st15" d="M21.3,100.6c0,0-4-0.3-2.6-3.5C19.3,95.8,22.1,97.8,21.3,100.6z"/>
	<path class="st15" d="M27.7,101.2c0,0,3.8,1.2,3.7-2.3C31.3,97.4,27.9,98.3,27.7,101.2z"/>
	<path class="st15" d="M24.6,102.3c-0.3,0-0.6,0-0.9-0.1c-2-0.4-3-2.2-3-2.3l0.4-0.2c0,0,0.9,1.7,2.7,2.1c1.3,0.3,2.7-0.2,4.3-1.3
		l0.2,0.3C27,101.8,25.8,102.3,24.6,102.3z"/>
	<path class="st1" d="M35.6,97.3c-0.3-1-0.9-1.7-1.7-2c-1.4-0.7-3.1-0.1-3.2-0.1l-0.1,0.1l-0.1-0.1c-0.1-0.2-3.6-4.3-8.1-1l-0.2-0.3
		c4.4-3.2,7.9,0.3,8.5,0.9c0.5-0.1,2-0.5,3.3,0.1c0.9,0.4,1.5,1.2,1.9,2.3L35.6,97.3z"/>
	<polygon class="st15" points="29.2,110.2 29.6,107 31.3,111 	"/>
	<polygon class="st6" points="19.1,103.4 20.9,107.2 21.5,104.9 	"/>
	<polygon class="st6" points="27.8,105.5 27.8,108.8 30.7,105.1 	"/>
	<path class="st3" d="M50.2,161.9c0,0-7-4-14.8-4s-15,0.3-15,0.3v-37.4c0,0,7.6-1.5,15-1.5s14.8,5.1,14.8,5.1V161.9z"/>
	<path class="st3" d="M79.9,158.2c0,0-7.2-0.3-15-0.3s-14.8,4-14.8,4v-37.4c0,0,7.4-5.1,14.8-5.1s15,1.5,15,1.5V158.2z"/>
	<path class="st15" d="M164.1,124.7c0,0-8.9,59.3,7,59.3c15.9,0,0,3.3,0-17.9c0,0,1.2,6.5,7.7,6.5c0,0-6.5-3.3-5.5-15.1
		c0-0.4,1.4,1.6,3,0c0,0-3.1-2.1-3.3-12.2C172.8,129.5,164.1,124.7,164.1,124.7z"/>
	<g class="st4">
		<path class="st16" d="M117.4,183.9c0,0-2.6,0.2-2.4,2.8c0,0,0.7-1.7,3.5-1.6C119,185.1,117.4,183.9,117.4,183.9z"/>
		<path class="st16" d="M114.2,176.5c0,0-2.9-0.6-3.5,2.3c0,0,1.2-1.7,4.4-0.7C115.7,178.3,114.2,176.5,114.2,176.5z"/>
		<path class="st16" d="M115.1,169.5c0,0-2.4-1.7-4.1,0.7c0,0,1.8-1,4.2,1.2C115.7,171.8,115.1,169.5,115.1,169.5z"/>
		<path class="st16" d="M130.4,185.4c0,0-1.2,2.4-3.5,1.1c0,0,1.8,0.1,2.8-2.7C130,183.3,130.4,185.4,130.4,185.4z"/>
		<path class="st16" d="M134.1,172.3c-1.4-1.9-2.8-1.5-8-0.6c-5.2,1-8.9-2.5-10.2-3.1c-1.3-0.6-2.8,1.6-1.6,3.5c1.3,2,5.5,3.2,8.8,3
			c0,0-4.4,2.8-8.1,0.9c-2.1-1-2.2,2.6-0.2,3.5c1.3,0.6,5.1,1.1,8.7-0.8s-3.3,4.6-5.4,4.5c-1.8-0.1-0.7,3.2,2.1,2.5
			c2.5-0.6,4.9-2.2,8.9-7.2c1-1.3,2.4,1.4-0.2,5c-1.4,1.9,1.2,3.4,2.2,1.9c1.1-1.5,4.3-4.8,3.1-9.7
			C134,174.7,135.3,173.7,134.1,172.3z"/>
	</g>
	<path class="st15" d="M147,173.7c-1.8-3.3-5.9-7.3-14.1-12.9s2.3-18.8,15.5-7c8.1,7.3,5.3,12,9.7,21
		C159.5,177.4,152.7,184.2,147,173.7z"/>
	<path class="st15" d="M134,175.9c5.3,4.5,27.8,11.1,24.9,1.5c-2.2-7.2-8.2,0.8-18.5-3.8C128.9,168.5,132.5,174.6,134,175.9z"/>
	<g class="st4">
		<path class="st16" d="M70.4,135.8c0,0-1.2-2.3-3.5-1.2c0,0,1.8-0.1,2.8,2.6C70,137.8,70.4,135.8,70.4,135.8z"/>
		<path class="st16" d="M76,129.9c0,0-0.6-2.9-3.5-2.3c0,0,2,0.5,2.3,3.8C74.9,132,76,129.9,76,129.9z"/>
		<path class="st16" d="M82.7,128.1c0,0,0.7-2.9-2.2-3.6c0,0,1.6,1.3,0.6,4.4C80.9,129.5,82.7,128.1,82.7,128.1z"/>
		<path class="st16" d="M87.6,146.6c1.2-2,0.3-3.2-2.6-7.6c-2.9-4.4-1.2-9.1-1.2-10.6c0-1.5-2.6-1.9-3.8-0.1c-1.4,2-0.8,6.3,0.6,9.3
			c0,0-4.3-2.9-4-7.1c0.1-2.4-3.3-1-3.3,1.2c0,1.5,1,5.1,4.1,7.7s-5.5-1.3-6.2-3.2c-0.6-1.7-3.2,0.7-1.5,2.9c1.6,2,3.9,3.6,10.1,5.3
			c1.6,0.4,0.8,1.8,0,1.8v3.7c1.8,0.4,2.8-0.4,4.6-1.8C85.3,147.5,86.8,148.3,87.6,146.6z"/>
	</g>
	<g class="st4">
		<path class="st16" d="M30,135.8c0,0,1.2-2.3,3.5-1.2c0,0-1.8-0.1-2.8,2.6C30.4,137.8,30,135.8,30,135.8z"/>
		<path class="st16" d="M24.4,129.9c0,0,0.6-2.9,3.5-2.3c0,0-2,0.5-2.3,3.8C25.5,132,24.4,129.9,24.4,129.9z"/>
		<path class="st16" d="M17.7,128.1c0,0-0.7-2.9,2.2-3.6c0,0-1.6,1.3-0.6,4.4C19.5,129.5,17.7,128.1,17.7,128.1z"/>
		<path class="st16" d="M12.8,146.6c-1.2-2-0.3-3.2,2.6-7.6c2.9-4.4,1.2-9.1,1.2-10.6c0-1.5,2.6-1.9,3.8-0.1c1.4,2,0.8,6.3-0.6,9.3
			c0,0,4.3-2.9,4-7.1c-0.1-2.4,3.3-1,3.3,1.2c0,1.5-1,5.1-4.1,7.7s5.5-1.3,6.2-3.2c0.6-1.7,3.2,0.7,1.5,2.9c-1.6,2-3.9,3.6-10.1,5.3
			c-1.6,0.4-0.8,1.8,0,1.8v3.7c-1.8,0.4-2.8-0.4-4.6-1.8C15.1,147.5,13.6,148.3,12.8,146.6z"/>
	</g>
	<path class="st15" d="M93.9,155.3c1.6-3.4,2.3-9.1,1.8-19.1c-0.5-10,16.4-9.5,15,8.2c-0.9,10.9-6.4,11.4-10.9,20.4
		C98.5,167.5,89,166.2,93.9,155.3z"/>
	<path class="st15" d="M84.4,146.2c-0.4,6.9,7.9,28.9,13.8,20.8c4.5-6.1-5.6-6.1-8.1-17.1C87.2,137.7,84.5,144.2,84.4,146.2z"/>
</g>
<g id="Layer_13">
</g>
</svg>
