<?xml version="1.0" encoding="UTF-8" standalone="no"?>
<!DOCTYPE svg PUBLIC "-//W3C//DTD SVG 1.1//EN" "http://www.w3.org/Graphics/SVG/1.1/DTD/svg11.dtd">
<svg width="100%" height="100%" viewBox="0 0 120 120" version="1.1" xmlns="http://www.w3.org/2000/svg" xmlns:xlink="http://www.w3.org/1999/xlink" xml:space="preserve" xmlns:serif="http://www.serif.com/" style="fill-rule:evenodd;clip-rule:evenodd;stroke-linejoin:round;stroke-miterlimit:1.41421;">
    <g transform="matrix(1,0,0,1,-75.3693,-216.017)">
        <g transform="matrix(0.703398,0,0,0.703398,-51.668,131.345)">
            <circle cx="265.906" cy="205.676" r="85.3" style="fill:rgb(223,229,224);"/>
        </g>
        <path d="M134.984,236.811C139.525,236.811 143.211,240.497 143.211,245.038C143.211,249.579 139.525,253.265 134.984,253.265C130.443,253.265 126.757,249.579 126.757,245.038C126.757,240.497 130.443,236.811 134.984,236.811ZM134.984,237.733C139.016,237.733 142.289,241.006 142.289,245.038C142.289,249.07 139.016,252.343 134.984,252.343C130.952,252.343 127.679,249.07 127.679,245.038C127.679,241.006 130.952,237.733 134.984,237.733Z" style="fill:rgb(120,23,53);"/>
        <g transform="matrix(0.665659,0,0,0.637863,-225.545,136.862)">
            <path d="M574.896,180.861L509.486,180.861L484.879,211.977L542.191,271.131L599.503,211.977L574.896,180.861Z" style="fill:rgb(255,114,48);"/>
        </g>
        <g transform="matrix(0.579327,0,0,0.575577,-183.684,148.127)">
            <path d="M550.728,180.861L527.656,215.344L573.807,215.344L550.728,180.861Z" style="fill:rgb(255,86,6);"/>
        </g>
        <g transform="matrix(0.579327,0,0,0.575577,-183.684,148.127)">
            <path d="M550.728,180.861L513.153,180.861L527.656,215.344L550.728,180.861Z" style="fill:rgb(255,143,91);"/>
        </g>
        <g transform="matrix(-0.579327,0,0,0.575577,454.418,148.127)">
            <path d="M550.728,180.861L513.153,180.861L527.656,215.344L550.728,180.861Z" style="fill:rgb(255,143,91);"/>
        </g>
        <g transform="matrix(0.579327,0,0,0.575577,-183.684,148.127)">
            <path d="M513.153,180.861L484.879,215.344L527.656,215.344L513.153,180.861Z" style="fill:rgb(255,114,48);"/>
        </g>
        <g transform="matrix(-0.579327,0,0,0.575577,454.423,148.127)">
            <path d="M513.153,180.861L484.879,215.344L527.656,215.344L513.153,180.861Z" style="fill:rgb(255,114,48);"/>
        </g>
        <g transform="matrix(0.665659,0,0,0.637863,-225.545,136.862)">
            <path d="M484.879,211.977L542.191,271.131L522.108,211.977L484.879,211.977Z" style="fill:rgb(255,86,6);"/>
        </g>
        <g transform="matrix(0.665659,0,0,0.637863,-225.545,136.862)">
            <path d="M562.274,211.977L542.187,271.121L599.503,211.977L562.274,211.977Z" style="fill:rgb(255,86,6);"/>
        </g>
        <g transform="matrix(0.628897,0,0,0.628897,97.5327,93.47)">
            <path d="M51.484,255.556L54.824,243.064C54.824,243.064 62.336,242.71 59.483,257.657L50.921,257.657L51.484,255.556Z" style="fill:rgb(195,95,158);"/>
        </g>
        <g transform="matrix(-0.628897,0,0,0.628897,172.428,93.47)">
            <path d="M51.484,255.556L54.824,243.064C54.824,243.064 62.336,242.71 59.483,257.657L50.921,257.657L51.484,255.556Z" style="fill:rgb(195,95,158);"/>
        </g>
        <g transform="matrix(0.628897,0,0,0.628897,98.2606,93.7526)">
            <path d="M88.071,279.801C88.071,279.155 87.548,278.632 86.902,278.632C79.344,278.632 37.443,278.632 29.884,278.632C29.238,278.632 28.715,279.155 28.715,279.801C28.715,279.801 28.715,279.801 28.715,279.802C28.715,280.447 29.238,280.97 29.884,280.97C37.443,280.97 79.344,280.97 86.902,280.97C87.548,280.97 88.071,280.447 88.071,279.802C88.071,279.801 88.071,279.801 88.071,279.801Z" style="fill:rgb(120,23,53);"/>
        </g>
        <g transform="matrix(0.506943,0,0,0.485347,118.571,130.204)">
            <rect x="30.329" y="214.06" width="4.094" height="38.615" style="fill:rgb(220,201,223);"/>
        </g>
        <g transform="matrix(0.628897,0,0,0.312559,97.5327,173.634)">
            <path d="M61.2,247.273C59.982,246.273 58.882,246.273 57.901,247.273L57.901,253.411L61.2,253.411L61.2,247.273Z" style="fill:rgb(219,159,197);"/>
        </g>
        <g transform="matrix(0.506943,0,0,0.506943,119.609,125.494)">
            <path d="M34.501,198.915C34.501,197.787 34.053,196.706 33.255,195.908C32.458,195.11 31.376,194.662 30.248,194.662C30.247,194.662 30.246,194.662 30.244,194.662C29.116,194.662 28.035,195.11 27.237,195.908C26.44,196.706 25.991,197.787 25.991,198.915C25.991,204.128 25.991,212.278 25.991,212.278L28.283,215.705L32.376,215.705L34.501,212.367C34.501,212.367 34.501,204.154 34.501,198.915Z" style="fill:rgb(220,201,223);"/>
        </g>
        <g transform="matrix(0.455364,0.122015,-0.132062,0.492863,156.046,122.605)">
            <path d="M29.817,262.3L18.691,262.35L18.691,384.588L23.856,396.707L29.817,395.45L29.817,262.3Z" style="fill:rgb(195,95,158);"/>
        </g>
        <g transform="matrix(-0.455364,0.122015,0.132062,0.492863,113.921,122.605)">
            <path d="M29.817,262.3L18.691,262.35L18.691,384.588L23.856,396.707L29.817,395.45L29.817,262.3Z" style="fill:rgb(195,95,158);"/>
        </g>
        <g transform="matrix(0.806771,0,0,0.806771,91.3115,30.1258)">
            <circle cx="30.095" cy="348.981" r="3.181" style="fill:rgb(223,229,224);"/>
        </g>
        <g transform="matrix(0.39321,0,0,0.39321,103.758,174.451)">
            <circle cx="30.095" cy="348.981" r="3.181" style="fill:rgb(172,188,175);"/>
        </g>
        <g transform="matrix(0.841872,0,0,0.841872,129.699,17.8766)">
            <circle cx="30.095" cy="348.981" r="3.181" style="fill:rgb(120,23,53);"/>
        </g>
        <g transform="matrix(0.390837,0,0,0.390837,143.273,175.279)">
            <circle cx="30.095" cy="348.981" r="3.181" style="fill:rgb(223,229,224);"/>
        </g>
        <g transform="matrix(0.628897,0,0,0.628897,97.5327,93.1414)">
            <rect x="58.098" y="273.831" width="2.867" height="13.884" style="fill:rgb(220,201,223);"/>
        </g>
        <g transform="matrix(0.517404,0,0,0.517404,101.055,133.821)">
            <path d="M28.683,361.915L28.683,371.153L31.59,362.024L28.683,361.915Z" style="fill:rgb(120,23,53);"/>
        </g>
        <g transform="matrix(-0.517404,0,0,0.517404,169.385,133.821)">
            <path d="M28.683,361.915L28.683,371.153L31.59,362.024L28.683,361.915Z" style="fill:rgb(120,23,53);"/>
        </g>
        <g transform="matrix(0.889523,0,0,0.889523,108.037,29.2499)">
            <circle cx="30.246" cy="252.675" r="2.885" style="fill:rgb(220,201,223);"/>
        </g>
        <g transform="matrix(0.628897,0,0,0.628897,97.5327,93.47)">
            <path d="M56.122,222.009L62.865,222.009L61.2,224.862L57.901,224.862L56.122,222.009Z" style="fill:rgb(219,159,197);"/>
        </g>
    </g>
</svg>
