<?xml version="1.0" encoding="utf-8"?>
<!-- Generator: Adobe Illustrator 24.0.0, SVG Export Plug-In . SVG Version: 6.00 Build 0)  -->
<svg version="1.1" id="Layer_1" xmlns="http://www.w3.org/2000/svg" xmlns:xlink="http://www.w3.org/1999/xlink" x="0px" y="0px"
	 viewBox="0 0 508 508.1" style="enable-background:new 0 0 508 508.1;" xml:space="preserve">
<style type="text/css">
	.st0{fill:#8E5E3D;}
	.st1{fill:#664229;}
	.st2{fill:#D8A568;}
	.st3{fill:#D19E61;}
	.st4{fill:#E5B97F;}
	.st5{fill:#C68D4E;}
	.st6{fill:#6E7027;}
	.st7{fill:#936A4E;}
	.st8{fill:#A57D62;}
	.st9{fill:#AA7448;}
	.st10{fill:#211309;}
	.st11{fill:#D1B486;}
	.st12{fill:#FFF3E1;}
	.st13{fill:#A8A160;}
	.st14{fill:#7F4D2A;}
	.st15{fill:#4F3A2C;}
	.st16{fill:#FFDAC5;}
	.st17{fill:#E5BBA3;}
	.st18{fill:#FFDDCC;}
	.st19{fill:#E8BC9E;}
	.st20{fill:#663718;}
	.st21{fill:#FFFFFF;}
	.st22{opacity:0.5;fill:#5B463B;enable-background:new    ;}
	.st23{clip-path:url(#SVGID_2_);}
	.st24{fill:#492B16;}
	.st25{fill:#F7BB9A;}
	.st26{fill:#3A200E;}
	.st27{clip-path:url(#SVGID_4_);}
	.st28{fill:#D68A61;}
	.st29{fill:#F9E0CF;}
	.st30{fill:#472B3C;}
	.st31{fill:#2D1C27;}
	.st32{fill:#21151D;}
	.st33{fill:#5E3851;}
	.st34{fill:#E29E86;}
	.st35{fill:#563526;}
	.st36{fill:#311A08;}
	.st37{fill:#4C3629;}
	.st38{fill:#E0AB85;}
	.st39{fill:#C1855D;}
	.st40{fill:#3A231C;}
	.st41{fill:#7A4330;}
	.st42{fill:#9B6E50;}
	.st43{fill:#1F1110;}
	.st44{fill:#281C1C;}
	.st45{fill:#4B392D;}
	.st46{fill:none;}
	.st47{fill:#3F261B;}
	.st48{fill:#AA7544;}
	.st49{fill:#19603E;}
	.st50{fill:#FCCEB9;}
</style>
<title>avatarAsset 80</title>
<g id="Layer_2_1_">
	<g id="Gwyn">
		<path class="st0" d="M217.5,94.1c0,0,69.6-39.5,118,37.5c29.5,46,11.3,91.1,32.5,135.3c15.7,32.6,35,101.9-11.6,113.8l-131.6-4
			L217.5,94.1z"/>
		<path class="st1" d="M323.1,225.1c0,0,35.7,72.8,9.6,133.8l-47.8-22l-1.3-84.2L323.1,225.1z"/>
		<path class="st2" d="M361.7,357.5c-1.6-9.2-7.6-12.5-7.6-12.5l-7.5-2.7l-7.9-1.1c0,0-6.8,0.1-12.6,7.5c-3.2,0.3-6,2.3-7.2,5.3
			l3.2,2.4c0,0,6.6-4.3,6.8-5.1s4.5-0.8,5.9-3.2c-1,2.8-1.4,5.8-1.1,8.7l8.7,2.2l8.7,2.2c1.7-2.4,2.8-5.3,3.1-8.2
			c0.2,2.8,4,4.8,3.8,5.6s3.6,7.7,3.6,7.7l3.9-0.6C365.8,362.4,364.4,359.3,361.7,357.5z"/>

			<rect x="372.9" y="311.9" transform="matrix(0.2412 -0.9705 0.9705 0.2412 -14.2557 606.6671)" class="st3" width="15.8" height="1"/>
		<path class="st4" d="M389.2,292.2l-3.7,3.3c-0.1,0.1-0.4,0.1-0.5,0c-0.1-0.1-0.1-0.2-0.1-0.3l1-7.6l-1.8-2l-5.2,6.7
			c-0.2,0.2-0.5,0.3-0.7,0.1c-0.1-0.1-0.2-0.2-0.2-0.3l-1.4-7.8l-5.3,4.3c-0.5,0.4-1.3,0.4-1.7-0.1l-1.6-1.7l-3.2,2.5
			c-0.4,0.3-0.9,0.2-1.2-0.1c-0.1-0.1-0.1-0.2-0.1-0.3l-2.2-6.4l-6.6,1.8l-1.9,4.2c-0.2,0.3-0.5,0.5-0.9,0.3
			c-0.1-0.1-0.2-0.2-0.3-0.3l-5-8.9l-9.3,5.2c-0.3,0.2-0.7,0.1-0.8-0.2c0-0.1-0.1-0.1-0.1-0.2l-0.7-3.7l-2.4,4
			c-0.1,0.1-0.2,0.1-0.3,0.1c-0.1,0-0.1-0.1-0.1-0.1l-1.1-4.1c0,0-1.2,5.8-2.7,13.1h0l-4,15.9c-3.8,15.3,5.5,30.7,20.7,34.5
			c0,0,0,0,0,0l0,0c15.3,3.8,30.7-5.5,34.5-20.7l3.9-15.6C387,299.3,389.2,292.2,389.2,292.2z"/>
		<path class="st5" d="M350.4,354.7c-3-2.9-4.7-7-4.6-11.2l1,0.1c0,3.9,1.5,7.7,4.3,10.5L350.4,354.7z"/>
		<path class="st6" d="M363.2,289.7l-3.7-4.1l-0.6-1.9c0,0,0-3.5-3.2-4c-0.5,1.5-0.2,3.1,0.8,4.3l2.5,4.1l2.3,7.1l5-1.4l1.6-6.3
			l0.2-0.8c0,0,6-0.4,4.9-6.9c0,0-6.1,0.2-5.9,5.6c-1.1,0.3-2.1,1-2.7,2.1L363.2,289.7z"/>
		<path class="st6" d="M345.5,281.2c1.3-1.3,2-2.9,2-4.7c0,0-4.9-1-5.3,6.5L345.5,281.2z"/>

			<rect x="317.1" y="314.8" transform="matrix(0.2412 -0.9705 0.9705 0.2412 -52.5841 563.2977)" class="st3" width="33.7" height="1"/>

			<rect x="331.4" y="303.3" transform="matrix(0.2412 -0.9705 0.9705 0.2412 -34.6709 563.2152)" class="st3" width="22.9" height="1"/>

			<rect x="341.6" y="306" transform="matrix(0.2412 -0.9705 0.9705 0.2412 -32.7069 571.0844)" class="st3" width="14.4" height="1"/>

			<rect x="336.5" y="326.7" transform="matrix(0.2412 -0.9705 0.9705 0.2412 -56.7774 581.8202)" class="st3" width="14.4" height="1"/>

			<rect x="338.5" y="338" transform="matrix(0.2412 -0.9705 0.9705 0.2412 -69.8318 587.6425)" class="st3" width="4.7" height="1"/>

			<rect x="339.8" y="323.1" transform="matrix(0.2412 -0.9705 0.9705 0.2412 -47.5134 586.4336)" class="st3" width="22.9" height="1"/>

			<rect x="347.9" y="341.5" transform="matrix(0.2416 -0.9704 0.9704 0.2416 -65.8307 599.8159)" class="st3" width="5.8" height="1"/>

			<rect x="352.6" y="300.9" transform="matrix(0.2416 -0.9704 0.9704 0.2416 -21.8471 574.7493)" class="st3" width="8.4" height="1"/>

			<rect x="346.3" y="323.7" transform="matrix(0.2412 -0.9705 0.9705 0.2412 -43.1098 593.2148)" class="st3" width="22.9" height="1"/>

			<rect x="355.6" y="311.3" transform="matrix(0.2412 -0.9705 0.9705 0.2412 -24.0945 592.8074)" class="st3" width="22.9" height="1"/>

			<rect x="357.6" y="321.6" transform="matrix(0.2412 -0.9705 0.9705 0.2412 -30.2641 605.4045)" class="st3" width="28.8" height="1"/>

			<rect x="373.6" y="327.6" transform="matrix(0.2412 -0.9705 0.9705 0.2412 -32.346 614.7355)" class="st3" width="6.7" height="1"/>

			<rect x="351.3" y="330.5" transform="matrix(0.2412 -0.9705 0.9705 0.2412 -45.9226 603.2151)" class="st3" width="22.9" height="1"/>
		<path class="st7" d="M337.9,285.2l-0.9-3.5l-2.5-1.9c-0.5-0.4-1.1-0.5-1.8-0.3l-0.8,0.2l-0.2,1l1.3,5.3L337.9,285.2z"/>
		<polygon class="st7" points="353.6,288 349.3,286.5 352.2,290.4 		"/>
		<polygon class="st8" points="384.1,285.6 376.3,286 378.2,293.1 		"/>
		<polygon class="st8" points="389.2,292.2 384.5,291.5 384.3,297.5 		"/>
		<path class="st6" d="M376.6,289c3.1-3,4.3-6.2,2.3-9.9c0,0-4.9,1-4.2,7.5L376.6,289z"/>
		<polygon class="st8" points="367.9,286.8 364.5,287.1 361.8,289.1 363.6,291 		"/>
		<circle class="st9" cx="337.5" cy="314.2" r="8.4"/>
		<circle class="st9" cx="367.3" cy="321.7" r="8.4"/>
		<circle class="st10" cx="337.5" cy="314.2" r="6.6"/>
		<path class="st11" d="M337.5,321.4c-0.6,0-1.2-0.1-1.7-0.2c-3.8-1-6.1-4.8-5.1-8.6c1-3.8,4.8-6.1,8.6-5.1c3.8,1,6.1,4.8,5.1,8.6
			C343.6,319.2,340.8,321.4,337.5,321.4z M337.5,308.1c-3.4,0-6.1,2.7-6.1,6.1s2.7,6.1,6.1,6.1s6.1-2.7,6.1-6.1c0-2.8-1.9-5.3-4.7-6
			C338.5,308.2,338,308.1,337.5,308.1L337.5,308.1z"/>
		<circle class="st10" cx="367.3" cy="321.7" r="6.6"/>
		<path class="st11" d="M367.3,328.8c-3.9,0-7.1-3.2-7.1-7.1c0-0.6,0.1-1.2,0.2-1.7v0c1-3.8,4.8-6.1,8.6-5.2c3.8,1,6.1,4.8,5.2,8.6
			C373.4,326.6,370.6,328.8,367.3,328.8L367.3,328.8z M361.3,320.2c0-2.8,2.3-5.1,5.1-5.1c2.8,0,5.1,2.3,5.1,5.1
			c0,2.8-2.3,5.1-5.1,5.1C363.6,325.2,361.3,323,361.3,320.2L361.3,320.2z"/>
		<path class="st12" d="M340.2,311.3l0.4,0.1c0.5,0.1,0.7,0.6,0.6,1l-0.1,0.4c-0.1,0.5-0.6,0.7-1,0.6l-0.4-0.1
			c-0.5-0.1-0.7-0.6-0.6-1l0.1-0.4C339.3,311.5,339.8,311.2,340.2,311.3z"/>
		<circle class="st9" cx="367.3" cy="321.7" r="8.4"/>
		<circle class="st10" cx="367.3" cy="321.7" r="6.6"/>
		<path class="st11" d="M367.3,328.8c-0.6,0-1.2-0.1-1.7-0.2c-3.8-1-6.1-4.8-5.1-8.6c1-3.8,4.8-6.1,8.6-5.1c3.8,1,6.1,4.8,5.1,8.6
			C373.4,326.6,370.5,328.8,367.3,328.8z M367.3,315.5c-3.4,0-6.1,2.7-6.1,6.1s2.7,6.1,6.1,6.1s6.1-2.7,6.1-6.1c0-2.8-1.9-5.3-4.7-6
			C368.3,315.6,367.8,315.5,367.3,315.5L367.3,315.5z"/>
		<path class="st12" d="M370,318.7l0.4,0.1c0.5,0.1,0.7,0.6,0.6,1l-0.1,0.4c-0.1,0.5-0.6,0.7-1,0.6l-0.4-0.1c-0.5-0.1-0.7-0.6-0.6-1
			l0.1-0.4C369.1,318.9,369.6,318.6,370,318.7z"/>
		<path class="st12" d="M369.9,318.7l0.4,0.1c0.5,0.1,0.7,0.6,0.6,1l-0.1,0.4c-0.1,0.5-0.6,0.7-1,0.6l-0.4-0.1
			c-0.5-0.1-0.7-0.6-0.6-1l0.1-0.4C369,318.9,369.5,318.6,369.9,318.7z"/>
		<path class="st13" d="M331.9,288.6l0.8,2.8l2.5-2.9l0.5,2.5l1.1-1.6l0.9,4.2l2.5-3.9l1.3,3.2l1.9-2.4l1.1,1.7l1.7-1.7l1.2,3.5
			l2-2.7l0.8,3.6l2.3-2.8l1.1,2.1l1.5-1.5l1.2,3.7l2.1-2.9l0.6,3.4l2.2-2.7l1.3,2.9l1.7-2.2l0.7,3.3l2.4-2.6l0.7,4.3l2.1-3.6
			l0.9,3.8l3-2.8l2,4.7l2.3-3.6l-0.1,2.6l2.2-1.5l-0.1,3.6l2.4-3l0.9,3.8l2.7-3.5c1.6-4.9,2.7-8.4,2.7-8.4l-3.7,3.3
			c-0.1,0.1-0.4,0.1-0.5,0c-0.1-0.1-0.1-0.2-0.1-0.3l1-7.6l-1.8-2l-5.2,6.7c-0.2,0.2-0.5,0.3-0.7,0.1c-0.1-0.1-0.2-0.2-0.2-0.3
			l-1.4-7.8l-5.3,4.3c-0.5,0.4-1.3,0.4-1.7-0.1l-1.6-1.7l-3.2,2.5c-0.4,0.3-0.9,0.2-1.2-0.1c-0.1-0.1-0.1-0.2-0.1-0.3l-2.2-6.4
			l-6.6,1.8l-1.9,4.2c-0.2,0.3-0.5,0.5-0.9,0.3c-0.1-0.1-0.2-0.2-0.3-0.3l-5-8.9l-9.3,5.2c-0.3,0.2-0.7,0.1-0.8-0.2
			c0-0.1-0.1-0.1-0.1-0.2l-0.7-3.7l-2.4,4c-0.1,0.1-0.2,0.1-0.3,0.1c-0.1,0-0.1-0.1-0.1-0.1l-1.1-4.1c0,0-0.7,3.5-1.7,8.4
			L331.9,288.6z"/>
		<path class="st13" d="M328.9,294.8l1.1-5.7C329.7,290.8,329.3,292.7,328.9,294.8z"/>
		<path class="st13" d="M384,308.5c0.9-2.8,1.8-5.5,2.5-7.9L384,308.5z"/>

			<rect x="321.7" y="301.2" transform="matrix(0.2412 -0.9705 0.9705 0.2412 -41.7291 550.0742)" class="st3" width="18.3" height="1"/>
		<path class="st5" d="M358.2,356.9c-0.3-3.2-1.7-6.3-3.9-8.7l0.7-0.7c2.4,2.5,3.9,5.8,4.2,9.3L358.2,356.9z"/>
		<path class="st5" d="M324.5,353.4c-0.3,0-0.5-0.2-0.5-0.5c0-0.3,0.2-0.5,0.5-0.5c0.9-0.1,2.5-1.4,3.3-2.3c0.1-0.1,0.2-0.1,0.3-0.1
			c1-0.4,2-1,2.7-1.7c0.2-0.2,0.5-0.2,0.7,0s0.2,0.5,0,0.7c-0.9,0.9-1.9,1.6-3.1,2C327.9,351.5,326,353.3,324.5,353.4L324.5,353.4z"
			/>
		<path class="st5" d="M341.5,356.4c-2.5-5.1-0.7-11.7-0.6-12l1,0.3c0,0.1-1.8,6.5,0.5,11.3L341.5,356.4z"/>
		<path class="st5" d="M353.7,354.3c-1.8-2.8-2.5-6.2-2.1-9.5l1,0.2c-0.4,3.1,0.3,6.2,1.9,8.8L353.7,354.3z"/>
		<path class="st5" d="M339.4,357.7c-0.2,0-0.3-0.1-0.4-0.2c-5.2-7.6-3.4-14.6-3.3-14.9c0.1-0.3,0.3-0.4,0.6-0.4s0.4,0.3,0.4,0.6
			l0,0c-0.9,4.9,0.3,10,3.2,14.1c0.2,0.2,0.1,0.5-0.1,0.7C339.6,357.7,339.5,357.7,339.4,357.7z"/>
		<path class="st5" d="M350,358.7c-5.5-3.6-8.9-9.6-9.3-16.2l1,0c0.3,6.2,3.6,11.9,8.8,15.3L350,358.7z"/>
		<path class="st5" d="M326.9,349.4c-0.3,0-0.5-0.2-0.5-0.5c0-0.1,0-0.2,0.1-0.3c2.5-3,7.5-4.7,7.7-4.7c0.3-0.1,0.5,0.1,0.6,0.3
			c0.1,0.3-0.1,0.5-0.3,0.6c0,0-4.9,1.7-7.3,4.4C327.2,349.3,327,349.4,326.9,349.4z"/>
		<path class="st14" d="M355.2,333.8c-2.1,0-4.2-0.3-6.3-0.8c-8-2-10.7-6.3-10.8-6.5l0.9-0.5c0,0,2.6,4.2,10.2,6.1
			c7.6,1.9,11.3-0.2,11.4-0.2l0.5,0.9C359.2,333.5,357.2,333.9,355.2,333.8z"/>
		<path class="st0" d="M217.5,94.1c0,0-44.1,1.9-59,86.3c-15.7,89.2-44.9,94.1-41.7,149.8c2.8,46.8,31.5,61.3,60.8,61.3
			s55.7,12.3,55.7,12.3l-7.6-280.4L217.5,94.1z"/>
		<path class="st15" d="M152.5,368.3c-0.2,0-0.3-0.1-0.4-0.2c-17.3-23.6-10.5-70.4-10.4-70.9c0-0.3,0.3-0.5,0.6-0.4
			c0.3,0,0.5,0.3,0.4,0.6c-0.1,0.5-6.8,46.9,10.2,70.1c0.2,0.2,0.1,0.5-0.1,0.7C152.7,368.3,152.6,368.3,152.5,368.3z"/>
		<path class="st1" d="M182.3,224.1c0,0-25.9,94,9.3,122.9l40.5-13.7l-5.1-57.5L182.3,224.1z"/>
		<rect x="218.7" y="300.3" class="st16" width="70.6" height="55"/>
		<path class="st17" d="M233.8,300.3h55.5v35.9C266.4,324,257.8,319,233.8,300.3z"/>
		<path class="st18" d="M301.7,123.7l-48-5.1v-0.1l-0.3,0l-0.3,0v0.1l-47.3,5.1l-28.2,49.4l5.3,56.4l12.1,46.2
			c1.6,6,5.2,11.3,10.2,15l26.2,19.5c2.7,2.2,6,3.4,9.4,3.4h25.8c3.4,0,6.8-1.2,9.4-3.4l26.2-19.5c5-3.7,8.6-9,10.2-15l12.1-46.2
			l5.3-56.4L301.7,123.7z"/>
		<path class="st19" d="M217.9,204.4c0,0-17.2-0.7-19.3,0.5s6.2,3.5,6.2,3.5L217.9,204.4z"/>
		<path class="st19" d="M291,204.4c0,0,17.2-0.7,19.3,0.5s-6.2,3.5-6.2,3.5L291,204.4z"/>
		<path class="st20" d="M243.2,219.9l-2-0.1l1.1-14.3c0.1-1.9-1.8-2.6-2.9-2.8c-13.7-1.9-29.8-3.5-45.2-1.1
			c-1.5,0.2-4.8,1.1-4.6,4.5l0.9,13.1l-2,0.1l-0.9-13.1c-0.2-3.5,2.2-6,6.3-6.7c15.6-2.4,31.9-0.8,45.8,1.1c3,0.6,4.8,2.4,4.6,4.9
			L243.2,219.9z"/>
		<path class="st21" d="M202.2,231.4c-6.7,0-12.3-3.4-12.8-7.9l-0.5-4l1-0.1l0.5,4c0.4,3.9,5.7,7,11.9,7l25.7-0.1
			c7,0,11.6-1.2,12.9-6.9l0.8-3.7l1,0.2l-0.8,3.7c-1.7,7-8.1,7.6-13.9,7.7L202.2,231.4L202.2,231.4z"/>
		<path class="st20" d="M264.3,219.9l-1.1-14.3c-0.2-2.5,1.6-4.4,4.6-4.9c13.9-1.9,30.3-3.5,45.9-1.1c4.1,0.6,6.5,3.2,6.3,6.7
			l-0.9,13.1l-2-0.1l0.9-13.1c0.2-3.4-3.1-4.3-4.6-4.5c-15.4-2.4-31.5-0.8-45.3,1.1c-1.1,0.2-3,0.9-2.9,2.8l1.1,14.3L264.3,219.9z"
			/>
		<path class="st21" d="M305.4,231.4L305.4,231.4l-25.8-0.1c-5.8,0-12.2-0.6-13.9-7.7l-0.8-3.7l1-0.2l0.8,3.7
			c1.4,5.7,6,6.9,12.9,6.9l25.7,0.1l0.1,0c6.2,0,11.4-3.1,11.9-7l0.5-4l1,0.1l-0.5,4C317.7,227.9,312.1,231.4,305.4,231.4z"/>
		<path class="st20" d="M243.4,210.4l-1-1.8c0.2-0.1,4.1-2.2,11.4-2.2c7.3,0,11,2.1,11.2,2.2l-1,1.7c0,0-3.4-1.9-10.1-1.9
			C247,208.5,243.4,210.4,243.4,210.4z"/>
		<path class="st22" d="M236.8,190.3c0,0-19.4-7.5-28.1-6.1c-7.6,1.2-14.5,8.6-14.5,8.6s9-15.2,17.6-15.3s24.3,4.7,24.3,4.7
			L236.8,190.3z"/>
		<path class="st22" d="M269.4,191.1c0,0,21.1-8.2,29.8-7c7.6,1,14.7,8.3,14.7,8.3s-9.3-15-18-14.9s-26.1,5.4-26.1,5.4L269.4,191.1z
			"/>
		<path class="st21" d="M232.4,210.7c0,0-7.9-11.9-29.4-3.6C203,207.2,212.3,212.9,232.4,210.7z"/>
		<g>
			<defs>
				<path id="SVGID_1_" d="M232.4,210.7c0,0-7.9-11.9-29.4-3.6C203,207.2,212.3,212.9,232.4,210.7z"/>
			</defs>
			<clipPath id="SVGID_2_">
				<use xlink:href="#SVGID_1_"  style="overflow:visible;"/>
			</clipPath>
			<g class="st23">
				<circle class="st24" cx="218.8" cy="206.7" r="6.1"/>
			</g>
		</g>
		<path class="st25" d="M223.4,211.7c-13.7,0-21.4-3.8-21.5-3.8c-0.2-0.1-0.3-0.4-0.2-0.7c0.1-0.2,0.4-0.3,0.7-0.2
			c0.1,0.1,11,5.3,30,3.2c0.3,0,0.5,0.2,0.6,0.4c0,0.3-0.2,0.5-0.4,0.6c0,0,0,0,0,0C229.5,211.6,226.4,211.7,223.4,211.7z"/>
		<path class="st26" d="M233.2,212.2c-0.2,0-0.3-0.1-0.4-0.2c-3.7-4.9-12.8-11.9-32.3-3.3c-0.3,0.1-0.5,0-0.7-0.2
			c-0.1-0.3,0-0.5,0.2-0.7c0,0,0,0,0,0c20.1-8.9,29.7-1.5,33.5,3.6c0.2,0.2,0.1,0.5-0.1,0.7C233.5,212.2,233.3,212.2,233.2,212.2
			L233.2,212.2z"/>
		<path class="st21" d="M304.9,207.4c0,0-14.6-8.1-28.1,1.9C276.8,209.4,288.7,215.3,304.9,207.4z"/>
		<g>
			<defs>
				<path id="SVGID_3_" d="M304.9,207.4c0,0-14.6-8.1-28.1,1.9C276.8,209.4,288.7,215.3,304.9,207.4z"/>
			</defs>
			<clipPath id="SVGID_4_">
				<use xlink:href="#SVGID_3_"  style="overflow:visible;"/>
			</clipPath>
			<g class="st27">
				<circle class="st24" cx="290" cy="207" r="5.6"/>
			</g>
		</g>
		<path class="st25" d="M287.5,211.8c-7,0-10.7-1.8-10.9-1.9c-0.2-0.1-0.3-0.4-0.2-0.7s0.4-0.3,0.7-0.2l0,0c0.1,0.1,10.2,5,28.5-1.7
			c0.3-0.1,0.5,0,0.6,0.3s0,0.5-0.3,0.6C300,210.4,293.8,211.7,287.5,211.8z"/>
		<path class="st26" d="M275.5,211c-0.3,0-0.5-0.2-0.5-0.5c0-0.1,0-0.2,0.1-0.3c0.1-0.1,11.6-12.9,32.4-2.2c0.2,0.1,0.3,0.4,0.2,0.7
			s-0.4,0.3-0.7,0.2c0,0,0,0,0,0c-10.5-5.4-18.4-4.6-23.2-2.9c-3,1-5.7,2.7-8,4.9C275.7,211,275.6,211,275.5,211z"/>
		<path class="st28" d="M254,251.2c-4.8,0-9.4-2.4-12.2-6.3c-0.2-0.2-0.1-0.5,0.1-0.7c0.2-0.2,0.5-0.1,0.7,0.1
			c4.5,6.3,13.3,7.7,19.6,3.2c1.2-0.9,2.3-2,3.2-3.2c0.2-0.2,0.5-0.3,0.7-0.1c0.2,0.2,0.3,0.5,0.1,0.7
			C263.4,248.8,258.9,251.2,254,251.2z"/>
		<path class="st0" d="M214.9,121.1c0,0,95.5,47,109.7,109.5l19.8-32.1l-43.5-92.9L214.9,121.1z"/>
		<polygon class="st29" points="218.7,336.2 227.5,508 254,508 254,327.8 		"/>
		<path class="st30" d="M358,361.7l-68.7-25.5l-35.3,0.2l-35.3-0.2L150,361.7c-28.9,8.8-47.5,31-45.1,64.7l7.1,81.6h283.8l7.1-81.6
			C405.5,392.7,386.9,370.5,358,361.7z"/>
		<path class="st16" d="M254,327.8l-35.3,8.4l1.9,36.5c7.2,12.4,18.2,18.3,33.4,17.1c15.2,1.2,26.3-4.6,33.4-17.1l1.9-36.5
			L254,327.8z"/>
		<polygon class="st16" points="110.8,492.3 112.1,508 154.6,508 152.9,491.9 		"/>

			<rect x="334.2" y="486.8" transform="matrix(9.766623e-02 -0.9952 0.9952 9.766623e-02 -164.6114 792.9824)" class="st31" width="41.7" height="1"/>
		<path class="st32" d="M220.6,372.7c0,0,13.7,17.1,33.4,17.1s33.4-17.1,33.4-17.1L280.5,508h-52.9L220.6,372.7z"/>
		<polygon class="st16" points="397.3,492.3 395.9,508 353.4,508 355.1,491.9 		"/>
		<path class="st33" d="M122.5,490.4h-1.4l0,0v-7.4c0-5.6,4.5-10.1,10.1-10.1h1.4l0,0v7.4C132.6,485.9,128.1,490.4,122.5,490.4z"/>
		<path class="st33" d="M134,473h1.4c5.6,0,10.1,4.5,10.1,10.1v7.4l0,0h-1.4c-5.6,0-10.1-4.5-10.1-10.1V473L134,473z"/>
		<path class="st33" d="M109.7,473h-0.7l1.2,13.2c1.9,2.7,5,4.3,8.2,4.3h1.4v-7.4C119.8,477.5,115.3,473,109.7,473L109.7,473z"/>
		<path class="st33" d="M151.2,474.8c-2.7,1.9-4.3,5-4.3,8.3v7.4h1.4c1.6,0,3.1-0.4,4.5-1.1L151.2,474.8z"/>
		<path class="st33" d="M375.4,473h1.4c5.6,0,10.1,4.5,10.1,10.1v7.4l0,0h-1.4c-5.6,0-10.1-4.5-10.1-10.1c0,0,0,0,0,0V473L375.4,473
			z"/>
		<path class="st33" d="M363.9,490.4h-1.4l0,0v-7.4c0-5.6,4.5-10.1,10.1-10.1h1.4l0,0v7.4C374,485.9,369.5,490.4,363.9,490.4z"/>
		<path class="st33" d="M398.3,473h0.7l-1.2,13.2c-1.9,2.7-5,4.3-8.2,4.3h-1.4v-7.4C388.2,477.5,392.7,473,398.3,473L398.3,473z"/>
		<path class="st33" d="M356.9,474.8c2.7,1.9,4.3,5,4.3,8.3v7.4h-1.4c-1.6,0-3.1-0.4-4.5-1.1L356.9,474.8z"/>

			<rect x="152" y="466.4" transform="matrix(0.9946 -0.1037 0.1037 0.9946 -49.719 18.4413)" class="st31" width="1" height="41.7"/>
		<rect x="179.2" y="204.4" class="st20" width="9.3" height="2"/>
		<path class="st0" d="M225.6,123.3c0,0-33.3,34.8-43.3,100.8l-15.1-42.3l35.6-72.5L225.6,123.3z"/>
		<path class="st15" d="M336,214c-0.2,0-0.4-0.2-0.5-0.4c-5.6-30.2-20-56.3-20.1-56.6c-0.1-0.2,0-0.5,0.2-0.7s0.5,0,0.7,0.2
			c0,0,0,0,0,0c0.1,0.3,14.7,26.5,20.3,56.9C336.6,213.7,336.4,214,336,214C336.1,214,336.1,214,336,214z"/>
		<path class="st34" d="M254,271.4c-21.9,0-25.5-6.9-25.6-7.2c-0.1-0.2,0-0.5,0.2-0.7c0.2-0.1,0.5,0,0.7,0.2c0,0.1,3.6,6.6,24.7,6.6
			c0.3,0,0.5,0.2,0.5,0.5S254.3,271.4,254,271.4z"/>
		<path class="st34" d="M254,271.4c-0.3,0-0.5-0.2-0.5-0.5s0.2-0.5,0.5-0.5c19.9,0,24.7-6.6,24.8-6.7c0.2-0.2,0.5-0.3,0.7-0.1
			s0.3,0.5,0.1,0.7C279.4,264.6,274.4,271.4,254,271.4z"/>
		<path class="st35" d="M174.5,325.1c-3.5-6.3-16.4-27.8-39.7-43.4c-1.5-1-3.6-0.6-4.7,1c-0.3,0.4-0.4,0.8-0.5,1.3
			c-1.9,11.6-5.4,26.1-7,50.3c-0.5,7.8,4.5,18.3,9.9,28.6l-1.8,0.1l4.7,6.4l-3.7,1.2l4.9,5.4l-3.6,2.5l5.3,4l-2.7,2.2l7,2l-0.1-2.9
			c0.4,1.2,0.8,2.5,1.1,3.8l30.8-58.8C175,327.6,175.1,326.2,174.5,325.1z"/>
		<path class="st35" d="M260.6,362.9c5.3-10.3,10.4-20.7,9.9-28.6c-1.6-24.2-5.1-38.7-7-50.3c-0.3-1.8-2-3.1-3.9-2.8
			c-0.5,0.1-0.9,0.3-1.3,0.5c-23.3,15.6-36.3,37-39.7,43.4c-0.6,1.1-0.5,2.5,0.2,3.5l30.8,58.8c0.3-1.3,0.7-2.5,1.1-3.8l-0.1,2.9
			l7-2l-2.7-2.2l5.3-4l-3.6-2.5l4.9-5.4l-3.7-1.2l4.7-6.4L260.6,362.9z"/>
		<path class="st36" d="M134.3,281.4c-1.4-0.9-3.3-0.5-4.2,0.9c-0.2,0.4-0.4,0.7-0.5,1.2c-0.1,0.7-0.2,1.5-0.4,2.3l0,0
			c0,0,20.7,7.8,31.8,35.3c5,12.5-3.4,26.3-3.4,26.3l17.8-20.5C175.4,327,162.2,300,134.3,281.4z"/>
		<path class="st36" d="M258.8,281.4c1.4-0.9,3.3-0.5,4.2,0.9c0.2,0.4,0.4,0.7,0.5,1.2c0.1,0.7,0.2,1.5,0.4,2.3l0,0
			c0,0-20.7,7.8-31.8,35.3c-5,12.5,3.4,26.3,3.4,26.3L217.6,327C217.6,327,230.8,300,258.8,281.4z"/>
		<path class="st37" d="M178.9,374.4c0,0-8.4,2.8-9.9,9.4s-9.5,15.1-9.3,23.7s-1.7,27.6,19.2,19.7"/>
		<path class="st38" d="M261.2,461.1c-2.1-8.4,1.1-21.7,1.6-35.3c1.2-29.3-2.3-36.6-18.7-71.8c-16-34.3-47.7-30.1-47.7-30.1
			s-31.7-4.2-47.7,30.1c-16.4,35.3-19.9,42.5-18.7,71.8c0.5,13.6,3.7,26.9,1.6,35.3c-6,23.7-9.8,46.7-9.8,46.7H271
			C271,507.9,267.1,484.8,261.2,461.1z"/>
		<path class="st39" d="M196.4,404.4l22.7,13.3c0,0-2.3-18.2,10.7-28.8c12.9-10.6,25.3,11.1,25.3,11.1l2.9-14.3
			c-3-8.3-7.4-17.8-13.9-31.7c-16-34.3-47.7-30.1-47.7-30.1s-31.7-4.2-47.7,30.1c-6.5,13.9-10.9,23.4-13.9,31.7l2.9,14.3
			c0,0,12.4-21.7,25.3-11.1s10.7,28.8,10.7,28.8L196.4,404.4z"/>
		<path class="st40" d="M187.2,382.3l-4.5-17.7c-0.5-2.1-1.9-3.9-3.7-5l0,0c-2.6-1.5-5.8-1.5-8.4,0l-9.1,5.5
			c-2.6,1.6-4.2,4.5-3.9,7.6l0,0.4c0.2,2.5,1.5,4.7,3.6,6.1l17.6,11.9L187.2,382.3z"/>
		<path class="st40" d="M205.7,382.3l4.5-17.7c0.5-2.1,1.9-3.9,3.7-5l0,0c2.6-1.5,5.8-1.5,8.4,0l9.1,5.5c2.6,1.6,4.2,4.5,3.9,7.6
			l0,0.4c-0.2,2.5-1.5,4.7-3.6,6.1L214,391.1L205.7,382.3z"/>
		<circle class="st41" cx="172.4" cy="371.3" r="5.6"/>
		<path class="st42" d="M172.4,377.3c-3.3,0-6.1-2.7-6.1-6.1c0-3.3,2.7-6.1,6.1-6.1c3.3,0,6.1,2.7,6.1,6.1c0,0,0,0,0,0
			C178.4,374.6,175.7,377.3,172.4,377.3z M172.4,366.2c-2.8,0-5.1,2.3-5.1,5.1c0,2.8,2.3,5.1,5.1,5.1s5.1-2.3,5.1-5.1c0,0,0,0,0,0
			C177.4,368.5,175.2,366.2,172.4,366.2z"/>
		<circle class="st29" cx="170.6" cy="368.7" r="1.7"/>
		<circle class="st41" cx="220.5" cy="371.3" r="5.6"/>
		<path class="st42" d="M220.5,377.3c-3.3,0-6.1-2.7-6.1-6.1c0-3.3,2.7-6.1,6.1-6.1c3.3,0,6.1,2.7,6.1,6.1c0,0,0,0,0,0
			C226.5,374.6,223.8,377.3,220.5,377.3z M220.5,366.2c-2.8,0-5.1,2.3-5.1,5.1c0,2.8,2.3,5.1,5.1,5.1s5.1-2.3,5.1-5.1c0,0,0,0,0,0
			C225.5,368.5,223.3,366.2,220.5,366.2z"/>
		<circle class="st29" cx="222.2" cy="368.7" r="1.7"/>
		<path class="st43" d="M196.4,404.4h-0.5c-2,0-3.9,1.2-4.7,3.1l-0.5,1.1c-0.7,1.5-0.5,3.3,0.3,4.7l2.5,4c0.6,1,1.7,1.6,2.8,1.6l0,0
			L196.4,404.4z"/>
		<path class="st44" d="M219.6,420.5l-2.3-22.9c-1-9.7-9.8-17.2-20.5-17.2s-20.5,7.5-21.5,17.2l-2.3,22.9
			c-0.5,5.6,1.6,11.1,5.7,14.9c3.6,3.4,9.3,3.6,13.6,0.9c1.4-0.7,2.9-1,4.4-1c1.2,0,2.4,0.3,3.4,1c4.3,2.7,10,2.6,13.6-0.9
			C218.1,431.6,220.2,426.1,219.6,420.5z"/>
		<path class="st45" d="M219.6,415.7l-2.3-22.3c-1-9.5-9.8-16.8-20.5-16.8s-20.5,7.3-21.5,16.8l-2.3,22.3
			c-0.5,5.5,1.6,10.9,5.7,14.5c3.6,3.4,9.3,3.5,13.6,0.8c1.4-0.6,2.9-1,4.4-1c1.2,0,2.4,0.3,3.4,1c4.3,2.6,10,2.5,13.6-0.8
			C218,426.5,220.2,421.1,219.6,415.7z"/>
		<line class="st46" x1="260.9" y1="459.6" x2="266.8" y2="485.9"/>
		<path class="st43" d="M207.1,401.9c-2.3-2.3-5.6-3.5-10.7-3.6c0,0.1,0,0.1,0,0c-5.1,0.2-8.4,1.4-10.7,3.6c-2.7,2.7-4,6.5-1.1,9.5
			l5.5,5.9c3.6,3.1,8.9,3.1,12.5,0l5.5-5.9C211.1,408.4,209.8,404.5,207.1,401.9z"/>
		<path class="st47" d="M193.1,414.9c0-1.4-1.2-2.6-2.7-2.5h-4.9l4.6,4.9c0.7,0.7,1.5,1.3,2.5,1.6l0.4,0L193.1,414.9z"/>
		<path class="st47" d="M199.8,414.9c0-1.4,1.2-2.6,2.7-2.5h4.9l-4.6,4.9c-0.7,0.7-1.5,1.3-2.5,1.6l-0.4,0V414.9z"/>
		<path class="st48" d="M144.4,423.4c-4.7-4.1-6.4-16.1-6.5-16.6l1-0.1c0,0.1,1.7,12.1,6.1,15.9L144.4,423.4z"/>
		<path class="st48" d="M246.5,423.4l-0.7-0.8c4.4-3.8,6.1-15.8,6.1-15.9l1,0.1C252.9,407.3,251.2,419.3,246.5,423.4z"/>
		<path class="st49" d="M131.6,461.1c0,0,24.6,7.8,64.8,7.8s64.5-9.4,64.5-9.4c4.2,16.5,7.6,32.6,10.1,48.3h-90.4L129.3,471
			C129.3,471,127.9,465.3,131.6,461.1z"/>
		<path class="st50" d="M110.8,507.8c0,0,23.3-19.5,37-22.8c11.4-2.7,45-10,56.2-12.4c2.1-0.5,4.3,0.7,5,2.8l0,0
			c0.8,2.3-0.3,4.8-2.6,5.7c-0.2,0.1-0.3,0.1-0.5,0.2l-33.5,8l39.8-4.2l3.6,23L110.8,507.8z"/>
		<path class="st16" d="M322.4,508c0,0-49.1-28.9-59.1-28.9c-8.4,0-43.6-5.1-55-6.7c-2-0.3-4,1.1-4.4,3.1l0,0
			c-0.4,2.1,0.9,4.1,3.1,4.6c0,0,0.1,0,0.1,0l29.9,5.3l-29.1-3.7c-0.9-0.1-1.9,0-2.7,0.4c-1.1,0.5-2,1.3-2.5,2.4
			c-0.5,1.1-0.6,2.4-0.3,3.6l0.4,1.8c-2.4,1.9-3,5.6,0.3,9.3c-2.5,2.7-2.2,5.6,0.9,8.7L322.4,508z"/>
		<path class="st34" d="M237,494.4C236.9,494.4,236.9,494.4,237,494.4l-33.4-3.7c-0.3,0-0.5-0.3-0.4-0.6c0-0.3,0.3-0.5,0.6-0.4
			l33.3,3.7c0.3,0,0.5,0.3,0.4,0.6C237.4,494.2,237.2,494.4,237,494.4L237,494.4z"/>
		<path class="st34" d="M237,503.4C236.9,503.4,236.9,503.4,237,503.4l-32.9-3.9c-0.3,0-0.5-0.3-0.4-0.6s0.3-0.5,0.6-0.4l0,0
			l32.8,3.9c0.3,0,0.5,0.3,0.4,0.6C237.4,503.2,237.2,503.4,237,503.4z"/>
		<path class="st38" d="M233.2,476.1l30.4-8.3c8.2-2.2,16.6,2.6,18.8,10.7l0.2,0.6c2.2,8.2-2.6,16.6-10.7,18.8l-30.4,8.3
			c-8.2,2.2-16.6-2.6-18.8-10.7l-0.2-0.6C220.2,486.7,225,478.3,233.2,476.1z"/>

			<rect x="222.2" y="493.1" transform="matrix(0.9648 -0.2628 0.2628 0.9648 -121.5527 77.7126)" class="st45" width="14.9" height="0.3"/>
		<path class="st45" d="M222.4,487.5c0,0.1,0,0.2-0.1,0.3l12.7-3.5l-0.1-0.2L222.4,487.5z"/>
		<path class="st45" d="M225.9,501.4c0.1,0.1,0.1,0.1,0.2,0.2l12.7-3.5l-0.1-0.2L225.9,501.4z"/>
		<rect y="0" class="st46" width="508" height="508"/>
	</g>
</g>
</svg>
