date,category,annotation,annotationMobile,description
27 DEC,international,Outbreak in Wuhan,Outbreak in Wuhan,"Wuhan officials announce 27 people ill with mysterious virus, mostly stallholders at Huanan Seafood Market."
1 JAN,international,Virus in Hong Kong,Virus in Hong Kong,Hongkong confirms first case of the virus.
2 JAN,government,,,"Singapore's Ministry of Health acknowledges awareness and close monitoring of severe pneumonia cases in Wuhan, issues health advisories to all medical practitioners. "
3 JAN,government,,,Temperature screening implemented at Changi airport for inbound travellers from Wuhan.
10 JAN,international,First known death,First known death,First known death from the virus occurs in Wuhan.
13 JAN,international,Virus spreads outside China,Virus spreads outside / China,Thailand confirms first case outside China.
16 JAN,international,,,Japan confirms first case of the virus.
17 JAN,international,,,"WHO says little is known about the novel virus, warns that more international cases are likely."
17 JAN,international,Human-to-human transmission confirmed,Human-to-human / transmission confirmed,Scientists confirm that human-to-human transmission of the virus is possible.
20 JAN,international,,,South Korea and Taiwan confirm first cases of the virus.
21 JAN,international,,,US confirms first case of the virus.
22 JAN,international,,,China suspends outbound travel from Wuhan
22 JAN,international,,,"Early research suggests the virus may have originated in snakes, but some experts dispute this."
22 JAN,government,,,"Ministry of Health widens definition of suspect cases. Temperature screening at Changi Airport expanded, and health advisory notices are issued to all inbound flights from China."
22 JAN,government,,,Travellers are cautioned to avoid all non-essential travel to Wuhan.
22 JAN,government,,,Government forms a ministerial task force to organise efforts against the virus across ministries.
23 JAN,international,,,"China places Huanggang, Ezhou, and Chiba on travel lockdown, while Beijing cancels Lunar New Year festivities. "
23 JAN,international,,,Vietnam and Macau confirm first cases of the virus.
23 JAN,international,,,WHO decides it is too early to declare a global public health emergency.
24 JAN,international,,,China quarantines eight other cities in Hubei province.
24 JAN,international,,,Nepal confirms first case of the virus.
24 JAN,international,Virus shows up in Europe,Virus shows up in Europe,"France confirms first two cases of the virus, marking its spread to Europe."
24 JAN,government,,,Temperature screening at sea and land checkpoints implemented for all inbound travellers.
24 JAN,community,Shops run out of masks,Shops run out of masks,Several retail outlets run out of both N95 masks and surgical masks after Singapore confirms its first case of 2019-nCov.
25 JAN,international,,,"Hong Kong declares emergency, declares highest government response level; school and public events are cancelled until mid-February"
25 JAN,international,,,"Australia confirms first case of the virus, marking its spread to Oceania"
25 JAN,international,,,Malaysia confirms first three cases of the virus.
26 JAN,international,,,"China places Shantou, a city outside the viral epicentre, under travel lockdown."
27 JAN,international,,,"Sri Lanka, Canada, Cambodia, Taiwan, and Germany confirm first cases of the virus."
27 JAN,government,,,Ministry of Trade forecasts 2019-nCov's negative impact on the economy.
27 JAN,government,POFMA exercised / Students returning from China on LOA,POFMA exercised / Students returning from / China on LOA,Minister of Health directs POFMA (Protection from Online Falsehoods and Manipulation Act) to issue a General Correction Direction to local forum HardwareZone.com for spreading falsehoods about the virus.
27 JAN,government,,,Travel advisory to defer all non-essential travel to China issued. Healthcare teams deployed for all inbound flights from China to detect unwell passengers the moment they disembark. Students returning from China will be given 14 days' Leave of Absence (LOA).
27 JAN,government,,,All Chinese nationals with passports issued in Hubei province are referred to further health screening for medical assessment.
28 JAN,international,,,Thailand becomes first country other than China to confirm more than 10 cases of the virus.
28 JAN,government,All recent travellers from Hubei quarantined,All recent travellers from / Hubei quarantined,"Ministry of Health contacts and quarantines all recent travellers from Hubei province to Singapore, estimates about 2000 such arrivals within past two weeks."
28 JAN,government,,,Transport ministry responds to online falsehood claiming that Woodlands MRT was closed for disinfection.
29 JAN,international,,,Finland and the UAE confirm first cases of the virus.
29 JAN,international,,,US announces plans to accelerate development of potential vaccine.
29 JAN,government,,,All new visitors with recent travel to Hubei province are denied entry into or transit through Singapore.
29 JAN,government,,,Singapore's environment and food agencies issue sanitation and hygiene guidelines to hawker centre and wet market stallholders.
29 JAN,government,Quarantined individuals get up to $100 per day,Quarantined individuals / get up to $100 per day,Ministry of Health announces Quarantine Order Allowance Scheme: eligible parties under quarantine orders receive up to $100 per day.
30 JAN,international,,,"Dr. Li Wenliang, opthamologist at Wuhan Central Hospital, shares on a WeChat forum of medical alumni news of viral pneumonia and SARS diagnosis of patients in his department. "
30 JAN,international,,,"Wuhan police arrest eight doctors in the WeChat forum, charging them with 'illegal acts of fabricating, spreading rumors and disrupting social order'."
30 JAN,international,WHO declares public health emergency,WHO declares public / health emergency,WHO declares a 'public health emergency of international concern'.
30 JAN,international,,,"India, Italy, and the Philippines confirm first cases of the virus."
30 JAN,international,,,German doctors publish letter describing a case of asymptomatic transmission.
30 JAN,international,,,"US State Department restricts all nonessential travel to China, while several airlines suspend flights to China."
30 JAN,government,,,"Minister Chan Chun Sing reassures Singaporeans of sufficient masks in the national stockpile, warns against hoarding of supplies. Each household will be given 4 masks."
30 JAN,government,Profiteering mask sellers warned,Profiteering mask sellers / warned,Price Controller issues warnings to errant sellers found selling masks at high prices.
30 JAN,community,,,"Local singers JJ Lin and Stefanie Sun collaborated and released the song 'Stay With You', encouraging people who have been affected by the Wuhan coronavirus."
31 JAN,international,,,Chinese authorities report pneumonia cases with an unknown viral cause to WHO.
31 JAN,international,,,"Sweden, Russia, and the UK confirm first cases of the virus."
31 JAN,international,,,Chinese health officials claim that recovered patients may contract the virus again if their antibody response is not strong enough.
31 JAN,government,,,Singapore government factually clarifies online falsehoods and false statements on The Straits Times Review Facebook page and on the City News website.
31 JAN,government,Mainland China work passes deferred,Mainland China work / passes deferred,Manpower Ministry rejects all new work pass applications for foreign workers from mainland China until further notice. Renewal applicants are unaffected.
31 JAN,government,,,Government cautions against opportunistic cyberactivity involving hidden malicious files in messages or emails related to 2019-nCov.
31 JAN,government,,,"Singapore's Prime Minister Lee visits the National Centre for Infectious Diseases, where the coronavirus patients are warded."
1 FEB,international,First fatality outside China,First fatality outside / China,The Philippines confirms first fatality linked to 2019-nCov outside China and announces a broad travel ban.
1 FEB,international,,,Spain confirms first case of the virus.
1 FEB,government,,,Ministry of Trade and Industry issues advisory on 2019-nCov for businesses.
1 FEB,government,,,Ministry of Health issues advisory on 2019-nCov for persons placed on Leave of Absence.
1 FEB,government,Household collection of masks begin / New visitors from China denied entry,Household collection of / masks begin / New visitors from / China denied entry,Collection of masks at fixed distribution points begins.
1 FEB,government,,,"Singapore disallows all new visitors with recent travel history to mainland China, regardless of nationality, entry into or transit through Singapore."
1 FEB,government,,,All Singapore residents and long-term-pass holders returning from China are required to serve a mandatory 14-day Leave of Absence upon arriving in Singapore.
1 FEB,community,,,Students at two major universities begin daily food deliveries to schoolmates on Leave of Absence.
2 FEB,international,,,Doctors in Bangkok report successful treatment of a small group of patients with aggressive programme of anti-HIV and flu drugs.
2 FEB,government,,,Ministry of Health issues advisory to people sharing residential spaces with persons placed on Leave of Absence.
2 FEB,government,,,Deputy Prime Minister Heng announces targeted help for transport and tourism sectors in 2020 Budget.
2 FEB,government,,,Fifteen travellers with recent travel history to China refused entry into Singapore due to new restrictions announced the day before.
2 FEB,government,,,Trade and Industry Minister assures employees and Singaporeans that job and business protection is the ministry's 'primary focus'.
2 FEB,community,,,Minister of Social and Family Development reports 6 percent of Singaporeans have collected masks from government.
3 FEB,international,COVID-19's death toll exceed SARS's,COVID-19's death toll / exceed SARS's,"Death toll of 2019-nCov reaches 362 in Mainland China, exceeding that of SARS in 2002/2003."
3 FEB,government,,,"Ministries of National Development, Health, Manpower, and Education issue joint statement on persons placed on home quarantine and Leave of Absence."
3 FEB,government,,,Early Childhood Development Agency issues advisory to parents about precautionary measures in preschools.
3 FEB,government,,,Health Minister describes to Parliament Singapore's 'multiple lines of defence' against imported and local transmission of the virus.
3 FEB,community,Singaporeans avoid crowds; tourist spots quiet,Singaporeans avoid / crowds; tourist spots quiet,Popular tourist spots in Singapore report quieter weekend crowds than usual.
3 FEB,community,,,Several K-Pop shows are cancelled or postponed due to virus outbreak.
3 FEB,community,,,"Landlords in Singapore turn away returning tenants from China, fearing infection risk."
4 FEB,international,,,Hong Kong confirms first fatality linked to 2019-nCov.
4 FEB,government,First local transmission / Virus addressed in Parliament,First local transmission / Virus addressed in / Parliament,Minister of Health illustrates three outbreak exacerbation scenarios and details response plans in Parliament.
4 FEB,government,,,Minister of Health clarifies that transmission by asymptomatic patients has occurred in isolated cases only.
4 FEB,government,,,Education Minister announces lessons on coronavirus outbreak to be rolled out in schools.
4 FEB,government,,,"National Development Minister issues call for calm and support, addresses fears of proximity to quarantine facilities or quarantined people."
4 FEB,government,,,Foreign Minister pledges support to Singaporeans in China amidst virus crisis.
4 FEB,government,,,Singapore Airshow organizer confirms event will proceed with enhanced precautionary measures despite participant pullouts.
4 FEB,government,,,National Environment Agency issues interim list of household products and active ingredients for 2019-nCov disinfection.
4 FEB,government,,,National University of Singapore warns of immediate one-month suspension for students who flout Leave of Absence.
4 FEB,government,,,Ministry of Health reports public hospitals have been screening all pneumonia patients for 2019-nCov since previous week.
4 FEB,government,,,"Ministry of Manpower and partners issue enhanced guidelines around cleaning, customer service, and preventative measures to employers."
4 FEB,government,,,"Manpower Ministry warns landlords who evict tenants on Leave of Absence, home quarantine or nationality face barring from future work pass applications. "
4 FEB,government,,,Ministry for Social and Family Development issues advisory to residential and community-based facilities on additional precautionary measures.
4 FEB,government,,,Schools suspend mass assemblies and stagger recess times on top of precautions implemented the week before.
4 FEB,community,,,"National Association of Travel Agents Singapore postpones annual travel exhibition, expecting low turnout."
4 FEB,community,,,Community volunteers for mask distribution efforts lauded in press by Member of Parliament.
5 FEB,international,,,WHO claims no known effective treatment to 2019-nCov in response to optimism around media reports of 'breakthrough drugs'.
5 FEB,international,,,"A cruise ship off the coast of Yokohama, Japan, is quarantined with 3,700 passengers and crew aboard."
5 FEB,international,,,"Bill and Melinda Gates Foundation announces $100 million in funding support, as WHO estimates response budget from February to April 2020 at $675 million."
5 FEB,international,,,Chinese central government begins penalising officials deemed neglectful in their prevention and outbreak control efforts.
5 FEB,international,,,Wuhan officials to go door-to-door to gather and quarantine the sick in makeshift facilities.
5 FEB,international,,,Japan contributes $10 million to WHO's response efforts to help countries with weak health systems prepare for the virus.
5 FEB,government,,,Shops in Chinatown instructed by Manpower Ministry to enhance cleaning and hygiene measures in visit.
5 FEB,government,,,Ministry of Manpower issues advisory for employers and employees to defer all non-essential travel to/from mainland China and all travel to/from Hubei.
5 FEB,government,,,Singapore's central bank indicates current exchange-rate band can accommodate easing of the local currency without changing overall monetary policy.
5 FEB,community,Singapore Red Cross calls for donations,Singapore Red Cross / calls for donations,Singapore Red Cross issues public appeal for donations to China; government contributes $1 million in seed money as well as medical supplies.
5 FEB,community,,,Town councils step up cleaning and disinfection of common areas in public housing estates.
5 FEB,community,,,Several business events with large Chinese participation are cancelled or postponed.
5 FEB,community,,,"National School Games disallows spectators from attending, even as MOE steps up prevention measures throughout schools."
6 FEB,international,,,India's airports start screening passengers for 2019-nCov on flights from Singapore and Thailand.
6 FEB,government,,,Ministry of Defense allows the Chinese air force's aerobatics team to perform at the Singapore Airshow next week despite ongoing travel ban for visitors from China.
6 FEB,government,,,"All workers due to return from China face a mandatory 14-day Leave of Absence, and their employers must get in touch with the Ministry of Manpower before they return."
7 FEB,international,Whistleblower doctor passes away / DORSCON level: Yellow to Orange,DORSCON level: Yellow  / to Orange / Whistleblower doctor passes away ,"Dr. Li Wenliang dies from 2019-nCov, stirring anger about the Chinese government's past moves to censure him."
7 FEB,international,,,WHO ships medical supplies such as masks and diagnostic tests to affected countries.
7 FEB,international,,,Asian Development bank contributes $2 million to response efforts in Asia-Pac region.
7 FEB,government,DORSCON level: Yellow to Orange,DORSCON level: Yellow / to Orange,Singapore raises DORSCON level to orange after three new cases of unknown origin emerge.
7 FEB,government,,,Manpower Ministry issues joint advisory on preventative measures for businesses.
7 FEB,government,,,"Singapore plans to send 10,000 test kits and three screening machines to China while increasing information exchange on the virus."
7 FEB,government,,,"Singapore Exchange allows some listed companies to delay their full-year results for up to two months, citing outbreak-related audit difficulties."
7 FEB,community,,,"Celebrations at Thaipusam festival draw highest participation rate since 2013, amidst enhanced precautionary measures by event organisers. "
7 FEB,community,Panic buying ensues / DORSCON level: Yellow to Orange,DORSCON level: Yellow / to Orange / Panic buying ensues,Singapore experiences panic buying after government changes DORSCON level to orange.
8 FEB,international,China accepts WHO aid,China accepts WHO aid,Chinese government approves WHO foreign aid.
8 FEB,international,,,"WHO Director-General warns that cases independent of recent China travel are a potential threat, criticises and reveals plans to combat spread of misinformation."
8 FEB,international,,,Kuwaiti and Qatari Embassies in Singapore advises citizens against non-essential travel to Singapore.
8 FEB,government,,,Ministry of Manpower requires all work pass holders with travel history to mainland China within the past 14 days to obtain approval before entering Singapore.
8 FEB,government,,,Local national and interschool sports events are cancelled or postponed.
8 FEB,government,,,Ministry of Home Affairs condemns and investigates religious leader's xenophobic comments on Facebook.
8 FEB,government,,,Ministry of Health initiates contact tracing and warns of scam calls.
8 FEB,government,Prime Minister responds to panic buying,Prime Minister responds / to  panic buying,"Amidst panic buying of supplies, Prime Minister Lee calls for unity in statement on virus outbreak."
8 FEB,government,,,Minister of Muslim Affairs reiterates government's zero-tolerance policy on hate speech.
8 FEB,government,,,Singapore sends plane to deliver medical supplies to and retrieve Singaporeans quarantined in Wuhan.
8 FEB,government,,,"Ministry of Health advises organisers to cancel or defer non-essential large-scale events, and to implement a slew of precautionary measures if proceeding."
8 FEB,government,,,Political leaders and experts urge calm and responsibility following second day of panic buying of provisions.
9 FEB,international,,,"Global death toll of 2019-nCov reaches 725, exceeding that of SARS in 2002/2003."
9 FEB,government,,,"Made-in-Singapore diagnostic kit for 2019-nCov implemented in some public hospitals, with plans for widespread production."
9 FEB,government,,,Foreign domestic workers and employers advised to consider alternative rest-day arrangements and precautionary measures.
9 FEB,government,,,"Government-distributed surgical masks collection deadline extended three weeks to February 29, with shops running out of stock."
9 FEB,government,LOA breachees asked to leave / All Singaporeans in Wuhan brought home,LOA breachees asked / to leave / All Singaporeans in / Wuhan brought home,"Four work pass holders who breached leave of absence requirements have passes revoked, asked to leave Singapore."
9 FEB,government,,,Singapore plane from Wuhan brings 174 Singaporeans and family members home; all are sent to hospitals or quarantined.
9 FEB,government,,,Minister-In-Charge of Public Service cautions officials against prematurely releasing information to prevent alarm.
9 FEB,government,,,Monetary Authority of Singapore advises financial institutions to expect increased demand for services such as cash withdrawal and online services.
9 FEB,community,Supermarkets restock to normal,Supermarkets restock / to normal,Supermarkets across Singapore restocked with staples after weekend of panic buying. Minister of Trade and Industry assures country of stockpiles and supply-chain stability.
9 FEB,community,,,Singapore's largest supermarket chain imposes purchase limits on essentials.
10 FEB,international,,,Advance team for WHO's 2019-nCov mission leaves for China.
10 FEB,international,,,Sarawak state government implements 14-day quarantine for visitors from Singapore.
10 FEB,government,,,Manpower Ministry issues advisory to Foreign Domestic Workers and their employers to find mutual agreement on rest days and minimise activity outside.
10 FEB,government,,,"Ministry of Health looks into claims that the virus can be transmitted through aerosol, stating current lack of evidence."
10 FEB,government,,,Ministry of Manpower issues updated advisory on enhanced precautions for dormitory operators.
10 FEB,government,,,National Environment Agency reassures population of regular and amped-up hygiene inspections of public facilities.
10 FEB,government,,,"Land Transport Authority sets up temperature-taking stations and gives 300,000 surgical masks to taxi and private-hire car drivers."
10 FEB,government,,,"Health scientists encourage Singaporeans to get fresh air and sunlight, as well as use fans instead of air conditioners, to prevent infection."
10 FEB,government,,,Chief scientist announces ongoing 2019-nCov vaccine development and novel use of anti-retrovirals in some Singapore hospitals treating the virus.
10 FEB,government,,,"The Ministry of Health directs public hospitals to restrict doctors' work to one hospital, patients and healthcare staff to limit movement across healthcare premises to reduce transmission risk."
10 FEB,community,,,"Singapore Press Holdings' Chinese Media Group raises over $100,000 for Singapore Red Cross with live telecast."
11 FEB,international,,,"China's coronavirus death toll passes 1,000."
11 FEB,international,2019-nCov incubation may exceed 14 days / Virus named COVID-19,2019-nCov incubation / may exceed 14 days / Virus named COVID-19,"New study by leading Chinese scientist suggests median incubation period of 2019-nCov is three days, reaching 24 days in rare cases."
11 FEB,international,,,WHO renames novel coronavirus 'COVID-19'.
11 FEB,international,,,WHO stands by recommended 14-day quarantine period in response to study suggesting 24-day incubation period in rare cases.
11 FEB,community,,,"Performing arts groups cancel or postpone shows, as organisations proceeding with events pledge enhanced precautions. "
11 FEB,government,,,Police force deploys 200 officers islandwide to government quarantine facilities to maintain order and compliance.
11 FEB,government,,,Infectious Disease Act update extends punitive options for those who breach orders aimed at controlling viral spread.
11 FEB,government,,,"Price Controller warns errant sellers against opportunism, citing hefty fines."
11 FEB,government,,,Price Controller issues letter of demand to retailer 3 Stars for profiteering behaviour.
11 FEB,government,,,"Ministry of Health confirms two new cases of the virus, one of whom works at Resorts World Sentosa casino."
11 FEB,government,,,Singapore and Malaysia form joint working group to share information around the virus.
11 FEB,government,,,Singapore Civil Defence Force deploys officers to assist with swab testing of people serving quarantine orders.
11 FEB,government,,,Chief health scientist notes plans to begin vaccine trial testing as early as four months later.
12 FEB,government,,,Singapore Tourism Board convenes task force to aid tourism industry's recovery and future growth.
12 FEB,government,,,Singapore Armed Forces announces in-camp measures to prevent spread of virus.
12 FEB,government,,,Senior Minister of State for Defence visits Basic Military Training Centre to observe enhanced precautionary measures.
12 FEB,government,Singapore prepares for economic fallout,Singapore prepares for / economic fallout,"Minister for National Development Wong announces ""strong"" economic package in national Budget to mitigate economic fallout from coronavirus."
12 FEB,government,,,Health Minister Gan announces distribution of one million face masks to private clinics in response to concerns over supply.
12 FEB,community,,,Ministry of Manpower announces Leave of Absence Support Scheme (LOASP)
13 FEB,international,Japan announces first death due to COVID-19  / Big spike in cases in China after inclusion / criteria changes,Japan announces first / death due to COVID-19  / Big spike in cases in / China after inclusion / criteria changes,Japan announces first death due to the virus—the third region outside mainland China with a outbreak-related fatality.
13 FEB,international,,,"China includes clinically diagnosed cases in addition to lab-tested cases due to shortage of test kits—confirmed cases spike by 14,840."
13 FEB,government,,,Land Transport Authority and Ministry of Transport announce $77 million Point-to-Point Support Package to help taxi and private-hire car operators affected by the outbreak.
13 FEB,government,,,Ministry of Manpower revokes work passes of two workers and suspends their employers' work pass privileges for breaching entry approval requirements.
13 FEB,government,,,"The government released a video on Facebook showing iconic television character Phua Chu Kang, played by local actor Gurmit Singh, encouraging Singaporeans to take precautions against the COVID-19 virus."
14 FEB,government,,,The government published an official document correcting and clarifying the false news published by States Times Review regarding the COVID-19 situation.
14 FEB,government,,,"Prime Minister Lee Hsien Loong thanks all doctors, nurses, and healthcare workers for their efforts in Valentine's Day note."
14 FEB,government,,,"Minister for Health Gan Kim Yong and Minister for Culture, Community & Youth Grace Fu met with church leaders to update them on the COVID-19 situation, and to provide guidance on precautionary measures."
14 FEB,government,,,"The Ministry of Health (MOH) re-activated the Public Health Preparedness Clinics (PHPCs), which includes a list of measures, one of which to provide patients who have respiratory symptoms with 5-day medical certificates."
14 FEB,community,Grab provides dedicated service for / healthcare workers,Grab provides dedicated / service for healthcare / workers,"Grab offers healthcare professionals access to a new dedicated on-demand service, GrabCare, for travel to and from National Centre for Infectious Diseases and Tan Tock Seng Hospital."
14 FEB,community,,,Nanyang Technological University (NTU) announces that two of its biggest annual events—its open house and career fair—are going digital.
14 FEB,community,,,"Catholic Church suspends public mass indefinitely, effective from 15 Feb noon."
15 FEB,international,,,"France announces first death due to the virus, the fourth region outside mainland China with an outbreak-related fatality."
16 FEB,international,,,"Taiwan announces first death due to the virus, the fifth region outside mainland China with an outbreak-related fatality."
16 FEB,government,,,"The National Environment Agency (NEA) kick-started an “SG Clean” campaign to galvanise collective action in keeping public toilets, hawker centres, community spaces and other premises clean."
17 FEB,international,,,A second cruise ship with one confirmed case of the virus docks in Cambodia after being turned away by several countries for two weeks.
17 FEB,international,,,"Thailand increases screening of visitors from Singapore and Japan, in addition to those from Hong Kong, Taiwan, and Mainland China. "
17 FEB,international,WHO counts clinically diagnosed cases,WHO counts clinically / diagnosed cases,"WHO begins recording clinically diagnosed cases in addition to laboratory-tested cases, due to change in case reporting in Mainland China on 13 February."
17 FEB,international,,,WHO releases guidelines on precautionary meausures at points of entry and mass gatherings.
18 FEB,international,,,"Chinese study suggests 80% of cases are mild and that spread is slowing, but WHO director general urges caution."
18 FEB,government,,,More than 700 Singapore Airlines and SilkAir flights between February to May cancelled due to weak demand
17 FEB,government,Government announces stricter Stay-Home / Notice to replace LOA,Government announces / stricter Stay-Home / Notice to replace LOA,Ministry of Health announces stricter new Stay-Home Notice (SHN) for residents and long-term pass holders returning to Singapore from mainland China—individuals must remain within residences at all times.
17 FEB,government,,,"HSA demands notification of personal-use imports of hand sanitisers, masks, thermometers, and protective gear exceeding 150 masks per person, as well as for businesses."
17 FEB,government,,,Various ministers meet with religious leaders to update them on the COVID-19 situation and precautionary measures surrounding places of worship.
18 FEB,government,Government budget announces $6.4b / support package / Facebook blocks local website under POFMA,Government budget / announces $6.4b / support package / Facebook blocks local / website under POFMA,"Singapore's 2020 Budget supports businesses, workers, families, and front-line agencies with $6.4 billion amidst the coronavirus outbreak's economic fallout."
18 FEB,government,,,"Finance Minister Heng Swee Keat says aviation sector, among the hardest hit by the outbreak, will get $112 million to defray business costs and protect jobs."
18 FEB,government,,,Deputy Prime Minister Heng Swee Keat announces new Jobs Support Scheme subsidising local wages to help employers retain workers during the coronavirus slowdown.
18 FEB,government,,,"Facebook disables access to the States Times Review Facebook page for users in Singapore, after required to do so under the POFMA."
18 FEB,government,,,Police arrest five people for allegedly cheating customers over face masks sold on online marketplace Carousell.
19 FEB,international,,,"Iran confirms first two cases of the virus, both fatal. Hong Kong anounces second fatality."
19 FEB,international,,,Researchers create 3D atomic map of COVID-19 'spike' in race to find specific vaccines and antivirals.
19 FEB,international,WHO praises Singapore's response,WHO praises Singapore's / response,WHO director-general 'impressed' with Singapore's handling of coronavirus outbreak.
19 FEB,government,,,"Ministry of Health provides more than 95 percent of general practitioner clinics two week's supply of personal protective equipment (e.g., masks, gowns and gloves)."
19 FEB,government,,,"Ministry of Manpower warns employers not to send employees to hospitals unless there is a medical emergency, after hospitals feedback that workers are being sent for testing despite being well."
19 FEB,community,,,"Grab and Chubb, a property and casualty insurer, announce payout of up to $1,000 to GrabCare drivers who are diagnosed with the coronavirus; other drivers and delivery partners may receive up to $500."
19 FEB,community,Singapore Red Cross sends China $2.26m / in aid,Singapore Red Cross / sends China $2.26m / in aid,"Singapore Red Cross sends $2.26 million worth of aid to China in first phase of relief efforts, from $6+ million raised in donations. The remaining funds will support further efforts in the coming months."
20 FEB,international,China revises case inclusion criteria again,China revises case / inclusion criteria again,"China revises case counting criteria again to include only laboratory-tested cases, due to improved testing capacity in Hubei."
20 FEB,international,,,"South Korea reports 52 new cases, bringing total to 156—the largest number of cases outside Mainland China. More than 80 are from the Shincheonji Church of Jesus in Daegu."
20 FEB,government,,,Minister for Social and Family Development Desmond Lee launches SG United portal to help the public discover how to contribute to causes fighting the coronavirus outbreak.
20 FEB,government,,,"Social service agencies each receive $3,000 from the Community Chest (fundraising arm of the National Council of Social Service) for coronavirus-related expenses ."
20 FEB,community,ComfortDelgro offers drivers $10M in rental / rebates,ComfortDelgro offers / drivers $10M in rental / rebates,ComfortDelGro offers taxi drivers affected by the coronavirus outbreak around $10 million in rental rebates until end April.
20 FEB,community,,,"Straits Times reports more than 1,000 people have written in messages of support for frontline fighters against the coronavirus outbreak to the paper's tribute webpage, set up on 16 February."
21 FEB,international,,,"China sees more than 200 new confirmed cases in prisons, fires officials deemed responsible."
21 FEB,international,,,Malaysia investigates 27 people for allegedly spreading misinformation about the virus.
21 FEB,international,,,North Korea cancels largest tourist event—the Pyongyang Marathon—amidst border closures due to the virus.
21 FEB,international,,,"Israel confirms first case of the virus, from passenger on Diamond Princess cruise ship."
21 FEB,government,,,National carrier Singapore Airlines ensures all aircraft in fleet follow thorough cleaning regimen before next flight.
21 FEB,government,,,"Ministry of Defence delivers over 2,000kg of medical supplies for distribution to Chinese military hospitals."
21 FEB,government,Ministry of Manpower warns employers against / forcing staff to take leave for quarantine,Ministry of Manpower / warns employers against / forcing staff to take leave / for quarantine,Ministry of Manpower warns employers who force staff to take leave for mandatory 14-day Stay-Home Notice or LOA could have work pass privileges suspended.
22 FEB,international,,,"New confirmed cases in China (outside Hubei) sees decline, but international cases rise worryingly in Iran and South Korea."
22 FEB,international,,,WHO calls for unity among African Union member states to strengthen ill-prepared health systems in preparation for the virus.
22 FEB,government,,,"Public Hygiene Council launches new hygiene initiative, encouraging operators of premises to step up cleaning regimes and urging members of the public to have better personal hygiene."
22 FEB,community,,,"Seventy NTUC volunteers put together 5,500 care packs for workers in Singapore as part of fight against the coronavirus outbreak."
23 FEB,international,,,"Iran confirms 15 new cases, bringing the total to 43 cases and 8 deaths."
23 FEB,international,South Korea and Italy report large single-day / spikes in cases,South Korea and Italy / report large single- / day spikes in cases,Italy's confirmed cases rise to 132 in Europe's biggest outbreak; towns in Lombardy and Veneto quarantined.
23 FEB,international,,,"South Korea reports 169 new cases of the virus, raises virus alert to 'grave'."
23 FEB,government,,,"Ministry of Health advises travellers to avoid non-essential trips to Daegu city and Cheongdo county in South Korea, given sharp increase in confirmed coronavirus cases there."
24 FEB,international,,,"Israel confirms second case of the virus, from passenger on cruise ship."
24 FEB,community,,,"Migrant Workers' Centre donates $10,000 to family of a 39-year-old Bangladeshi worker in Singapore who tested positive for the coronavirus on February 8."
25 FEB,international,WHO director-general warns of 'potential / pandemic',WHO director-general / warns of 'potential / pandemic',"WHO director-general warns world to prepare for 'potential pandemic' amidst spike in cases outside China, a day after a spokesperson claims the WHO no longer uses that classification. "
25 FEB,international,,,"WHO delegation head to Beijing praises China for 'incredibly difficult measures', suggesting hundreds of thousands of potential cases averted."
25 FEB,government,,,"Rahmatan Lil Alamin Foundation, set up by Islamic Religious Council of Singapore, launches fundraising drive with all Singapore mosques for vulnerable people and families affected by virus outbreak."
25 FEB,government,,,"Singapore-Malaysia joint working group holds first meeting in Johor Bahru, agree to continue entry screenings, align screening protocols at land borders, and exchange important information about the virus."
25 FEB,government,,,"3 Stars, scrutinized for profiteering from the sale of face masks, has lowered prices and apologised, with Ministry of Trade and Industry promising further monitoring."
25 FEB,government,,,"Rahmatan Lil Alamin Foundation, set up by Islamic Religious Council of Singapore, launches fundraising drive with all Singapore mosques for vulnerable people and families affected by virus outbreak."
25 FEB,community,Duke-NUS serological test enables infection / tracing in world first,Duke-NUS serological / test enables infection / tracing in world first,Authorities track infection link between the Grace Assembly of God church cluster and the Life Church and Missions cluster using new serological test developed by Duke-NUS Medical School.
25 FEB,community,,,Singapore's three major universities have temporarily suspended all student exchange programmes to South Korea
26 FEB,international,,,"Hong Kong announces largest budget deficit and big cash handouts in budget, responding to protest violence and the virus outbreak."
26 FEB,international,,,US Food and Drug Administration identifies 20 drugs in danger of shortage due to coronavirus outbreak.
26 FEB,international,First case confirmed in Balkans,First case confirmed in / Balkans,Croatia confirms first case of the virus in the Balkans.
26 FEB,government,Singapore restricts travel from South Korean / virus hotspots,Singapore restricts travel / from South Korean / virus hotspots,"Singapore bars new visitors with recent travel history to Cheongdo county and Daegu city in South Korea, issues returning Singapore citizens, permanent residents, and long-term pass holders Stay-Home Notices."
26 FEB,government,,,All existing and approved work pass holders entering from South Korea's Daegu city and Cheongdo county in the last 14 days need to get approval before entering Singapore.
27 FEB,international,,,"Australia's prime minister declares virus a pandemic ahead of WHO, enforces travel ban on visitors from China."
27 FEB,international,,,"North Korea postpones school term alongside several other preventative measures, with no cases reported."
27 FEB,international,,,Taiwan raises epidemic response level to highest.
27 FEB,international,Saudi Arabia suspends entry for umrah pilgrims,Saudi Arabia suspends / entry for umrah / pilgrims,Saudi Arabia suspends entry for pilgrims embarking on the 'umrah' over coronavirus
27 FEB,international,,,Pakistan confirms first two cases of the coronavirus
27 FEB,international,,,"WHO director general states international COVID-19 epidemic at 'decisive point', calling for urgent and concerted action amongst states."
27 FEB,international,,,UN urges 'proportionate' quarantine measures and need to respect rights of those in isolation.
27 FEB,government,,,Ministry of Manpower issues guidelines for how employers should count the five-day sick leave during the coronavirus outbreak in relation to their workers' sick leave entitlements.
27 FEB,government,,,Chinese couple is charged under Infectious Diseases Act for giving false information to Ministry of Health officials and obstructing the conduct of contact tracing.
27 FEB,government,,,Islamic Religious Council of Singapore informs tour agencies of need to ensure would-be pilgrims affected by Saudi Arabia's suspension of entry are informed and efforts are made to adjust their plans.
28 FEB,international,,,WHO raises global risk level of COVID-19 to highest level.
28 FEB,international,,,"Azerbaijan, Belarus, Iceland, Mexico, the Netherlands, and New Zealand confirm first cases of the virus."
28 FEB,international,Nigeria confirms first case in sub-Saharan / Africa,Nigeria confirms first / case in sub-Saharan / Africa.,Nigeria confirms first case of the virus in sub-Saharan Africa.
28 FEB,international,,,Hokkaido province in Japan declares state of emergency in response to the virus.
28 FEB,international,,,Dow Jones Index experiences worst single-session drop in history.
28 FEB,government,,,The Ministry of Home Affairs investigate and considers banning the activities of unregistered Singapore chapter of a secretive church at the centre of South Korea's coronavirus outbreak.
28 FEB,government,,,Ministry of Health debunks rumour alleging the death of a foreign domestic worker due to the coronavirus.
28 FEB,community,,,Two boys aged 12 and 17 are arrested for allegedly spitting inside public lifts in public housing (HDB) blocks.
29 FEB,international,,,US postpones ASEAN regional summit.
29 FEB,international,,,Japan cancels major cherry blossom festivals in Tokyo and Osaka.
29 FEB,international,,,US confirms first death from the virus.
29 FEB,international,,,"France bans gatherings of more than 5,000 people."
29 FEB,government,,,Prototype temperature self-checking kiosks go on trial at Toa Payoh under an initiative by several government agencies and local companies to encourage regular temperature taking.
29 FEB,government,"Prime Minister, President, and political / officeholders take pay cut while frontline staff / receive bonuses","Prime Minister, President, / and political officeholders / take pay cut while / frontline staff receive / bonuses","The Prime Minister, President, and all Cabinet ministers and political officeholders take a one-month pay cut, while frontline public officers receive up to one month's salary in special bonuses in recognition of their sacrifices."
29 FEB,community,Healthcare associations set up new fund for / frontline workers,Healthcare associations / set up new fund for / frontline workers,"The newly established Courage Fund, set up by the National Healthcare Group, SingHealth, Singapore Medical Association, Singapore Nurses' Association, and Singapore Press Holdings, aims to help frontline workers combat virus outbreaks."
29 FEB,community,,,Volunteers from the Agency for Integrated Care's Silver Generation Office visit older residents to locate nearby PHPCs and share on precautionary measures.
1 MAR,international,,,Australia and Qatar confirm first deaths from the virus.
1 MAR,international,,,WHO urges all countries to stockpile ventilators for critical COVID-19 cases
1 MAR,international,"Global death toll from the virus exceeds 3,000","Global death toll from / the virus exceeds / 3,000","Global death toll passes 3,000, driven by spikes in South Korean cases."
1 MAR,community,,,Singapore Airlines announces pay cut for management staff as global coronavirus outbreak continues to hit air travel demand.
1 MAR,community,,,"Thousands of Scouts and Guides band together to write cards of encouragement to frontline workers fighting the outbreak, such as staff at the Singapore General Hospital."
2 MAR,international,,,Hubei province reports sharp drop in daily cases to levels before January 24.
2 MAR,international,,,All crew and passenger members onboard Diamond Princess cruise ship have disembarked.
2 MAR,international,,,Indonesia confirms first 2 cases of the virus.
2 MAR,government,,,"Unionised companies in aviation offered an additional $500,000 in National Trades Union Congress funding for worker training during the outbreak downtime as part of Government's Stabilisation and Support Package."
2 MAR,government,,,Chinese work pass holders in manufacturing and services allowed to switch jobs within their sectors from 2 March; six-month interim measure gives firms more flexibility to deal with virus outbreak's labour challenges.
3 MAR,international,,,"Italy's confirmed cases surpass 2,000"
3 MAR,international,,,"Saudi Arabia, Ukraine confirm first cases of the virus."
3 MAR,international,WHO warns protective gear rapidly depleting / globally,WHO warns protective / gear rapidly depleting / globally,"WHO warns protective gear is rapidly depleting amid panic buying and market manipulation, while global spread of the virus accelerates."
3 MAR,international,,,Researchers at University of Toronto claim China began censoring coronavirus online discussions weeks before official acknowledgement.
4 MAR,international,,,World Bank rolls out US$12b aid package for the virus outbreak.
4 MAR,international,,,"Japan's confirmed cases surpass 1,000"
4 MAR,government,"Travel ban on visitors from Iran, northern Italy, / and South Korea","Travel ban on visitors / from Iran, northern / Italy, and South Korea","Singapore imposes entry and transit ban for new visitors with travel history in Iran, northern Italy, or South Korea within the last 14 days."
4 MAR,community,,,Singapore Post announces a hiring freeze and pay reduction for some upper-level management employees starting in April.
5 MAR,international,Saudi Arabia suspends 'umrah' pilgrimage,Saudi Arabia suspends / 'umrah' pilgrimage,Saudi Arabia temporarily suspends 'umrah' pilgrimage for citizens and residents as well as overseas visitors.
5 MAR,international,,,Italy deploys emergency field hospitals in virus-affected regions.
5 MAR,international,,,"China's death toll from the virus passes 3,000."
5 MAR,international,,,Australia introduces ban on new visitors from South Korea.
5 MAR,international,,,"Indonesia introduces ban on new visitors from Iran, Italy, and South Korea."
5 MAR,international,,,Japan introduces two-week quarantine on new visitors from China and South Korea.
5 MAR,international,,,Palestinian president declares state of emergency.
5 MAR,international,,,Ireland confirms first case of the virus.
5 MAR,international,,,UK and Switzerland confirm first deaths from the virus.
5 MAR,international,,,"Thailand's full-moon party in Koh Phangan, which attracts around 40 million foreign visitors a year, is cancelled."
5 MAR,international,,,Thailand's postal service begins disinfecting foreign mail packages despite WHO's advice to the contrary.
5 MAR,government,Homegrown nasal swab test deployed at / all entry points for symptomatic travellers,Homegrown nasal swab / test deployed at all / entry points for /  symptomatic travellers,"Travellers with fever or respiratory symptoms may undergo nasal swab test at all entry checkpoints, using test kit by the Home Team Science and Technology Agency and Veredus Laboratories."
6 MAR,international,,,Twitter bans posts that 'dehumanise people' in connection with COVID-19.
6 MAR,international,,,"Bhutan confirms first case of the virus, implements school closures and travel restrictions."
6 MAR,international,,,Vatican confirms first case of the virus.
6 MAR,international,,,South Korean central bank burns and quarantines cash as a COVID-19 precautionary measure.
6 MAR,international,,,"Seoul and Tokyo escalate diplomatic tensions over COVID-19 containment measures, suspending visa waivers and imposing quarantines."
6 MAR,international,,,"Major music, tech, and film festival South by Southwest is cancelled in Texas."
6 MAR,government,,,Twitter bans posts that 'dehumanise people' in connection with COVID-19.
6 MAR,government,,,"SG Clean Taskforce, headed by Minister for the Environment and Water Resources, is set up to raise hygiene standards at whole-of-nation level for the COVID-19 situation and beyond."
6 MAR,government,,,Ministry of Health tasks Singapore General Hospital to ascertain any lapses or breaches of processes and ensure patient safety following a case of patient-to-patient transmission.
6 MAR,community,,,Singapore Airlines cancels all flights to and from Milan until the end of May following restrictions imposed on travellers from northern Italy.
7 MAR,international,,,"Grand Princess cruise ship confirms 21 cases of the virus, with 3,533 passengers and crew quarantined on board. "
7 MAR,international,,,Hong Kong government advises citizens to defer non-essential travel outside the territory.
7 MAR,international,,,Malta confirms first case of the virus.
7 MAR,international,,,"South Korea's confirmed coronavirus cases surpass 7,000, most traced to the Shincheonji Church of Jesus."
7 MAR,international,,,Philippines prepares to declare health emergency after first case of community transmission of the virus.
7 MAR,international,,,Italy begins recruiting retired doctors to combat COVID-19.
7 MAR,community,,,"Singapore Kindness Movement launches ""Overcome as One"" campaign encouraging Singaporeans to show appreciation to frontline workers while being socially responsible and collaborative in responding to the virus."
7 MAR,community,,,"Singapore Airlines cabin crew are required to wear surgical masks on board, following several imported cases and an infected flight steward."
8 MAR,international,,,Bulgaria and the Maldives confirm first cases of the virus.
8 MAR,international,,,UN asks nine countries to delay rotations of UN peacekeeping forces by three months.
8 MAR,international,"Italy locks down northern regions, / affecting 15 million people","Italy locks down northern / regions, affecting 15 / million people","Italy locks down northern regions, affecting a quarter of its 60 million people."
8 MAR,international,,,"North Korea releases 3,600 people quarantined over COVID-19, claims to have no confirmed cases. "
8 MAR,international,,,Moscow threatens self-isolation flouters in Russia with prison terms of up to five years.
9 MAR,international,"Global confirmed cases surpass 100,000","Global confirmed cases / surpass 100,000","Global confirmed cases surpass 100,000; US confirmed cases surpass 500."
9 MAR,international,,,China reports zero cases of local transmission outside Hubei for second consecutive day.
9 MAR,international,,,"Italy's coronavirus death count triples in a day, making it the country with the second highest number of fatalities after China."
9 MAR,international,,,Several embassies in North Korea close as diplomats are evacuated.
9 MAR,international,,,China closes makeshift hospitals in outbreak epicentre as new confirmed cases fall.
9 MAR,international,,,"France bans gatherings of 1,000 people or more."
10 MAR,international,,,Dublin cancels iconic St. Patrick's Day parade over concerns about the virus.
10 MAR,international,,,US health authorities encourage older persons and other vulnerable groups to stockpile food and medicine and prepare to stay at home.
10 MAR,international,,,The first batch of Grand Princess cruise ship passengers are allowed to disembark in San Francisco.
10 MAR,international,,,"WHO warns that there is a 'very real' possibility of COVID-19 becoming a pandemic, after global confirmed cases surpass 100,000."
10 MAR,international,,,Israel imposes 14-day self-quarantine for visitors.
10 MAR,international,Italy enacts broad emergency lockdown / measures across country,Italy enacts broad / emergency lockdown / measures across country,"Italy enacts wide-ranging lockdown measures, banning public gatherings, Serie A football matches, weddings, marriages, baptisms, and funerals. "
10 MAR,international,,,Indonesian hospitals express concerns about availability of medical equipment as COVID-19 cases grow.
10 MAR,international,,,"Mongolia confirms first case of the virus, locks down cities for six days."
10 MAR,international,,,Passengers disembark from the Costa Fortuna cruise ship in Singapore after being turned away at Penang and Phuket.
10 MAR,international,,,"Therapists, counselling hotlines, and online wellness groups in China struggle with surging demand for mental help services due to the virus."
10 MAR,international,,,Bill & Melinda Gates Foundation and two other large charities pledge up to US$125 million towards coronavirus treatments.
10 MAR,international,,,Poland president cancels large election campaign meetings ahead of crucial presidential election in May.
10 MAR,international,,,Privacy concerns arise around South Korea's openness about infected patients despite its benefits to preventing viral spread.
10 MAR,international,,,"Thailand requires travellers from China, Macau, Hong Kong, Iran, Italy, and South Korea to present medical certificate proving a lack of COVID-19 infection before boarding."
10 MAR,government,Health Minister claims 'socially irresponsible / actions of a few' responsible / for many local cases,Health Minister claims / 'socially irresponsible / actions of a few' / responsible for many / local cases,"Health Minister claims many locally transmitted COVID-19 cases in Singapore are ""the result of the socially irresponsible actions of a few individuals"", advising the public to avoid social contact and see a doctor early if unwell."
10 MAR,government,,,All senior-centric activities conducted by government agencies are suspended for 14 days from March 11 to March 24.
10 MAR,community,,,NTU terminates an international postgraduate student from his course after he breached Stay Home Notice and repeatedly provided false information about his travel movements.
11 MAR,international,,,"Cyprus confirms first case of the virus on 9 March, closing schools, banning mass gatherings, and placing two major hospitals under lockdown."
11 MAR,international,,,"US confirmed cases surpass 1,000."
11 MAR,international,,,Australia announces US$1.6 billion health package to combat COVID-19.
12 MAR,international,,,Thailand files complaint against e-commerce platform Lazada for overpriced masks.
12 MAR,international,WHO declares COVID-19 a pandemic; drastic / measures enacted worldwide.,WHO declares COVID-19 / a pandemic; drastic / measures enacted / worldwide,WHO declares COVID-19 a pandemic.
12 MAR,international,,,"Hubei, the epicentre of COVID-19 in China, sees single-digit daily confirmed cases for first time."
12 MAR,international,,,"US announces suspension of all inbound travel from Europe for 30 days, not including the UK, starting March 13."
12 MAR,international,,,"Denmark shuts schools and universities after confirmed cases pass 500, in a tenfold rise over 2 days."
12 MAR,international,,,Italy shuts all stores except pharmacies and food shops for at least two weeks.
12 MAR,international,,,"India suspends all tourist visas until April 15, quarantines travellers from seven countries. "
12 MAR,international,,,Tokyo Olympics 2020 announces opening event amidst growing concern over COVID-19
12 MAR,international,,,California bans gatherings of over 250 or more until the end of March.
12 MAR,international,,,Twitter orders all staff globally to work from home.
12 MAR,international,,,Hubei eases production curbs and travel restrictions for some reasons as daily cases fall.
12 MAR,international,,,"Austria and Poland confirm first deaths from the virus, with the latter raising its epidemic alert level."
12 MAR,international,,,China cancels permits for access to Mount Everest due to COVID-19 fears.
12 MAR,international,,,Philippine president orders a lockdown of capital city Manila.
12 MAR,international,,,Several Latin American countries implement new restrictions on travellers from worst-affected countries and close major sports events.
12 MAR,government,,,"Civil Aviation Authority of Singapore requires passengers and crew on private or corporate planes, also known as business aviation aircraft, to make health declarations before they fly into Singapore."
12 MAR,government,,,Employers with 10 or more workers are required to notify the Ministry of Manpower if they introduce any cost-saving measures that affect employees’ monthly salaries.
12 MAR,government,Prime Minister Lee updates nation on COVID-19 / via media broadcast,Prime Minister Lee / updates nation on / COVID-19 via media / broadcast,"Prime Minister Lee Hsien Loong gives broadcasted update on the outbreak and necessary steps for protecting Singaporeans, planning for a possible spike, and addressing COVID-19's economic and societal impacts."
12 MAR,government,,,Three teenagers are arrested over an alleged spitting incident in a shopping mall in central Singapore.
12 MAR,community,,,Archbishop of Singapore William Goh stated on March 11 that public masses for Catholics here will remain suspended to minimise the risk of coronavirus spread.
13 MAR,international,,,India confirms first death from the virus.
13 MAR,international,,,"Italy's death toll surpasses 1,000, as Catholic churches across Rome close doors."
13 MAR,international,,,France shuts schools and urges elderly to remain at home due to COVID-19.
13 MAR,international,,,"US sees shortage of COVID-19 tests despite entry of private labs due to regulatory, technical, and logistical challenges."
13 MAR,international,,,Formula One closes season-opening Australian Grand Prix.
13 MAR,government,,,Singapore ceases port calls for all cruise vessels with immediate effect.
13 MAR,government,All ticketed cultural/sports/entertainment / events with >250 participants cancelled,All ticketed cultural/ / sports/entertainment / events with >250 / participants cancelled.,"Singapore cancels all ticketed cultural, sports, and entertainment events with 250 participants or more. Organisers of events already committed to must demonstrate satisfactory precautionary measures before proceeding."
13 MAR,government,,,"Singapore blocks entry or transit for visitors who have travelled to Italy, France, Spain, or Germany within the last 14 days. Returning Singaporeans and residents from these countries are issued Stay-Home Notices."
13 MAR,community,All Singapore mosques close for 5-day deep / cleaning,All Singapore mosques / close for 5-day deep / cleaning,All 70 mosques in Singapore close for five days for a thorough cleaning.
13 MAR,community,,,"Singapore Airlines and SilkAir cancel flights to and from several cities in India until April 26, following India's suspension of visitor visas."
14 MAR,international,,,"Disney, Netflix, and Warner Bros. shut down productions in response to the virus."
14 MAR,international,WHO declares Europe new COVID-19 epicentre.,WHO declares Europe / new COVID-19 epicentre,WHO declares Europe the new 'epicentre' of the COVID-19 pandemic.
14 MAR,international,,,Venezuela and Mauritiana confirm first cases of the virus; Scotland and Luxembourg confirm first deaths from the virus.
14 MAR,international,,,Vietnam denies entry and tourist visas to citizens from the UK and Europe's Schengen area.
14 MAR,international,,,Saudi Arabia suspends international flights into and out of the country.
14 MAR,international,,,Apple closes all stores outside of China as preventative measure.
14 MAR,international,,,New Zealand imposes self-isolation requirement to all people entering the country.
14 MAR,international,,,"Spain confirms more than 1,500 new cases in a day, raising total to 5,753 cases."
14 MAR,international,,,"Medical experts suggest that for unknown reasons, children experience less severe symptoms and may be less likely than adults to be infected by COVID-19."
15 MAR,international,,,Latvia and Lithuania close all borders; Norway closes ports and airports.
15 MAR,international,,,"Chile quarantines 1,300 people aboard two cruise ships after one passenger tests positive for COVID-19."
15 MAR,international,,,"France shuts down shops, restaurants, and entertainment facilities, telling people to stay home."
15 MAR,international,,,"US extends European travel ban to cover UK and Ireland, reviews domestic curbs for COVID-19."
15 MAR,international,Spain imposes drastic national lockdown / as cases and deaths surge.,Spain imposes drastic / national lockdown as / cases and deaths surge.,"Spain imposes national lockdown, banning people from leaving home except to go to work, buy food, or get medical care, as the country sees more than 2,000 new cases and 100 deaths in a day."
15 MAR,international,,,Egypt closes schools and universities for two weeks.
15 MAR,international,,,Australia imposes self-isolation for all international arrivals for 14 days.
15 MAR,international,,,Morocco stops flights from 25 countries after confirming 18 new coronavirus cases.
15 MAR,international,,,"Vatican cancels public participation at Holy Week and Easter services, which typically draw tens of thousands."
15 MAR,international,,,Brunei restricts residents from leaving the country as coronavirus cases rise to 50.
15 MAR,international,,,Vietnam implements compulsory testing for arrivals from coronavirus-hit areas.
15 MAR,government,"Singapore bans visitors with travel history in / Italy, France, Spain, or Germany in last 14 days.","SG bans visitors with / travel history in Italy, / France, Spain, or Germany / in last 14 days.","Singapore blocks entry or transit for visitors who have travelled to Italy, France, Spain, or Germany within the last 14 days. Returning Singaporeans and residents from these countries are issued Stay-Home Notices."
15 MAR,government,,,"Students on official overseas placements, including all internships and exchange programmes, asked to return to Singapore as soon as possible by the Ministry of Education."
15 MAR,government,,,All new and returning foreign domestic workers entering Singapore will be served a 14-day Stay-Home Notice.
15 MAR,government,,,Sport Singapore (SportSG) regulates user access across all its sports facilities from today to ensure adequate physical distancing among users.
15 MAR,government,,,"Ministry of Health advises Singaporeans to defer all non-essential travel for 30 days, subject to further review."
15 MAR,community,,,"National carrier Singapore Airlines waives all rebooking fees for tickets issued on or before March 15, for travel up to May 31."
16 MAR,international,,,"Germany reintroduces border controls with five countries, as Netherlands closes school, restaurants, sports clubs, and cafes."
16 MAR,international,,,Italy confirms 368 new coronavirus deaths as leaders warn of drastic bed and artificial respirator shortages.
16 MAR,international,,,Canada confirms coronavirus spread has reached all provinces.
16 MAR,international,,,"Venezuela quarantines seven states, including Caracas, "
16 MAR,international,,,"New York City and Los Angeles close restaurants, bars, and theatres. "
16 MAR,government,"Singapore imposes 14-day Stay-Home Notice / on visitors from ASEAN, Japan, Switzerland, UK.","Singapore imposes 14-day / Stay-Home Notice on / visitors from ASEAN, Japan, / Switzerland, UK.","All travellers—including Singapore residents, long-term pass holders and short-term visitors—entering the country with recent travel history to ASEAN countries, Japan, Switzerland or the UK within the last 14 days receive a 14-day Stay-Home Notice from 11:59pm."
16 MAR,government,,,"All short-term visitors who are nationals of any Asean country must submit, in advance, health information to the Singapore overseas mission in their country of residence; they must receive approval from Singapore's MOH before traveling here."
17 MAR,international,,,Germany's federal and state governments close all shops apart from essential services.
17 MAR,international,,,Malaysia bars citizens from overseas travel and closes borders to all inbound travellers for two weeks.
17 MAR,international,,,"Russia shuts down state schools, all outdoor and major sporting events; public events are limited to 50 people."
17 MAR,international,,,WHO calls for widespread testing of every suspected case as Europe enacts lockdowns.
17 MAR,international,US begins first human trial of coronavirus / vaccine.,US begins first human / trial of coronavirus / vaccine.,"US begins first human trial of coronavirus vaccine in Seattle, expected to become available in a year to 18 months."
17 MAR,international,,,"France imposes unprecedented lockdown measures, prohibiting travel out of home except for groceries, exercise, work, or medical care."
17 MAR,international,,,"Turkey closes cafes, sports and entertainment venues; mass prayers in mosques suspended."
17 MAR,international,,,"Chile announces total closure of borders for transit of foreigners, as new confirmed cases double over the weekend to 155."
17 MAR,international,,,Hong Kong imposes 14-day quarantine for all inbound travellers.
17 MAR,international,,,India closes the Taj Mahal; offices ordered to keep half of their workers at home.
17 MAR,international,,,Vietnam halts issuance of all new visas to foreign nationals in response to COVID-19.
17 MAR,international,,,Malaysia confirms first death from the virus.
17 MAR,international,,,Thailand closes schools for 14 days.
17 MAR,international,,,"Italy rushes 10,000 student doctors into service and cancels final exam requirements as emergency measure."
17 MAR,international,,,Brazil confirms first death from the virus.
17 MAR,government,Flow of goods and cargo between Singapore / and Malaysia to continue despite planned / border closure on 18 March.,Flow of goods and cargo / between SG and M’sia to / continue despite planned / border closure,"Prime Minister Lee assures Singaporeans that flow of goods and cargo between Singapore and Malaysia, including food supplies, would continue despite the latter's border closures."
17 MAR,community,,,"Telco company StarHub defrays housing rental costs for 2,000 lower-income seniors and donates $300,000 to the Courage Fund."
17 MAR,community,,,"Singapore Chinese Chamber of Commerce and Industry announces that the local business community has donated more than $1.24 million in cash and 23,800 units of medical supplies to affected communities in China and front-line medical workers in Singapore."
17 MAR,community,FairPrice supermarkets cap individual / purchases of essential products.,FairPrice supermarkets / cap individual purchases / of essential products.,"Supermarket chain FairPrice caps amount of certain essential products which customers can buy, including toilet paper, poultry, instant noodles and rice, after Malaysia's announcement of a nationwide lockdown to prevent further spread of the coronavirus."
18 MAR,international,,,China approves first human trials of potential vaccine for COVID-19.
18 MAR,international,,,Turkey confirms first death from the virus.
18 MAR,international,,,Finland restricts traffic over borders to essential functions.
18 MAR,international,,,WHO calls for 'aggressive action' in Southeast Asia to combat fast spread of COVID-19.
18 MAR,international,,,US announces plans to turn back all asylum seekers at Mexican border.
18 MAR,international,,,Switzerland government official warns that the country's healthcare system could collapse by end March with current viral spread rates.
18 MAR,international,,,"Australian prime minister declares human biosecurity emergency and bans all indoor gatherings of more than 100 people that are not essential, with an indefinite ban on foreign travel."
18 MAR,international,China begins first human trial of coronavirus / vaccine amidst US media spat.,China begins first human / trial of coronavirus / vaccine amidst US media / spat.,"China expels US journalists at the New York Times, Washington Post, and Wall Street Journal in light of tensions around media portrayal of the virus."
18 MAR,international,,,Colombia requires senior citizens to self-isolate from March 20.
18 MAR,government,,,Private-hire car drivers affected by the coronavirus slowdown but who did not qualify for February's aid package are invited to apply for a new fund set up by the Government and the National Trades Union Congress.
18 MAR,government,,,"POFMA Office clarifies that Facebook posts claiming that the People's Association and/or Residents' Committees were involved in organising a dinner event at SAFRA Jurong, which a COVID-19 cluster is linked to, are false."
18 MAR,community,SBS Transit secures temporary housing for / Malaysian bus drivers due to border closure.,SBS Transit secures / temporary housing for / Malaysian bus drivers / due to border closure.,"Public transport operator SBS Transit secures temporary accommodation at several hotels for Malaysian bus drivers ahead of a lockdown that starts in Malaysia this day, allowing Singapore bus services to continue."
19 MAR,international,,,Burkina Faso confirms first death from the virus in Sub-Saharan Africa.
19 MAR,international,,,Taliban in Afghanistan pledge willingness to work with WHO and healthcare workers.
19 MAR,international,United Nations suggests COVID-19 could / cost 25 million jobs.,United Nations suggests / COVID-19 could / cost 25 million jobs.,United Nations suggests COVID-19 could make another 25 million people jobless.
19 MAR,international,,,"Ireland calls retired medics to work, receives huge response."
19 MAR,international,,,Italy confirms 475 new coronavirus deaths in highest death toll globally to date.
19 MAR,international,,,"Study suggests patients with existing conditions causing breathlessness, wheezing, or lung problems especially vulnerable to severe COVID-19 infections."
19 MAR,international,,,"China reports no new confirmed domestic cases for the first time, but receives 34 imported cases."
19 MAR,international,,,"Cases and deaths in France spike during second day of lockdown, rising 18% and 51%, respectively."
19 MAR,international,,,Fiji confirms first case of the virus.
19 MAR,international,,,Major Muslim pilgrim gathering in Indonesia cancelled after considerable debate.
19 MAR,international,,,Australia and New Zealand shut borders to all non-residents.
19 MAR,international,,,"Indonesia confirms 25 deaths from the virus, the highest single-day toll in Southeast Asia to date."
19 MAR,international,,,"Bangladesh confirms first death from the virus, receives criticism for mass COVID-19 prayer gathering of tens of thousands."
19 MAR,international,,,"Red Cross warns Indonesia to consider lockdowns and more stringent measures, as virus spread is likely underestimated due to low levels of testing."
19 MAR,international,,,US researchers follow other countries' lead in testing two generic drugs as treatments for COVID-19.
19 MAR,international,,,"Philippines ceases issuing visas to all foreigners, banning all nationalities from entering the country."
19 MAR,international,,,Hungary deploys military task forces to monitor and report on 140 state companies providing critical services.
19 MAR,international,,,Iran confirms 149 new coronavirus deaths and more than a thousand new cases the previous day.
19 MAR,government,,,Ministry of Education announces National School Games will remain suspended till the end of the June school holidays.
19 MAR,government,Schools and kindergartens reopen after holidays / with stringent measures.,Schools and kindergartens / reopen after holidays / with stringent measures.,"Schools and kindergartens reopen the following Monday as planned, with stricter measures that include requiring students and staff with overseas travel history from March 14 to serve a 14-day isolation period upon return."
19 MAR,government,,,"Multi-agency effort headed by Ministry of Manpower temporarily helps around 2,000 employers house most of their Malaysian workers over past three days, following Malaysia's border lockdown. "
20 MAR,international,"Italy's COVID-19 death toll now world's highest, / after China's.","Italy's COVID-19 death / toll now world's / highest, after China's.","Italy's COVID-19 death toll surpasses China's at 3,405."
20 MAR,international,,,"India's Prime Minister Modi orders single-day nationwide virus curfew, bans incoming international flights for over a week."
20 MAR,international,,,"UN Secretary General warns of millions of potential deaths, especially in vulnerable parts of the world, without a coordinated global response."
20 MAR,international,,,US urges all citizens to avoid international travel and return home.
20 MAR,international,,,"Slovakia accepts China's aid offer of a million face masks and 100,000 rapid-result test kits."
20 MAR,international,,,Governments all over the world draft large-scale manufacturers into producing medical essentials against COVID-19.
20 MAR,international,,,Brazil shuts nearly all land borders; Rio de Janeiro closes beaches for two weeks.
20 MAR,international,,,California implements stay-at-home order across the state; US encourages using bandanas and scarves if masks are unavailable.
20 MAR,international,,,Pharmaceutical industry expects new coronavirus vaccine to be available in 12 to 18 months.
20 MAR,international,,,China confirms second day of zero local cases as imported cases rise.
20 MAR,international,,,US President Trump suggests using cruise ships as 'floating hospitals' after offer by Carnival Cruise Line.
20 MAR,government,"Health Sciences Authority removes >2,500 / health-product listings with false/misleading / claims around COVID-19.","HSA removes >2,500 / health-product listings / with false/misleading / claims around / COVID-19.","Health Sciences Authority removes more than 2,500 listings of health products with false, misleading claims about treating or preventing COVID-19 from local e-commerce platforms."
20 MAR,government,,,Islamic Religious Council of Singapore urges Muslims in Singapore to avoid large religious gatherings overseas to prevent virus spread.
20 MAR,government,,,"Ministry of Manpower secures accommodation for 10,000 Malaysian workers, defrays housing costs, and patrols for stranded workers after Malaysia's border closure."
20 MAR,government,,,"Singapore ramps up import of eggs from countries other than Malaysia, with 300,000 eggs arriving from Thailand."
20 MAR,community,,,Keppel Corp launches more-than-$4.2 million package towards utilities rebates for lower-income households and support for its frontline staff.
20 MAR,community,Singapore Airlines flies citizens and PRs / studying in UK home.,Singapore Airlines flies / citizens and PRs / studying in UK home.,Singapore Airlines works with government to fly Singaporeans and permanent residents studying in the UK home at special fare rates.
21 MAR,international,,,World Food Organisation reports 300 million children are missing school meals due to COVID-19 measures.
21 MAR,international,,,"UK shuts cafes, pubs, restaurants, theatres, and gyms indefinitely all over the country. "
21 MAR,international,,,"Canada confirms more than 1,000 cases of the virus, turns back asylum seekers."
21 MAR,international,,,Belgium closes borders to non-essential travel; Cuba closes borders to non-residents.
21 MAR,international,,,Sri Lanka imposes nationwide curfew.
21 MAR,international,"Experts warn of world food inflation from / lockdowns and panic buying, despite ample supplies.","Experts warn of world / food inflation from / lockdowns & panic buying, / despite ample supplies.",Experts warn of world food inflation despite ample supplies due to lockdowns and panic buying.
21 MAR,international,,,Negotiations for USD $1 trillion COVID-19 stimulus stall as Democrats push for stronger worker protections and family support outlays.
21 MAR,international,,,"Japan confirms more than 1,000 cases of the virus."
21 MAR,international,,,WHO warns youths that they are 'not invincible' to COVID-19 and that their actions may imperil others.
21 MAR,community,,,Singapore Press Holdings gives care packages and $30 daily allowance to Malaysian staff
22 MAR,international,,,"Bolivia announces total quarantine across nation, with only one person per family allowed to buy essentials each day."
22 MAR,international,,,"Angola, Eritrea, and Uganda confirm first cases of the virus."
22 MAR,international,,,France orders 250 million masks in response to acute nationwide shortage that has angered frontline medical staff.
22 MAR,international,,,"Italy confirms almost 800 deaths from the virus, setting global daily record. Factories shut."
22 MAR,international,,,Gaza authorities confirm first two cases of the virus; Romania confirms first death from the virus.
22 MAR,international,,,"Thailand reports largest daily increase in confirmed cases with 188 new cases, bringing total to just under 600 cases."
22 MAR,international,China begins clinical trial for COVID-19 vaccine.,China begins clinical / trial for COVID-19 / vaccine.,China begins clinical trial for COVID-19 vaccine.
23 MAR,international,,,"International Olympic Committee considers postponing 2020 Olympics in Tokyo, but assures cancellation 'not on agenda'."
23 MAR,international,,,"Italy confirms 651 deaths in past day, with total death toll nearing 5,500."
23 MAR,international,,,UK scientists begin tracking coronavirus spread and emerging mutations using gene sequencing.
23 MAR,international,,,"Australia begins lockdown measures, shutting down pubs, clubs, gyms, and houses of worship as cases spike."
23 MAR,international,Asia-Pacific countries boost precautions; / Australia and New Zealand enter lockdown.,Asia-Pacific countries / boost precautions; Australia / and New Zealand / enter lockdown.,"Asia-Pacific countries step up precautionary measures amidst second outbreak waves: lockdowns, travel bans, and management of medical supplies."
23 MAR,international,,,New Zealand's cases double; government declares highest threat alert and impending lockdown in 48 hours.
23 MAR,government,"Singapore tightens borders, denies short- / term non-resident visitors entry or transit.","SG tightens borders, / denies short-term / non-resident visitors / entry or transit.","Singapore significantly tightens its borders from 11.59pm to reduce imported COVID-19 cases, with all short-term visitors no longer allowed to enter or transit through the country."
24 MAR,international,,,UN chief appeals for 'immediate global ceasefire' to protect vulnerable civilians amidst COVID-19.
24 MAR,international,,,Myanmar confirms first cases of the virus; Iceland confirms first death.
24 MAR,international,,,Cuba quarantines tourists and shuts borders for a month.
24 MAR,international,,,Japanese biopharmaceutical firm Anges and Osaka University begin animal testing of coronavirus DNA vaccine. 
24 MAR,international,,,Taiwan's confirmed cases surpass 200 for the first time.
24 MAR,international,,,Chile blocks cruise ship with passengers displaying symptoms of COVID-19.
24 MAR,international,,,"Germany's confirmed cases rise by 4,764 in a day, surpassing 27 thousand."
24 MAR,international,,,"Italy's Civil Protection Agency head says actual COVID-19 cases are probably ten times higher than official tally of almost 64,000."
24 MAR,international,,,WHO declares US has potential to become new global coronavirus epicentre.
24 MAR,international,Tokyo 2020 Olympics postponed; UN requests / immediate global ceasefire.,Tokyo 2020 Olympics / postponed; UN requests / immediate global ceasefire.,Japan's prime minister and International Olympic Committee head agree to postpone Tokyo 2020 Games by a year.
24 MAR,government,,,Returning Singapore residents who have travelled to the UK and US are to serve out their stay-home notices at hotels instead of at home to prevent potential spread to family members.
24 MAR,government,,,Islamic Religious Council of Singapore announces that mosques will remain closed until further notice amid heightened risk of COVID-19 community transmission.
24 MAR,government,,,Singapore residents or long-term pass holders who leave the country despite government travel advisories will have to pay full hospital charges if admitted for coronavirus-related treatment upon return.
24 MAR,government,,,"Singapore sends 3,000 diagnostic tests and a polymerase chain reaction machine to the Philippines."
24 MAR,government,,,"Ministry of Manpower announces immediate three-month extension for small and medium-sized enterprises paying levies for hired foreign workers, giving them more cash flow flexibility."
25 MAR,community,A*STAR and Lucence develop COVID-19 test / kit that supports room-temperature samples.,A*STAR and Lucence / develop COVID-19 test kit / that supports room- / temperature samples.,"Agency for Science, Technology and Research and Lucence, a genomics company, jointly develop a new test kit that allows room-temperature rather than refrigerated transportation of samples,"
26 MAR,international,,,"Thailand closes borders, enacts state of emergency."
26 MAR,international,"Global COVID-19 death toll passes 20,000.","Global COVID-19 death / toll passes 20,000.","Global COVID-19 death toll passes 20,000."
26 MAR,international,,,"UNICEF warns COVID-19 is making parents skip routine immunisations for children, increasing vulnerability to other infections."
26 MAR,government,Government declares $48.4 billion in / economic support—near 11% of GDP.,Government declares / $48.4 billion in economic / support—near 11% of GDP.,COVID-19 Multi-Ministry Task Force limits gatherings outside school and work to fewer than 10 people until April 30.
26 MAR,government,,,"Singapore government debunks messages circulating online that Singapore will go into lockdown, that the DORSCON alert level will be raised to red, and that transport systems will be halted."
26 MAR,government,,,"Singapore government sets aside a further $48.4 billion to support businesses, workers and families, on top of $6.4 billion in easing measures announced just over a month ago."
26 MAR,government,,,"Firms will receive wage subsidies of between 25 percent to 75 percent for all local workers over 9 months, up from the 8 percent wage subsidy over 3 months in the Jobs Support Scheme announced in the Budget statement announced in February."
26 MAR,government,,,"Self-employed persons each receive $9,000 in cash support, amounting to $1.2 billion under the Self-Employed Person Income Relief Scheme."
26 MAR,government,,,"Cash payouts announced in Budget 2020 last month are tripled, with all adult Singaporeans receiving $300, $600, or $900 depending on their income."
26 MAR,government,,,"Some 10,000 jobs will be created over the next year to provide employment for locals amid the downturn; people unemployed due to the coronavirus outbreak receive monthly cash grant of $800 for three months."
26 MAR,government,,,"From May, all employers who send their workers for selected training programmes can receive additional funding support from SkillsFuture Singapore, to encourage workers to upgrade their skills during the downtime."
26 MAR,government,,,"The Prime Minister, Cabinet ministers, and other political office-holders, as well as the President, take a three-month pay cut in solidarity with Singaporeans."
26 MAR,government,,,"Patients with acute respiratory symptoms who are issued a five-day sick leave by a medical practitioner must not leave their homes from the day the medical certificate is issued; disobedience risks a fine, imprisonment, or both."
26 MAR,government,,,Private bus operators left out of last month's transport-specific support package will get handouts worth $23 million.
26 MAR,government,,,"Arts and culture sector will get a $55 million support package, on top of the $1.6 million set aside earlier, to save jobs and encourage groups to upskill and go digital."
26 MAR,government,,,"Taxi and private-hire car drivers to get more financial aid, including an extra $95 million support package, the Self-Employed Person Income Relief Scheme, and waivers."
26 MAR,government,,,"Stallholders at hawker centres and markets, as well as eligible commercial tenants, get enhanced rental waivers."
26 MAR,government,,,"Owners of qualifying commercial properties badly affected by the coronavirus outbreak, including hotels, serviced apartments, tourist attractions, shops and restaurants, will not need to pay property tax for 2020."
26 MAR,government,,,"Government freezes all government fees and charges for one year from May 2020 to March 31, 2021, as well as all loan repayment and interest charges for graduates under government loans for university and polytechnic studies, from June 2020 to May 2021."
26 MAR,government,,,Maritime and Port Authority grants 50 per cent in port dues concession for passenger vessels till end 2020 under the Supplementary Budget announced in Parliament.
26 MAR,community,,,Singapore Pools indefinitely shuts wage placing at live betting venues as well as all Livewire venues for live sports betting and off-course betting centres for horse racing.
26 MAR,community,NUS and NTU allow students to write off their / grades for modules this semester.,NUS and NTU allow / students to write off / their grades for modules / this semester.,"NUS and NTU allow students to write off their grades for modules this semester, to ease anxieties about the outbreak's disruptions to learning."
27 MAR,international,,,"Switzerland's confirmed cases surpass 10,000. "
27 MAR,international,,,"China closes most international flight routes, denies returning foreigners based in the country entry over concerns about imported cases."
27 MAR,international,,,Australian researchers trial tuberculosis vaccine against COVID-19.
27 MAR,international,"US leads world in confirmed COVID-19 cases, / surpassing 82,000.","US leads world in / confirmed COVID-19 / cases, surpassing 82,000.","US leads world in confirmed COVID-19 cases, surpassing 82,000."
27 MAR,international,,,WHO urges G20 nations to boost production of protective gear as pandemic accelerates 'at an exponential rate'.
27 MAR,international,,,"Hong Kong reports largest daily rise in confirmed cases to date, bans gatherings of more than 4 people."
27 MAR,government,,,"All travellers arriving in Singapore must submit online health declarations before proceeding with immigration clearance, regardless of residential and citizenship status."
27 MAR,government,Government introduces stronger social / distancing measures and flouting penalties.,Government introduces / stronger social distancing / measures and flouting / penalties.,"Government prohibits intentionally sitting less than one metre away from another person in a public place, sitting on a fixed seat marked not to be occupied, or standing in a queue less than one metre away from another person—fines of up to $10,000, jail terms up to six months, or both apply."
27 MAR,community,,,"Supermarket chain NTUC FairPrice restricts customers to two packs of paper products, down from four, and introduces new limits of six cans of canned products, five litres of cooking oil, and $30 of frozen poultry."
28 MAR,international,,,"Italy's confirmed COVID-19 deaths surpass 9,000, number of cases surpass China's at 86,498."
28 MAR,international,"US confirmed cases surpass 100,000; global / cases surpass 600,000.","US confirmed cases / surpass 100,000; global / cases surpass 600,000.","US confirmed cases surpass 100,000; global cases surpass 600,000."
28 MAR,international,,,"Brunei confirms first death from the virus; Iran's confirmed deaths surpass 2,500."
28 MAR,government,Government advises public to avoid / non-essential trips to malls and stay at home.,Government advises / public to avoid non- / essential trips to / malls and stay at home.,Government advises public to avoid non-essential trips to malls and stay at home.
29 MAR,international,,,"Greece's confirmed cases surpass 1,000."
29 MAR,international,,,"Italy's confirmed deaths surpasses 10,000, US's 2000, and UK's 1000. New Zealand confirms first COVID-19 death. "
29 MAR,government,,,SG Clean ambassadors network launched to coordinate efforts to promote personal hygiene and social responsibility to help reduce the spread of the coronavirus.
29 MAR,community,,,Community efforts to support those affected by the coronavirus continue; The Courage Fund receives more than $5.9 million in donations.
30 MAR,international,,,Syria confirms first death from the virus.
30 MAR,international,,,"Iran confirmed cases surpass 40,000, deaths surpass 2,700."
30 MAR,international,,,Italy extends national lockdown to mid-April as number of new confirmed cases declines.
30 MAR,international,Spain's confirmed cases surpass China's.,Spain's confirmed cases / surpass China's.,"Spain's confirmed cases surpass China's at 85,195."
30 MAR,international,,,Australia enacts strict new lockdown powers.
30 MAR,government,,,"Prime Minister Lee Hsien Loong debunks fake email in his name asking for ""contributions and thoughts"" on COVID-19."
30 MAR,community,,,Clap For #SGUnited organises show of support for frontline workers by having residents cheer and applaud from their homes at 8pm.
30 MAR,community,,,ComfortDelGro extends daily rental relief until September to help taxi drivers affected by the prolonged virus outbreak
30 MAR,community,,,Singtel offers three months' free access to some television channels for all Singapore residents.
31 MAR,international,,,"US death toll surpasses 3,000 in deadliest day yet."
31 MAR,government,,,"For at least a month, Singapore Armed Forces will conduct training in smaller groups and defer all in-camp training not essential for operations."
1 APR,international,British scientists conclude loss of taste/smell / is a key COVID-19 symptom.,British scientists / conclude loss of taste/ / smell is a key / COVID-19 symptom.,British scientists conclude loss of taste/smell key is a key COVID-19 symptom.
1 APR,international,,,"WTO, UN food and health agencies stress need to protect global food supply chains against possible shortages and price spikes."
1 APR,international,,,"US confirmed deaths surpass 4,000. Germany's cases rise by 5,453 in a single day, reaching 67,366."
1 APR,international,,,"Singapore's confirmed cases surpass 1,000."
1 APR,government,All schools conduct one day of home-based / learning a week.,All schools conduct one / day of home -based / learning a week.,All schools conduct one day of home-based learning a week in light of the recent spike of COVID-19 cases.
1 APR,government,,,All six autonomous Singapore universities freeze tuition fee hikes for Singaporeans enrolled in government-subsidised undergraduate and postgraduate programmes for the academic year 2020.
1 APR,government,,,Markings are drawn on the floor at 83 wet markets as part of safe distancing measures.
1 APR,government,,,"Ministry of Manpower allows work-permit holders of any nationality to take jobs in other sectors, as long as their current employers agree to the switch."
1 APR,community,,,SIA Engineering Company management takes deeper pay cuts than previously announced; directors volunteer a larger fees reduction.
1 APR,community,,,Great Eastern offers six-month grace period for life insurance premium payments to Singapore customers whose incomes have been affected by COVID-19.
2 APR,international,,,"US confirmed cases surpass 200,000, with largest single-day death toll at 884."
2 APR,international,,,UK confirms daily COVID-19 deaths surpass 500 for first time.
2 APR,international,"WHO warns COVID-19 spread now exponential, / one million cases and 50,000 deaths expected in days. ","WHO warns COVID-19 / spread now exponential, / one million cases and / 50,000 deaths  expected ","WHO warns that COVID-19 spread is approaching exponential growth, will reach one million cases and 50,000 deaths in days. "
2 APR,international,,,"COVID-19 confirmed cases in Latin America reach 20,000."
2 APR,government,,,"All nursing homes will turn visitors away until the end of the month, following the emergence of a new cluster at a nursing home on April 1."
3 APR,international,,,"Malaysia's confirmed cases surpass 3,000, "
3 APR,international,Global confirmed cases surpass one million.,Global confirmed cases / surpass one million.,"Global confirmed cases surpass one million, Spain and UK see record deaths."
3 APR,international,,,World Bank approves emergency COVID-19 funds amounting to US$1.9 billion.
3 APR,international,,,"US single-day deaths hit new global daily high at 1,169."
3 APR,international,,,UN approves resolution calling for 'international cooperation' and 'multilateralism' in first text since COVID-19 outbreak.
3 APR,government,,,"A self-disinfecting coating that lasts for three months, called 'sdst', is applied to buttons in HDB lifts and lift lobbies. The coating has been used at Changi Airport and kills bacteria, viruses, and fungi upon contact."
3 APR,government,Health authorities release online COVID-19 / self-screening tool.,Health authorities / release online COVID-19 / self-screening tool.,"National University Health System, National Centre for Infectious Disease and the Ministry of Health Office for Healthcare Transformation releases online screening tool for worried members of the public for them to do a quick self-check and get basic advice."
