type,description,location,origin,reason,method,victim,legend
Hantu Galah,"It goes by the name 'Hantu Tinggi' as well. The most obvious trait about this creature is its height. The Hantu Galah is a nature spirit, and it exists primarily in forested areas.","While it lives in forested areas, people have witnessed the Hantu Galah in urban areas.",,,"Usually, it misleads people who are unfortunate enough to walk in its path or between its legs. It is believed that when you walk through the legs of the Hantu Galah, you will end up in an alternate dimension and will be unable to find your way back. This is similar to the chinese myth of Ghost-Cover-Your-Eyes (鬼遮眼), except that the victim is literally in another dimension.",,"The Hantu Galah is often blamed for children going missing in the forest. In some legends, it is believed that the hantu will crush you with its long legs."
Djinn,"Djinns are similar to humans; they have their temperaments, urges, ambitions, and desires, except that they can live for a much longer time. In pop culture, Aladdin’s Genie is a caricature of the supernatural Djinn. Djinns are shapeshifters, but they tend to be giants. They are also often related to elements, like fire, water, wind, and earth.","More presently, some families in Singapore and Indonesia Eugene has personally spoken to have confirmed that there is a Djinn that is tied to their family line. In Java and Bawean, it is not uncommon for families to keep Djinns.","The Djinn has been thoroughly researched over the years, with many scholars citing their existence even during the time of King Solomon and before Adam.","Djinns will not bother you unless you invite them to by using mantras. They exist alongside us. Just like humans, they can fall in love and start a family.","Some go to Djinns for powers, but it is when this deal or pact is broken that the Djinn will get aggressive. Djinn possession may also cause the victim to adopt its personality and behave differently.

Some Djinns are good and some are bad. Djinns can also appear to be controlled by you, but in fact they are the ones controlling you.",,
Pontianak,"Pontianaks are shapeshifters and can hide in plain sight, but often appear as old women with white wiry hair. There is a scent of flowers or stench of decay when she is nearby.","Locations where there are trees, such as plantations, swamps or forested areas.

In Singapore, the most common Pontianak sightings occur in Changi, Sembawang Park, Punggol Road, Pasir Ris Park, and Halifax Road carpark.","According to Indonesians, they still refer to Pontianaks as 'Kuntilianak'. Either way, it refers to the ghost of a woman who died at childbirth and returned as a vengeful vampire seeking the life of men, women, and children.",A Pontianak is created when a woman who dabbles in black magic dies at childbirth or when she dies at childbirth from a curse from another practitioner.,Sometimes they toy with their victims by following them or singing aloud to get their attention. Some stories say the Pontianak kills her prey from fright by revealing her true form or by clawing out their innards and drinking their blood.,"Men, women, children","The city of Pontianak in Kalimantan got its name from this creature. In 1771, Sultan Syarif Abdurrahman Alkadrie had to fight off Pontianaks with cannonballs to establish his territory. This legend is well-known among the people of the city and there’s even a celebration each year where they toss around wooden cannonballs to commemorate their history.

An old man I spoke with (let’s call him Soong) whose family owned a piece of plantation in Malaysia claimed to have witnessed the haunting of the Pontianak when he was little. According to his story, there was a death in a nearby village and shortly after, people starting reporting sightings of a Pontianak in the plantation. Soong’s father was tasked with the job of finding the ghost, as he was one of the seniors of the village. Soong remembers seeing a shaman leading his father to the grave where he unearthed the lady who had died during childbirth. Though Soong himself was not allowed to look into the grave, he remembers getting the chills because all the adults were visibly spooked out. The shaman told everyone to leave and come back in the morning. Soong didn’t know what happened after but later on, his father told him that the shaman had died during the ritual. Subsequent shamans all refused to take on the task. One medicine man from a nearby village heard the news and travelled down. He dug up the grave and placed a deceased fetus in her hands as a gift in exchange for peace. After that ritual, there was no more sightings of the Pontianak."
Toyol,"The Toyol is a child spirit that is bound to a master and will do their master's bidding. This ghost is still actively used today in Indonesian, Thai and Malay magic.",,Most mediums agree that the Toyol originated from Javanese magic.,To do its master’s bidding.,"The Toyol is usually very subtle. Things may go missing or move on their own. Sometimes the Toyol will be sent to be an attachment to their master’s enemy, to make life difficult for them.",,"The way to invoke and bind the spirit differs among cultures. While the spirit is able to help you in many ways, most people use Toyols to steal from other people or for revenge. Malicious use of Toyols will make it turn evil whereas users who use them for good will help generate goodwill for the spirit to be reincarnated.

The keeper needs to take care of the Toyol and feed it with something sweet or with blood. Presently, the Thai variations of the ghost are the most common ones in Singapore."
Orang Minyak,"The Orang Minyak came about more recently than the Pontianak or the Penanggalan. It is not exactly a ghost, but a man who uses black magic to give himself powers to rob villagers. To cast the spell, he needs to douse himself with oil, which is how the Orang Minyak got its name - 'minyak' means oil.",,The Orang Minyak originated from Malaysia and its folklore spread to Singapore.,"The Orang Minyak does not haunt the living. He robs people, but some of them have taken advantage of the power to be unseen to do other nefarious crimes.","The spellcaster needs to use special ingredients to cast this spell and one of them is a candle made from the chin oil of corpses. The Orang Minyak can magically unlock doors, and he lights the candle when he has slipped into the house. For as long as the candle is burning in the house, the occupants will not be able to wake up.",Young women,"The Orang Minyak aims to use black magic to obtain powers for sneaking into people’s houses and stealing things. Besides just robbing the family, they would sometimes take the opportunity to rape sleeping women."
Hantu Penanggalan,"A disembodied head that flies around with its entrails, looking for blood. 'Penanggal' means to detach or remove. This creature is found in many folklores across Southeast Asia.",,"It is difficult to pinpoint exactly which country they originated from, as almost all Asian cultures have their own variations of this ghost. Unlike the Pontianak, the Penanggalan is not an undead, but a creature that is linked to black magic.","They haunt to keep the spell active. Black magic comes with a price, and it almost always requires blood to strengthen.","The Penanggalan mainly bites and sucks blood. It is believed that if the blood dripping from its entrails touches human skin, it will leave a permanent scar.",Pregnant women and young children,"In ancient times, the spell to detach one’s head and have it fly around was commonly casted. However, blood was required to keep the spell going.

When you see a Penanggalan, it probably means that her body is nearby. If you can find the body before daybreak and stuff glass shards down the cavity where the head is supposed to reattach to, the Penanggalan will be unable to return to the body and resume her human form.

Even in modern times, some villages would still surround a house with pineapples stuck on spikes, especially when a child is being delivered. They believe that it would make it harder for the Penanggalan to fly in, because her entrails would be caught by the spikes on the pineapple."