<?xml version="1.0" encoding="utf-8"?>
<!-- Generator: Adobe Illustrator 23.0.3, SVG Export Plug-In . SVG Version: 6.00 Build 0)  -->
<svg version="1.1" id="Layer_1" xmlns="http://www.w3.org/2000/svg" xmlns:xlink="http://www.w3.org/1999/xlink" x="0px" y="0px"
	 viewBox="0 0 512 512" style="enable-background:new 0 0 512 512;" xml:space="preserve">
<style type="text/css">
	.st0{fill:#FFFFFF;}
</style>
<path class="st0" d="M256,504c137,0,248-111,248-248S393,8,256,8S8,119,8,256S119,504,256,504z M40,256c0-118.7,96.1-216,216-216
	c118.7,0,216,96.1,216,216c0,118.7-96.1,216-216,216C137.3,472,40,375.9,40,256z M371.7,238l-176-107c-15.8-8.8-35.7,2.5-35.7,21
	v208c0,18.4,19.8,29.8,35.7,21l176-101C388.1,270.9,388.1,247.2,371.7,238z M192,335.8V176.9c0-4.7,5.1-7.6,9.1-5.1l134.5,81.7
	c3.9,2.4,3.8,8.1-0.1,10.3L201,341C197,343.3,192,340.4,192,335.8z"/>
</svg>
