<?xml version="1.0" encoding="UTF-8" standalone="no"?>
<!DOCTYPE svg PUBLIC "-//W3C//DTD SVG 1.1//EN" "http://www.w3.org/Graphics/SVG/1.1/DTD/svg11.dtd">
<svg width="100%" height="100%" viewBox="0 0 172 19" version="1.1" xmlns="http://www.w3.org/2000/svg" xmlns:xlink="http://www.w3.org/1999/xlink" xml:space="preserve" xmlns:serif="http://www.serif.com/" style="fill-rule:evenodd;clip-rule:evenodd;stroke-miterlimit:10;">
    <g transform="matrix(1,0,0,1,-4.56666,-0.0456441)">
        <g transform="matrix(2.429,0,0,1,16.4539,5.39008)">
            <path d="M0,3.989L61.776,3.989" style="fill:none;fill-rule:nonzero;stroke:rgb(63,63,63);stroke-width:1px;"/>
        </g>
        <g transform="matrix(1.81191,0,0,1.81191,-90.7611,1.97646)">
            <path d="M60.609,7.978L52.612,3.989L60.609,0L60.609,7.978Z" style="fill:rgb(63,63,63);fill-rule:nonzero;"/>
        </g>
    </g>
</svg>
