<svg width="450" height="225" viewBox="0 0 450 225" fill="none" xmlns="http://www.w3.org/2000/svg">
<rect width="450" height="225" fill="#A03E3B"/>
<rect width="6.17922" height="6.17922" transform="matrix(0.707109 -0.707105 0.707109 0.707105 169.577 116.869)" fill="#E05A35"/>
<rect width="10.1564" height="10.1564" transform="matrix(0.707106 -0.707107 0.707106 0.707107 76.9301 39.4427)" fill="#BF4A47"/>
<rect width="9.89653" height="9.89653" transform="matrix(0.707108 0.707106 -0.707108 0.707106 367.246 146.415)" fill="#E05A35"/>
</svg>
