{
  "type": "FeatureCollection",
  "features": [   
    {
      "type": "Feature",
      "properties": {
        "bird": "Great Knot",
        "color": "#783637"
      },
      "geometry": {
        "type": "LineString",
        "coordinates": [
          [
            122.300688,
            -17.965585
          ],
          [
            122.716617,
            12.416023
          ],
          [
            123.796268,
            35.697654
          ],
          [
            144.293583,
            47.911628
          ],
          [
            149.987744,
            66.914788
          ]
        ]
      }
    },
    {
      "type": "Feature",
      "properties": {
        "bird": "Bar-tailed Godwit",
        "color": "#748DC5"
      },
      "geometry": {
        "type": "LineString",
        "coordinates": [
          [
            172.24909,
            -41.91655
          ],
          [
            154.350469,
            -7.109108
          ],
          [
            147.14028,
            12.46144
          ],
          [
            124.133333,
            39.8
          ],
          [
            142.616804,
            43.156228
          ],
          [
            198.98300170898438,
            60.93109943850803
          ]
        ]
      }
    },
    {
      "type": "Feature",
      "properties": {
        "bird": "Far Eastern Curlew", 
        "color": "#73B647"   
      },
      "geometry": {
        "type": "LineString",
        "coordinates": [
          [
            153.245177,
            -27.488224
          ],
          [
            145.762938,
            -16.907416
          ],
          [
            129.465918,
            28.328386
          ],
          [
            125.961229,
            34.686017
          ],
          [
            128.541034,
            38.124175
          ],
          [
            118.039657,
            38.028994
          ]
        ]
      }
    },
    {
      "type": "Feature",
      "properties": {
        "bird": "Red-crowned Crane",
        "color": "#954CD1"        
      },
      "geometry": {
        "type": "LineString",
        "coordinates": [
          [
            120.70406,
            33.270871
          ],
          [
            120.183536,
            34.247525
          ],
          [
            118.655691,
            39.185085
          ],
          [
            121.879191,
            40.830365
          ],
          [
            128.746653,
            47.10782
          ],
          [
            130.383319,
            49.114042
          ]
        ]
      }
    },
    {
      "type": "Feature",
      "properties": {
        "bird": "Siberian Crane",
        "color": "#CA4A94"      
      },
      "geometry": {
        "type": "LineString",
        "coordinates": [
          [
            116.298112,
            29.111467
          ],
          [
            117.956948,
            33.061495
          ],
          [
            119.163469,
            37.762424
          ],
          [
            121.751487,
            41.032257
          ],
          [
            124.142611,
            45.365462
          ],
          [
            123.067378,
            47.298134
          ],
          [
            128.853988,
            54.704114
          ],
          [
            130.68029,
            58.757985
          ],
          [
            133.549496,
            62.352276
          ],
          [
            145.319649,
            68.194961
          ],
          [
            146.523639,
            69.274473
          ],
          [
            159.093535,
            70.679521
          ]                                                            
        ]
      }
    },
    {
      "type": "Feature",
      "properties": {
        "bird": "Stegneger's Stonechat",
        "color": "#D1503A"        
      },
      "geometry": {
        "type": "LineString",
        "coordinates": [
          [
            101.36623,
            15.523348
          ],
          [
            111.549704,
            21.991726
          ],
          [
            117.491638,
            38.510043
          ],
          [
            124.08845,
            53.153621
          ],
          [
            141.95,
            43.2
          ]          
        ]
      }
    },
    {
      "type": "Feature",
      "properties": {
        "bird": "Baer's Pochard", 
        "color": "#5EAF97"   
      },
      "geometry": {
        "type": "LineString",
        "coordinates": [
          [
            109.32865,
            31.328779
          ],
          [
            121.013126,
            31.771584
          ],
          [
            115.597647,
            37.603353
          ]
        ]
      }
    },  
    {
      "type": "Feature",
      "properties": {
        "bird": "Black-faced Spoonbill",
        "color": "#4E6530"      
      },
      "geometry": {
        "type": "LineString",
        "coordinates": [
          [
            105.777363,
            11.140681
          ],
          [
            119.290879,
            25.994357
          ],
          [
            124.976351,
            38.256542
          ]
        ]
      }
    }, 
    {
      "type": "Feature",
      "properties": {
        "bird": "Chinese Egret", 
        "color": "#C29549"        
      },
      "geometry": {
        "type": "LineString",
        "coordinates": [
          [
            103.818119,
            1.353799
          ],
          [
            122.846944,
            12.416093
          ],
          [
            121.907949,
            20.920159
          ],
          [
            128.241939,
            26.73479
          ],
          [
            137.684685,
            36.055925
          ],
          [
            126.610495,
            36.233266
          ],
          [
            130.922116,
            42.46798
          ]                                               
        ]
      }
    }, 
    {
      "type": "Feature",
      "properties": {
        "bird": "Spotted Greenshank",
        "color": "#CE8497"
      },
      "geometry": {
        "type": "LineString",
        "coordinates": [
          [
            90.154526,
            22.47101
          ],
          [
            103.818119,
            1.353799
          ],
          [
            138.38781,
            36.692811
          ],
          [
            126.456686,
            34.874735
          ],
          [
            103.767024,
            35.47111
          ],
          [
            143.079865,
            52.691604
          ]                                             
        ]
      }
    },
    {
      "type": "Feature",
      "properties": {
        "bird": "Spoon-billed Sandpiper",
        "color": "#5A4088"
      },      
      "geometry": {
        "type": "LineString",
        "coordinates": [
          [
            177.01171875,
            62.67414334669093
          ],
          [
            126.089302,
            37.776814
          ],
          [
            120.994306,
            32.685292
          ],
          [
            107.9557,
            16.22118
          ],
          [
            91.846389,
            21.543544
          ]
        ]
      }
    }                           
  ]
}