year,immigrants,ethnic-european,ethnic-eurasian,ethnic-chinese,ethnic-malay,ethnic-indian,ethnic-others,genderMale,genderFemale,birthMale,birthFemale,deathMale,deathFemale,genderRatio,total,totalBirth,totalDeath
1920,126077,7369,6025,283274,53935,35807,4901,215489,87832,5718,5085,9738,4113,2.45342244284543,303321,10803,13851
1921,191043,6064,5360,314523,53818,32180,5914,280641,137218,6539,5776,10207,3904,2.04522001486685,417859,12315,14111
1922,132886,6433,5635,327484,56606,33528,5928,291077,142321,6523,5935,9635,3981,2.04521469073433,433398,12458,13616
1923,159019,6694,5856,341091,62870,34869,6191,292195,165416,6769,6107,8244,3909,1.76642525511438,457611,12876,12153
1924,181430,6631,5600,356659,58591,34634,6956,307676,161395,7628,6770,8429,4145,1.9063539762694,469071,14398,12574
1925,214692,7294,5967,372472,61479,37028,7343,319490,172093,7736,7308,9168,4407,1.85649619682381,491583,15044,13575
1926,348593,8023,6055,388664,63246,37702,7751,329420,182021,8380,7418,11123,4922,1.80979117794101,511441,15798,16045
1927,359262,8825,6358,404856,64511,30587,8150,339848,192448,9186,8278,11954,5429,1.76592118390422,532296,17464,17383
1928,295700,9708,6676,421048,65801,41566,8567,350482,202884,10241,9091,10380,5024,1.72749945781826,553366,19332,15404
1929,293167,10679,7010,437240,67117,43644,8975,365981,208684,11053,9849,9794,5057,1.7537568764256,574665,20902,14851
