<?xml version="1.0" encoding="utf-8"?>
<!-- Generator: Adobe Illustrator 23.0.4, SVG Export Plug-In . SVG Version: 6.00 Build 0)  -->
<svg version="1.1" id="Layer_1" xmlns="http://www.w3.org/2000/svg" xmlns:xlink="http://www.w3.org/1999/xlink" x="0px" y="0px"
	 viewBox="0 0 28.1389 71.9351" enable-background="new 0 0 28.1389 71.9351" xml:space="preserve">
<rect fill="#FAD880" width="28.1389" height="71.9351"/>
<title>instant-noodleAsset 4</title>
<g>
	<g id="Layer_2-2">
		<path fill="#F5B817" d="M15.2141,71.9351h-4c0-3.795-1.4639-5.6246-3.1582-7.7432C6.1643,61.8271,4.0208,59.1475,4.0208,53.95
			s2.1435-7.8779,4.0351-10.2422c1.6943-2.1186,3.1582-3.9482,3.1582-7.7427S9.75,30.3408,8.0559,28.2227
			c-1.8916-2.3643-4.0351-5.0435-4.0351-10.2408s2.1435-7.8764,4.0351-10.24C9.75,5.6235,11.2141,3.7939,11.2141,0h4
			c0,5.1973-2.1435,7.8765-4.0351,10.2407c-1.6944,2.1182-3.1582,3.9478-3.1582,7.7412s1.4638,5.6236,3.1582,7.7417
			c1.8916,2.3643,4.0351,5.044,4.0351,10.2412s-2.1435,7.8775-4.0351,10.2417c-1.6944,2.1187-3.1582,3.9483-3.1582,7.7435
			s1.4638,5.6245,3.1582,7.7432C13.0706,64.0576,15.2141,66.7373,15.2141,71.9351z"/>
		<path fill="#F5B817" d="M24.69,71.9351h-4c0-3.795-1.4639-5.6246-3.1582-7.7432c-1.8918-2.3648-4.0355-5.0444-4.0355-10.2419
			s2.1436-7.8779,4.0352-10.2422c1.6943-2.1186,3.1582-3.9482,3.1582-7.7427s-1.4639-5.624-3.1582-7.7421
			c-1.8916-2.3643-4.0352-5.0435-4.0352-10.2408s2.1436-7.8764,4.0352-10.24C19.2258,5.6235,20.69,3.7939,20.69,0h4
			c0,5.1973-2.1436,7.8765-4.0352,10.2407c-1.6943,2.1182-3.1582,3.9478-3.1582,7.7412s1.4639,5.6236,3.1582,7.7417
			c1.8916,2.3643,4.0352,5.044,4.0352,10.2412s-2.1436,7.8775-4.0352,10.2417c-1.6943,2.1187-3.1582,3.9483-3.1582,7.7432
			s1.4639,5.6245,3.1582,7.7432C22.5461,64.0576,24.69,66.7373,24.69,71.9351z"/>
		<path fill="#F5B817" d="M0,12.3453c0.4846-0.7275,1.0059-1.43,1.5618-2.1046C3.4534,7.8765,5.5969,5.1973,5.5969,0h-4
			C1.6589,1.9991,1.1011,3.9684,0,5.638V12.3453z"/>
		<path fill="#F5B817" d="M0,59.5878v6.7082c1.1011,1.67,1.6589,3.6397,1.5969,5.6391h4c0-5.1978-2.1435-7.8775-4.0351-10.2422
			C1.0059,61.0181,0.4846,60.3155,0,59.5878z"/>
		<path fill="#F5B817" d="M0,23.619v6.7074c1.1011,1.6698,1.6589,3.6392,1.5969,5.6384C1.6589,37.9641,1.1011,39.9336,0,41.6035
			v6.7081c0.4846-0.7277,1.0059-1.4303,1.5618-2.1051c1.8916-2.3642,4.0351-5.0439,4.0351-10.2417s-2.1435-7.8769-4.0351-10.2412
			C1.0059,25.049,0.4846,24.3465,0,23.619z"/>
		<path fill="#F5B817" d="M28.1389,30.3268v-6.7074c-1.1009-1.6695-1.6586-3.6386-1.5967-5.6375
			c-0.0619-1.9987,0.4958-3.9677,1.5967-5.6371V5.6375c-0.4846,0.7273-1.0058,1.4296-1.5615,2.1042
			c-1.8916,2.3638-4.0352,5.0435-4.0352,10.24s2.1436,7.8765,4.0352,10.2408C27.1332,28.8971,27.6543,29.5994,28.1389,30.3268z"/>
		<path fill="#F5B817" d="M28.1389,59.5883c-1.1009-1.6698-1.6586-3.6392-1.5967-5.6383c-0.062-1.9992,0.4957-3.9687,1.5967-5.6386
			V41.603c-0.4846,0.7274-1.0058,1.4298-1.5615,2.1045c-1.8916,2.3643-4.0352,5.0445-4.0352,10.2422s2.1436,7.8774,4.0352,10.2422
			c0.5557,0.6747,1.0769,1.3771,1.5615,2.1045V59.5883z"/>
	</g>
</g>
</svg>
